ASxxxx Assembler V02.00 + NoICE + SDCC mods  (Zilog Z80 / Hitachi HD64180 / ZX-Next / eZ80)                   Page 1
Hexadecimal [24-Bits]

Symbol Table

    .__.$$$.                                                    =  002710 L
    .__.ABS.                                                    =  000000 G
    .__.CPU.                                                    =  000000 L
    .__.H$L.                                                    =  000000 L
  0 A$cpu$104                                                      00001F GR
  0 A$cpu$105                                                      000022 GR
  0 A$cpu$109                                                      000023 GR
  0 A$cpu$110                                                      000026 GR
  0 A$cpu$111                                                      000028 GR
  0 A$cpu$116                                                      000029 GR
  0 A$cpu$117                                                      00002C GR
  0 A$cpu$118                                                      00002D GR
  0 A$cpu$119                                                      00002E GR
  0 A$cpu$120                                                      00002F GR
  0 A$cpu$124                                                      000031 GR
  0 A$cpu$125                                                      000034 GR
  0 A$cpu$129                                                      000035 GR
  0 A$cpu$130                                                      000038 GR
  0 A$cpu$131                                                      00003A GR
  0 A$cpu$136                                                      00003B GR
  0 A$cpu$137                                                      00003E GR
  0 A$cpu$138                                                      00003F GR
  0 A$cpu$142                                                      000040 GR
  0 A$cpu$143                                                      000041 GR
  0 A$cpu$144                                                      000042 GR
  0 A$cpu$145                                                      000043 GR
  0 A$cpu$149                                                      000045 GR
  0 A$cpu$150                                                      000048 GR
  0 A$cpu$154                                                      000049 GR
  0 A$cpu$155                                                      00004C GR
  0 A$cpu$156                                                      00004E GR
  0 A$cpu$161                                                      00004F GR
  0 A$cpu$162                                                      000052 GR
  0 A$cpu$166                                                      000053 GR
  0 A$cpu$167                                                      000056 GR
  0 A$cpu$175                                                      000058 GR
  0 A$cpu$185                                                      000059 GR
  0 A$cpu$186                                                      00005A GR
  0 A$cpu$190                                                      00005B GR
  0 A$cpu$191                                                      00005E GR
  0 A$cpu$192                                                      00005F GR
  0 A$cpu$196                                                      000061 GR
  0 A$cpu$197                                                      000064 GR
  0 A$cpu$201                                                      000065 GR
  0 A$cpu$202                                                      000068 GR
  0 A$cpu$203                                                      00006A GR
  0 A$cpu$208                                                      00006B GR
  0 A$cpu$209                                                      00006E GR
  0 A$cpu$213                                                      00006F GR
  0 A$cpu$214                                                      000070 GR
  0 A$cpu$218                                                      000071 GR
  0 A$cpu$222                                                      000072 GR
  0 A$cpu$223                                                      000073 GR
  0 A$cpu$224                                                      000075 GR
  0 A$cpu$225                                                      000076 GR
ASxxxx Assembler V02.00 + NoICE + SDCC mods  (Zilog Z80 / Hitachi HD64180 / ZX-Next / eZ80)                   Page 2
Hexadecimal [24-Bits]

Symbol Table

  0 A$cpu$229                                                      000078 GR
  0 A$cpu$230                                                      00007B GR
  0 A$cpu$234                                                      00007C GR
  0 A$cpu$235                                                      00007F GR
  0 A$cpu$236                                                      000081 GR
  0 A$cpu$241                                                      000082 GR
  0 A$cpu$242                                                      000085 GR
  0 A$cpu$246                                                      000086 GR
  0 A$cpu$247                                                      000089 GR
  0 A$cpu$248                                                      00008B GR
  0 A$cpu$253                                                      00008C GR
  0 A$cpu$254                                                      00008F GR
  0 A$cpu$255                                                      000090 GR
  0 A$cpu$256                                                      000091 GR
  0 A$cpu$257                                                      000092 GR
  0 A$cpu$261                                                      000094 GR
  0 A$cpu$262                                                      000097 GR
  0 A$cpu$263                                                      000098 GR
  0 A$cpu$268                                                      000099 GR
  0 A$cpu$269                                                      00009C GR
  0 A$cpu$270                                                      00009D GR
  0 A$cpu$274                                                      00009E GR
  0 A$cpu$275                                                      00009F GR
  0 A$cpu$276                                                      0000A0 GR
  0 A$cpu$277                                                      0000A1 GR
  0 A$cpu$281                                                      0000A3 GR
  0 A$cpu$282                                                      0000A6 GR
  0 A$cpu$283                                                      0000A7 GR
  0 A$cpu$288                                                      0000A8 GR
  0 A$cpu$289                                                      0000AB GR
  0 A$cpu$293                                                      0000AC GR
  0 A$cpu$294                                                      0000AF GR
  0 A$cpu$302                                                      0000B1 GR
  0 A$cpu$312                                                      0000B2 GR
  0 A$cpu$313                                                      0000B4 GR
  0 A$cpu$314                                                      0000B8 GR
  0 A$cpu$315                                                      0000BA GR
  0 A$cpu$316                                                      0000BB GR
  0 A$cpu$320                                                      0000BC GR
  0 A$cpu$321                                                      0000BF GR
  0 A$cpu$325                                                      0000C1 GR
  0 A$cpu$326                                                      0000C4 GR
  0 A$cpu$330                                                      0000C6 GR
  0 A$cpu$331                                                      0000C9 GR
  0 A$cpu$335                                                      0000CB GR
  0 A$cpu$339                                                      0000CF GR
  0 A$cpu$340                                                      0000D2 GR
  0 A$cpu$341                                                      0000D5 GR
  0 A$cpu$342                                                      0000D7 GR
  0 A$cpu$343                                                      0000D9 GR
  0 A$cpu$344                                                      0000DB GR
  0 A$cpu$346                                                      0000DC GR
  0 A$cpu$347                                                      0000DF GR
  0 A$cpu$348                                                      0000E3 GR
  0 A$cpu$349                                                      0000E6 GR
ASxxxx Assembler V02.00 + NoICE + SDCC mods  (Zilog Z80 / Hitachi HD64180 / ZX-Next / eZ80)                   Page 3
Hexadecimal [24-Bits]

Symbol Table

  0 A$cpu$350                                                      0000E9 GR
  0 A$cpu$351                                                      0000EB GR
  0 A$cpu$355                                                      0000EE GR
  0 A$cpu$356                                                      0000F1 GR
  0 A$cpu$357                                                      0000F3 GR
  0 A$cpu$361                                                      0000F6 GR
  0 A$cpu$365                                                      0000FA GR
  0 A$cpu$369                                                      0000FE GR
  0 A$cpu$374                                                      000100 GR
  0 A$cpu$375                                                      000103 GR
  0 A$cpu$376                                                      000105 GR
  0 A$cpu$377                                                      000106 GR
  0 A$cpu$379                                                      000107 GR
  0 A$cpu$380                                                      000108 GR
  0 A$cpu$381                                                      000109 GR
  0 A$cpu$385                                                      00010B GR
  0 A$cpu$386                                                      00010C GR
  0 A$cpu$387                                                      00010E GR
  0 A$cpu$391                                                      000111 GR
  0 A$cpu$392                                                      000112 GR
  0 A$cpu$393                                                      000114 GR
  0 A$cpu$394                                                      000115 GR
  0 A$cpu$395                                                      000117 GR
  0 A$cpu$396                                                      000119 GR
  0 A$cpu$397                                                      00011B GR
  0 A$cpu$398                                                      00011D GR
  0 A$cpu$402                                                      00011F GR
  0 A$cpu$403                                                      000120 GR
  0 A$cpu$404                                                      000123 GR
  0 A$cpu$408                                                      000125 GR
  0 A$cpu$412                                                      000128 GR
  0 A$cpu$413                                                      00012C GR
  0 A$cpu$421                                                      00012E GR
  0 A$cpu$426                                                      000132 GR
  0 A$cpu$427                                                      000135 GR
  0 A$cpu$428                                                      000136 GR
  0 A$cpu$432                                                      000138 GR
  0 A$cpu$436                                                      00013B GR
  0 A$cpu$437                                                      00013C GR
  0 A$cpu$438                                                      00013E GR
  0 A$cpu$442                                                      000141 GR
  0 A$cpu$447                                                      000144 GR
  0 A$cpu$448                                                      000145 GR
  0 A$cpu$449                                                      000146 GR
  0 A$cpu$450                                                      000148 GR
  0 A$cpu$454                                                      00014A GR
  0 A$cpu$455                                                      00014D GR
  0 A$cpu$459                                                      000150 GR
  0 A$cpu$460                                                      000153 GR
  0 A$cpu$461                                                      000155 GR
  0 A$cpu$465                                                      000157 GR
  0 A$cpu$466                                                      00015A GR
  0 A$cpu$467                                                      00015C GR
  0 A$cpu$471                                                      00015E GR
  0 A$cpu$474                                                      000161 GR
ASxxxx Assembler V02.00 + NoICE + SDCC mods  (Zilog Z80 / Hitachi HD64180 / ZX-Next / eZ80)                   Page 4
Hexadecimal [24-Bits]

Symbol Table

  0 A$cpu$475                                                      000163 GR
  0 A$cpu$476                                                      000166 GR
  0 A$cpu$481                                                      000168 GR
  0 A$cpu$482                                                      00016B GR
  0 A$cpu$483                                                      00016D GR
  0 A$cpu$487                                                      00016F GR
  0 A$cpu$490                                                      000172 GR
  0 A$cpu$491                                                      000174 GR
  0 A$cpu$492                                                      000177 GR
  0 A$cpu$497                                                      000179 GR
  0 A$cpu$498                                                      00017C GR
  0 A$cpu$499                                                      00017E GR
  0 A$cpu$503                                                      000180 GR
  0 A$cpu$506                                                      000183 GR
  0 A$cpu$507                                                      000185 GR
  0 A$cpu$508                                                      000188 GR
  0 A$cpu$513                                                      00018A GR
  0 A$cpu$514                                                      00018D GR
  0 A$cpu$515                                                      00018F GR
  0 A$cpu$519                                                      000191 GR
  0 A$cpu$522                                                      000194 GR
  0 A$cpu$523                                                      000196 GR
  0 A$cpu$528                                                      000199 GR
  0 A$cpu$529                                                      00019C GR
  0 A$cpu$530                                                      00019F GR
  0 A$cpu$534                                                      0001A2 GR
  0 A$cpu$535                                                      0001A5 GR
  0 A$cpu$536                                                      0001A7 GR
  0 A$cpu$537                                                      0001A9 GR
  0 A$cpu$538                                                      0001AC GR
  0 A$cpu$539                                                      0001AE GR
  0 A$cpu$540                                                      0001B1 GR
  0 A$cpu$541                                                      0001B4 GR
  0 A$cpu$542                                                      0001B6 GR
  0 A$cpu$547                                                      0001B9 GR
  0 A$cpu$548                                                      0001BC GR
  0 A$cpu$549                                                      0001BE GR
  0 A$cpu$553                                                      0001C1 GR
  0 A$cpu$554                                                      0001C4 GR
  0 A$cpu$558                                                      0001C6 GR
  0 A$cpu$559                                                      0001C9 GR
  0 A$cpu$560                                                      0001CA GR
  0 A$cpu$561                                                      0001CC GR
  0 A$cpu$562                                                      0001CF GR
  0 A$cpu$567                                                      0001D0 GR
  0 A$cpu$568                                                      0001D3 GR
  0 A$cpu$572                                                      0001D4 GR
  0 A$cpu$573                                                      0001D7 GR
  0 A$cpu$574                                                      0001DA GR
  0 A$cpu$575                                                      0001DD GR
  0 A$cpu$58                                                       000000 GR
  0 A$cpu$580                                                      0001DF GR
  0 A$cpu$581                                                      0001E2 GR
  0 A$cpu$582                                                      0001E3 GR
  0 A$cpu$586                                                      0001E5 GR
ASxxxx Assembler V02.00 + NoICE + SDCC mods  (Zilog Z80 / Hitachi HD64180 / ZX-Next / eZ80)                   Page 5
Hexadecimal [24-Bits]

Symbol Table

  0 A$cpu$587                                                      0001E8 GR
  0 A$cpu$588                                                      0001EA GR
  0 A$cpu$59                                                       000001 GR
  0 A$cpu$593                                                      0001EC GR
  0 A$cpu$594                                                      0001EF GR
  0 A$cpu$599                                                      0001F1 GR
  0 A$cpu$604                                                      0001F5 GR
  0 A$cpu$605                                                      0001F8 GR
  0 A$cpu$609                                                      0001FB GR
  0 A$cpu$610                                                      0001FE GR
  0 A$cpu$611                                                      000202 GR
  0 A$cpu$612                                                      000205 GR
  0 A$cpu$613                                                      000207 GR
  0 A$cpu$614                                                      00020A GR
  0 A$cpu$615                                                      00020C GR
  0 A$cpu$617                                                      00020E GR
  0 A$cpu$618                                                      000211 GR
  0 A$cpu$619                                                      000214 GR
  0 A$cpu$620                                                      000216 GR
  0 A$cpu$621                                                      000219 GR
  0 A$cpu$622                                                      00021B GR
  0 A$cpu$623                                                      00021D GR
  0 A$cpu$624                                                      000220 GR
  0 A$cpu$625                                                      000222 GR
  0 A$cpu$63                                                       000002 GR
  0 A$cpu$630                                                      000224 GR
  0 A$cpu$634                                                      000227 GR
  0 A$cpu$635                                                      00022A GR
  0 A$cpu$636                                                      00022D GR
  0 A$cpu$64                                                       000005 GR
  0 A$cpu$641                                                      000230 GR
  0 A$cpu$642                                                      000233 GR
  0 A$cpu$643                                                      000236 GR
  0 A$cpu$644                                                      000238 GR
  0 A$cpu$649                                                      00023A GR
  0 A$cpu$65                                                       000006 GR
  0 A$cpu$650                                                      00023D GR
  0 A$cpu$654                                                      000240 GR
  0 A$cpu$658                                                      000243 GR
  0 A$cpu$659                                                      000245 GR
  0 A$cpu$664                                                      000247 GR
  0 A$cpu$674                                                      000248 GR
  0 A$cpu$675                                                      000249 GR
  0 A$cpu$679                                                      00024A GR
  0 A$cpu$680                                                      00024D GR
  0 A$cpu$681                                                      00024E GR
  0 A$cpu$685                                                      000250 GR
  0 A$cpu$686                                                      000253 GR
  0 A$cpu$687                                                      000254 GR
  0 A$cpu$69                                                       000008 GR
  0 A$cpu$691                                                      000255 GR
  0 A$cpu$692                                                      000258 GR
  0 A$cpu$693                                                      000259 GR
  0 A$cpu$697                                                      00025A GR
  0 A$cpu$698                                                      00025B GR
ASxxxx Assembler V02.00 + NoICE + SDCC mods  (Zilog Z80 / Hitachi HD64180 / ZX-Next / eZ80)                   Page 6
Hexadecimal [24-Bits]

Symbol Table

  0 A$cpu$699                                                      00025C GR
  0 A$cpu$70                                                       00000B GR
  0 A$cpu$700                                                      00025F GR
  0 A$cpu$702                                                      000261 GR
  0 A$cpu$706                                                      000264 GR
  0 A$cpu$707                                                      000267 GR
  0 A$cpu$708                                                      000268 GR
  0 A$cpu$71                                                       00000C GR
  0 A$cpu$713                                                      00026A GR
  0 A$cpu$714                                                      00026D GR
  0 A$cpu$719                                                      00026F GR
  0 A$cpu$720                                                      000270 GR
  0 A$cpu$721                                                      000271 GR
  0 A$cpu$722                                                      000274 GR
  0 A$cpu$724                                                      000276 GR
  0 A$cpu$728                                                      000279 GR
  0 A$cpu$729                                                      00027C GR
  0 A$cpu$734                                                      00027D GR
  0 A$cpu$735                                                      00027F GR
  0 A$cpu$739                                                      000281 GR
  0 A$cpu$740                                                      000284 GR
  0 A$cpu$745                                                      000285 GR
  0 A$cpu$749                                                      000288 GR
  0 A$cpu$750                                                      00028B GR
  0 A$cpu$751                                                      00028C GR
  0 A$cpu$756                                                      00028D GR
  0 A$cpu$757                                                      000290 GR
  0 A$cpu$76                                                       00000D GR
  0 A$cpu$761                                                      000291 GR
  0 A$cpu$769                                                      000294 GR
  0 A$cpu$77                                                       000010 GR
  0 A$cpu$779                                                      000295 GR
  0 A$cpu$783                                                      000296 GR
  0 A$cpu$784                                                      000299 GR
  0 A$cpu$785                                                      00029A GR
  0 A$cpu$789                                                      00029C GR
  0 A$cpu$790                                                      00029F GR
  0 A$cpu$791                                                      0002A2 GR
  0 A$cpu$792                                                      0002A3 GR
  0 A$cpu$796                                                      0002A4 GR
  0 A$cpu$797                                                      0002A7 GR
  0 A$cpu$798                                                      0002A8 GR
  0 A$cpu$802                                                      0002A9 GR
  0 A$cpu$803                                                      0002AA GR
  0 A$cpu$804                                                      0002AB GR
  0 A$cpu$805                                                      0002AE GR
  0 A$cpu$807                                                      0002B0 GR
  0 A$cpu$81                                                       000011 GR
  0 A$cpu$811                                                      0002B3 GR
  0 A$cpu$812                                                      0002B6 GR
  0 A$cpu$813                                                      0002B7 GR
  0 A$cpu$818                                                      0002B9 GR
  0 A$cpu$819                                                      0002BC GR
  0 A$cpu$82                                                       000012 GR
  0 A$cpu$824                                                      0002BE GR
ASxxxx Assembler V02.00 + NoICE + SDCC mods  (Zilog Z80 / Hitachi HD64180 / ZX-Next / eZ80)                   Page 7
Hexadecimal [24-Bits]

Symbol Table

  0 A$cpu$825                                                      0002BF GR
  0 A$cpu$826                                                      0002C0 GR
  0 A$cpu$827                                                      0002C3 GR
  0 A$cpu$829                                                      0002C5 GR
  0 A$cpu$833                                                      0002C8 GR
  0 A$cpu$834                                                      0002CB GR
  0 A$cpu$838                                                      0002CC GR
  0 A$cpu$839                                                      0002CF GR
  0 A$cpu$844                                                      0002D0 GR
  0 A$cpu$845                                                      0002D2 GR
  0 A$cpu$849                                                      0002D4 GR
  0 A$cpu$850                                                      0002D7 GR
  0 A$cpu$854                                                      0002D8 GR
  0 A$cpu$855                                                      0002DB GR
  0 A$cpu$86                                                       000013 GR
  0 A$cpu$860                                                      0002DC GR
  0 A$cpu$861                                                      0002DF GR
  0 A$cpu$866                                                      0002E0 GR
  0 A$cpu$867                                                      0002E3 GR
  0 A$cpu$871                                                      0002E4 GR
  0 A$cpu$879                                                      0002E7 GR
  0 A$cpu$90                                                       000014 GR
  0 A$cpu$91                                                       000015 GR
  0 A$cpu$92                                                       000017 GR
  0 A$cpu$93                                                       000018 GR
  0 A$cpu$97                                                       00001A GR
  0 A$cpu$98                                                       00001D GR
  0 A$cpu$99                                                       00001E GR
  0 C$cpu.c$100$3_0$115                                         =  000179 GR
  0 C$cpu.c$101$4_0$116                                         =  000180 GR
  0 C$cpu.c$102$3_0$115                                         =  00018A GR
  0 C$cpu.c$103$4_0$117                                         =  000191 GR
  0 C$cpu.c$109$2_0$105                                         =  000199 GR
  0 C$cpu.c$11$0_0$84                                           =  000000 GR
  0 C$cpu.c$110$2_0$105                                         =  0001A2 GR
  0 C$cpu.c$111$3_0$118                                         =  0001B9 GR
  0 C$cpu.c$112$3_0$118                                         =  0001C1 GR
  0 C$cpu.c$113$3_0$118                                         =  0001C6 GR
  0 C$cpu.c$114$3_0$118                                         =  0001D0 GR
  0 C$cpu.c$115$3_0$118                                         =  0001D4 GR
  0 C$cpu.c$118$2_0$119                                         =  0001DF GR
  0 C$cpu.c$119$3_0$120                                         =  0001E5 GR
  0 C$cpu.c$12$1_0$84                                           =  000002 GR
  0 C$cpu.c$121$3_0$121                                         =  0001EC GR
  0 C$cpu.c$124$1_0$104                                         =  0001F1 GR
  0 C$cpu.c$124$3_0$122                                         =  000230 GR
  0 C$cpu.c$125$4_0$123                                         =  0001F5 GR
  0 C$cpu.c$126$4_0$123                                         =  0001FB GR
  0 C$cpu.c$127$5_0$124                                         =  000224 GR
  0 C$cpu.c$128$5_0$124                                         =  000227 GR
  0 C$cpu.c$13$2_0$85                                           =  000008 GR
  0 C$cpu.c$133$1_0$104                                         =  00023A GR
  0 C$cpu.c$134$1_0$104                                         =  000240 GR
  0 C$cpu.c$135$1_0$104                                         =  000247 GR
  0 C$cpu.c$138$1_0$126                                         =  000248 GR
ASxxxx Assembler V02.00 + NoICE + SDCC mods  (Zilog Z80 / Hitachi HD64180 / ZX-Next / eZ80)                   Page 8
Hexadecimal [24-Bits]

Symbol Table

  0 C$cpu.c$14$1_0$84                                           =  000013 GR
  0 C$cpu.c$141$1_0$126                                         =  00024A GR
  0 C$cpu.c$142$2_0$127                                         =  000250 GR
  0 C$cpu.c$143$2_0$127                                         =  000255 GR
  0 C$cpu.c$144$2_0$127                                         =  00025A GR
  0 C$cpu.c$145$3_0$128                                         =  000264 GR
  0 C$cpu.c$147$3_0$129                                         =  00026A GR
  0 C$cpu.c$149$2_0$127                                         =  00026F GR
  0 C$cpu.c$15$2_0$86                                           =  000014 GR
  0 C$cpu.c$150$3_0$130                                         =  000279 GR
  0 C$cpu.c$151$2_0$127                                         =  00027D GR
  0 C$cpu.c$152$3_0$131                                         =  000281 GR
  0 C$cpu.c$154$3_0$132                                         =  000285 GR
  0 C$cpu.c$155$3_0$132                                         =  000288 GR
  0 C$cpu.c$158$2_0$133                                         =  00028D GR
  0 C$cpu.c$159$2_0$133                                         =  000291 GR
  0 C$cpu.c$16$1_0$84                                           =  000011 GR
  0 C$cpu.c$16$3_0$87                                           =  00001A GR
  0 C$cpu.c$162$1_0$126                                         =  000294 GR
  0 C$cpu.c$164$1_0$135                                         =  000295 GR
  0 C$cpu.c$166$1_0$135                                         =  000296 GR
  0 C$cpu.c$167$2_0$136                                         =  00029C GR
  0 C$cpu.c$168$2_0$136                                         =  0002A4 GR
  0 C$cpu.c$169$2_0$136                                         =  0002A9 GR
  0 C$cpu.c$170$3_0$137                                         =  0002B3 GR
  0 C$cpu.c$172$3_0$138                                         =  0002B9 GR
  0 C$cpu.c$174$2_0$136                                         =  0002BE GR
  0 C$cpu.c$175$3_0$139                                         =  0002C8 GR
  0 C$cpu.c$176$3_0$139                                         =  0002CC GR
  0 C$cpu.c$177$2_0$136                                         =  0002D0 GR
  0 C$cpu.c$178$3_0$140                                         =  0002D4 GR
  0 C$cpu.c$179$3_0$140                                         =  0002D8 GR
  0 C$cpu.c$18$3_0$88                                           =  00001F GR
  0 C$cpu.c$181$2_0$136                                         =  0002DC GR
  0 C$cpu.c$183$2_0$141                                         =  0002E0 GR
  0 C$cpu.c$184$2_0$141                                         =  0002E4 GR
  0 C$cpu.c$187$1_0$135                                         =  0002E7 GR
  0 C$cpu.c$19$3_0$88                                           =  000023 GR
  0 C$cpu.c$21$1_0$84                                           =  000029 GR
  0 C$cpu.c$22$2_0$89                                           =  000031 GR
  0 C$cpu.c$23$2_0$89                                           =  000035 GR
  0 C$cpu.c$24$1_0$84                                           =  00003B GR
  0 C$cpu.c$25$2_0$90                                           =  000040 GR
  0 C$cpu.c$26$3_0$91                                           =  000045 GR
  0 C$cpu.c$27$3_0$91                                           =  000049 GR
  0 C$cpu.c$29$3_0$92                                           =  00004F GR
  0 C$cpu.c$30$3_0$92                                           =  000053 GR
  0 C$cpu.c$33$1_0$84                                           =  000058 GR
  0 C$cpu.c$35$1_0$94                                           =  000059 GR
  0 C$cpu.c$36$1_0$94                                           =  00005B GR
  0 C$cpu.c$37$2_0$95                                           =  000061 GR
  0 C$cpu.c$38$2_0$95                                           =  000065 GR
  0 C$cpu.c$39$1_0$94                                           =  000071 GR
  0 C$cpu.c$40$2_0$96                                           =  000072 GR
  0 C$cpu.c$41$1_0$94                                           =  00006F GR
ASxxxx Assembler V02.00 + NoICE + SDCC mods  (Zilog Z80 / Hitachi HD64180 / ZX-Next / eZ80)                   Page 9
Hexadecimal [24-Bits]

Symbol Table

  0 C$cpu.c$41$3_0$97                                           =  000078 GR
  0 C$cpu.c$42$3_0$97                                           =  00007C GR
  0 C$cpu.c$44$3_0$98                                           =  000082 GR
  0 C$cpu.c$45$3_0$98                                           =  000086 GR
  0 C$cpu.c$47$1_0$94                                           =  00008C GR
  0 C$cpu.c$48$2_0$99                                           =  000094 GR
  0 C$cpu.c$49$1_0$94                                           =  000099 GR
  0 C$cpu.c$50$2_0$100                                          =  00009E GR
  0 C$cpu.c$51$3_0$101                                          =  0000A3 GR
  0 C$cpu.c$53$3_0$102                                          =  0000A8 GR
  0 C$cpu.c$54$3_0$102                                          =  0000AC GR
  0 C$cpu.c$57$1_0$94                                           =  0000B1 GR
  0 C$cpu.c$59$1_0$104                                          =  0000B2 GR
  0 C$cpu.c$63$1_0$104                                          =  0000BC GR
  0 C$cpu.c$64$1_0$104                                          =  0000C1 GR
  0 C$cpu.c$65$1_0$104                                          =  0000C6 GR
  0 C$cpu.c$66$1_0$104                                          =  0000CB GR
  0 C$cpu.c$67$1_0$104                                          =  0000CF GR
  0 C$cpu.c$68$2_0$105                                          =  0000EE GR
  0 C$cpu.c$69$2_0$105                                          =  0000F6 GR
  0 C$cpu.c$70$2_0$105                                          =  0000FA GR
  0 C$cpu.c$73$3_0$106                                          =  000144 GR
  0 C$cpu.c$73$4_0$107                                          =  0000FE GR
  0 C$cpu.c$74$1_0$104                                          =  000100 GR
  0 C$cpu.c$75$5_0$108                                          =  00010B GR
  0 C$cpu.c$76$5_0$108                                          =  000111 GR
  0 C$cpu.c$77$5_0$108                                          =  00011F GR
  0 C$cpu.c$78$6_0$109                                          =  000125 GR
  0 C$cpu.c$79$6_0$109                                          =  000128 GR
  0 C$cpu.c$81$6_0$110                                          =  00012E GR
  0 C$cpu.c$82$6_0$110                                          =  00012E GR
  0 C$cpu.c$84$5_0$108                                          =  000132 GR
  0 C$cpu.c$85$6_0$111                                          =  000138 GR
  0 C$cpu.c$86$6_0$111                                          =  00013B GR
  0 C$cpu.c$87$6_0$111                                          =  000141 GR
  0 C$cpu.c$91$2_0$105                                          =  00014A GR
  0 C$cpu.c$93$2_0$105                                          =  000150 GR
  0 C$cpu.c$94$3_0$112                                          =  000157 GR
  0 C$cpu.c$95$4_0$113                                          =  00015E GR
  0 C$cpu.c$96$3_0$112                                          =  000168 GR
  0 C$cpu.c$97$4_0$114                                          =  00016F GR
  0 G$decideDirection$0$0                                       =  000248 GR
  0 G$decideNextMove$0$0                                        =  0000B2 GR
  0 G$decideRotation$0$0                                        =  000295 GR
  0 G$getTargetBottomPart$0$0                                   =  000000 GR
  0 G$getTargetUpperPart$0$0                                    =  000059 GR
  0 XG$decideDirection$0$0                                      =  000294 GR
  0 XG$decideNextMove$0$0                                       =  000247 GR
  0 XG$decideRotation$0$0                                       =  0002E7 GR
  0 XG$getTargetBottomPart$0$0                                  =  000058 GR
  0 XG$getTargetUpperPart$0$0                                   =  0000B1 GR
    _current_rotation                                              ****** GX
    _current_square                                                ****** GX
  0 _decideDirection                                               000248 GR
  0 _decideNextMove                                                0000B2 GR
ASxxxx Assembler V02.00 + NoICE + SDCC mods  (Zilog Z80 / Hitachi HD64180 / ZX-Next / eZ80)                    Page 10
Hexadecimal [24-Bits]

Symbol Table

  0 _decideRotation                                                000295 GR
    _getCollisionRowFromColumn                                     ****** GX
  0 _getTargetBottomPart                                           000000 GR
  0 _getTargetUpperPart                                            000059 GR
    _get_rand                                                      ****** GX
    _movement_counter                                              ****** GX
    _rotation_counter                                              ****** GX
    _suitable_columns                                              ****** GX
    _target_column                                                 ****** GX
    _target_rotation                                               ****** GX
    _target_row                                                    ****** GX


ASxxxx Assembler V02.00 + NoICE + SDCC mods  (Zilog Z80 / Hitachi HD64180 / ZX-Next / eZ80)                    Page 11
Hexadecimal [24-Bits]

Area Table

   0 _CODE                                      size    2E8   flags    0
   1 _DATA                                      size      0   flags    0
   2 _INITIALIZED                               size      0   flags    0
   3 _DABS                                      size      0   flags    8
   4 _HOME                                      size      0   flags    0
   5 _GSINIT                                    size      0   flags    0
   6 _GSFINAL                                   size      0   flags    0
   7 _INITIALIZER                               size      0   flags    0
   8 _CABS                                      size      0   flags    8

