                                      1 ;--------------------------------------------------------
                                      2 ; File Created by SDCC : free open source ISO C Compiler 
                                      3 ; Version 4.2.12 #13827 (Linux)
                                      4 ;--------------------------------------------------------
                                      5 	.module demo_state
                                      6 	.optsdcc -mz80
                                      7 	
                                      8 ;--------------------------------------------------------
                                      9 ; Public variables in this module
                                     10 ;--------------------------------------------------------
                                     11 	.globl _get_rand
                                     12 	.globl _waitForFrame
                                     13 	.globl _getButtonsPressed
                                     14 	.globl _update_input
                                     15 	.globl _clear_input
                                     16 	.globl _transition_to_state
                                     17 	.globl _end_demo
                                     18 	.globl _get_game_actions
                                     19 	.globl _execute_game_logic
                                     20 	.globl _init_gamestatus
                                     21 	.globl _init_board
                                     22 	.globl _play_song
                                     23 	.globl _start_fadein_music
                                     24 	.globl _print_string
                                     25 	.globl _print_level_number
                                     26 	.globl _print_score_value
                                     27 	.globl _draw_game_screen
                                     28 	.globl _draw_game_background
                                     29 	.globl _clear_game_lists
                                     30 	.globl _initialize_game_lists
                                     31 	.globl _game_fade_in
                                     32 	.globl _general_fade_out
                                     33 	.globl _load_game_assets
                                     34 	.globl _SMS_zeroSpritePalette
                                     35 	.globl _SMS_zeroBGPalette
                                     36 	.globl _startLevel
                                     37 	.globl _demo_state_status
                                     38 	.globl _demo_duration
                                     39 	.globl _SMS_SRAM
                                     40 	.globl _SRAM_bank_to_be_mapped_on_slot2
                                     41 	.globl _ROM_bank_to_be_mapped_on_slot0
                                     42 	.globl _ROM_bank_to_be_mapped_on_slot1
                                     43 	.globl _ROM_bank_to_be_mapped_on_slot2
                                     44 	.globl _demo_state_start
                                     45 	.globl _demo_state_update
                                     46 	.globl _demo_state_stop
                                     47 ;--------------------------------------------------------
                                     48 ; special function registers
                                     49 ;--------------------------------------------------------
                                     50 ;--------------------------------------------------------
                                     51 ; ram data
                                     52 ;--------------------------------------------------------
                                     53 	.area _DATA
                           00FFFF    54 G$ROM_bank_to_be_mapped_on_slot2$0_0$0 == 0xffff
                           00FFFF    55 _ROM_bank_to_be_mapped_on_slot2	=	0xffff
                           00FFFE    56 G$ROM_bank_to_be_mapped_on_slot1$0_0$0 == 0xfffe
                           00FFFE    57 _ROM_bank_to_be_mapped_on_slot1	=	0xfffe
                           00FFFD    58 G$ROM_bank_to_be_mapped_on_slot0$0_0$0 == 0xfffd
                           00FFFD    59 _ROM_bank_to_be_mapped_on_slot0	=	0xfffd
                           00FFFC    60 G$SRAM_bank_to_be_mapped_on_slot2$0_0$0 == 0xfffc
                           00FFFC    61 _SRAM_bank_to_be_mapped_on_slot2	=	0xfffc
                           008000    62 G$SMS_SRAM$0_0$0 == 0x8000
                           008000    63 _SMS_SRAM	=	0x8000
                           000000    64 G$demo_duration$0_0$0==.
      000000                         65 _demo_duration::
      000000                         66 	.ds 2
                                     67 ;--------------------------------------------------------
                                     68 ; ram data
                                     69 ;--------------------------------------------------------
                                     70 	.area _INITIALIZED
                           000000    71 G$demo_state_status$0_0$0==.
      000000                         72 _demo_state_status::
      000000                         73 	.ds 1
                           000001    74 G$startLevel$0_0$0==.
      000001                         75 _startLevel::
      000001                         76 	.ds 1
                                     77 ;--------------------------------------------------------
                                     78 ; absolute external ram data
                                     79 ;--------------------------------------------------------
                                     80 	.area _DABS (ABS)
                                     81 ;--------------------------------------------------------
                                     82 ; global & static initialisations
                                     83 ;--------------------------------------------------------
                                     84 	.area _HOME
                                     85 	.area _GSINIT
                                     86 	.area _GSFINAL
                                     87 	.area _GSINIT
                                     88 ;--------------------------------------------------------
                                     89 ; Home
                                     90 ;--------------------------------------------------------
                                     91 	.area _HOME
                                     92 	.area _HOME
                                     93 ;--------------------------------------------------------
                                     94 ; code
                                     95 ;--------------------------------------------------------
                                     96 	.area _CODE
                           000000    97 	G$demo_state_start$0$0	= .
                                     98 	.globl	G$demo_state_start$0$0
                           000000    99 	C$demo_state.c$19$0_0$236	= .
                                    100 	.globl	C$demo_state.c$19$0_0$236
                                    101 ;src/states/demo_state.c:19: void demo_state_start(void) {
                                    102 ;	---------------------------------
                                    103 ; Function demo_state_start
                                    104 ; ---------------------------------
      000000                        105 _demo_state_start::
                           000000   106 	C$demo_state.c$20$1_0$236	= .
                                    107 	.globl	C$demo_state.c$20$1_0$236
                                    108 ;src/states/demo_state.c:20: number_human_players = 0;
      000000 21r00r00         [10]  109 	ld	hl, #_number_human_players
      000003 36 00            [10]  110 	ld	(hl), #0x00
                           000005   111 	C$demo_state.c$21$1_0$236	= .
                                    112 	.globl	C$demo_state.c$21$1_0$236
                                    113 ;src/states/demo_state.c:21: load_game_assets();
      000005 CDr00r00         [17]  114 	call	_load_game_assets
                           000008   115 	C$demo_state.c$22$1_0$236	= .
                                    116 	.globl	C$demo_state.c$22$1_0$236
                                    117 ;src/states/demo_state.c:22: draw_game_background();
      000008 CDr00r00         [17]  118 	call	_draw_game_background
                           00000B   119 	C$demo_state.c$23$1_0$236	= .
                                    120 	.globl	C$demo_state.c$23$1_0$236
                                    121 ;src/states/demo_state.c:23: startLevel = get_rand()&7;
      00000B CDr00r00         [17]  122 	call	_get_rand
      00000E E6 07            [ 7]  123 	and	a, #0x07
                           000010   124 	C$demo_state.c$24$1_0$236	= .
                                    125 	.globl	C$demo_state.c$24$1_0$236
                                    126 ;src/states/demo_state.c:24: init_gamestatus(startLevel); 
      000010 32r01r00         [13]  127 	ld	(_startLevel+0), a
      000013 CDr00r00         [17]  128 	call	_init_gamestatus
                           000016   129 	C$demo_state.c$25$1_0$236	= .
                                    130 	.globl	C$demo_state.c$25$1_0$236
                                    131 ;src/states/demo_state.c:25: init_board();
      000016 CDr00r00         [17]  132 	call	_init_board
                           000019   133 	C$demo_state.c$26$1_0$236	= .
                                    134 	.globl	C$demo_state.c$26$1_0$236
                                    135 ;src/states/demo_state.c:26: frame_cnt = 0;
      000019 21 00 00         [10]  136 	ld	hl, #0x0000
      00001C 22r00r00         [16]  137 	ld	(_frame_cnt), hl
                           00001F   138 	C$demo_state.c$27$1_0$236	= .
                                    139 	.globl	C$demo_state.c$27$1_0$236
                                    140 ;src/states/demo_state.c:27: demo_state_status = 0;
      00001F FD 21r00r00      [14]  141 	ld	iy, #_demo_state_status
      000023 FD 36 00 00      [19]  142 	ld	0 (iy), #0x00
                           000027   143 	C$demo_state.c$28$1_0$236	= .
                                    144 	.globl	C$demo_state.c$28$1_0$236
                                    145 ;src/states/demo_state.c:28: demo_duration = 0;
      000027 22r00r00         [16]  146 	ld	(_demo_duration), hl
                           00002A   147 	C$demo_state.c$29$1_0$236	= .
                                    148 	.globl	C$demo_state.c$29$1_0$236
                                    149 ;src/states/demo_state.c:29: }
                           00002A   150 	C$demo_state.c$29$1_0$236	= .
                                    151 	.globl	C$demo_state.c$29$1_0$236
                           00002A   152 	XG$demo_state_start$0$0	= .
                                    153 	.globl	XG$demo_state_start$0$0
      00002A C9               [10]  154 	ret
                           00002B   155 	G$demo_state_update$0$0	= .
                                    156 	.globl	G$demo_state_update$0$0
                           00002B   157 	C$demo_state.c$31$1_0$238	= .
                                    158 	.globl	C$demo_state.c$31$1_0$238
                                    159 ;src/states/demo_state.c:31: void demo_state_update(void) {
                                    160 ;	---------------------------------
                                    161 ; Function demo_state_update
                                    162 ; ---------------------------------
      00002B                        163 _demo_state_update::
                           00002B   164 	C$demo_state.c$32$1_0$238	= .
                                    165 	.globl	C$demo_state.c$32$1_0$238
                                    166 ;src/states/demo_state.c:32: if(demo_state_status == 0) {
      00002B 3Ar00r00         [13]  167 	ld	a, (_demo_state_status+0)
      00002E B7               [ 4]  168 	or	a, a
      00002F 20 14            [12]  169 	jr	NZ, 00132$
                           000031   170 	C$demo_state.c$33$2_0$239	= .
                                    171 	.globl	C$demo_state.c$33$2_0$239
                                    172 ;src/states/demo_state.c:33: start_fadein_music();
      000031 CDr00r00         [17]  173 	call	_start_fadein_music
                           000034   174 	C$demo_state.c$34$2_0$239	= .
                                    175 	.globl	C$demo_state.c$34$2_0$239
                                    176 ;src/states/demo_state.c:34: game_fade_in(startLevel);
      000034 3Ar01r00         [13]  177 	ld	a, (_startLevel+0)
      000037 CDr00r00         [17]  178 	call	_game_fade_in
                           00003A   179 	C$demo_state.c$35$2_0$239	= .
                                    180 	.globl	C$demo_state.c$35$2_0$239
                                    181 ;src/states/demo_state.c:35: play_song(INGAME_OST);
      00003A 3E 06            [ 7]  182 	ld	a, #0x06
      00003C CDr00r00         [17]  183 	call	_play_song
                           00003F   184 	C$demo_state.c$36$2_0$239	= .
                                    185 	.globl	C$demo_state.c$36$2_0$239
                                    186 ;src/states/demo_state.c:36: demo_state_status = 1;
      00003F 21r00r00         [10]  187 	ld	hl, #_demo_state_status
      000042 36 01            [10]  188 	ld	(hl), #0x01
      000044 C9               [10]  189 	ret
      000045                        190 00132$:
                           000045   191 	C$demo_state.c$37$1_0$238	= .
                                    192 	.globl	C$demo_state.c$37$1_0$238
                                    193 ;src/states/demo_state.c:37: } else if(demo_state_status == 1) {
      000045 3Ar00r00         [13]  194 	ld	a, (_demo_state_status+0)
      000048 3D               [ 4]  195 	dec	a
      000049 20 1C            [12]  196 	jr	NZ, 00129$
                           00004B   197 	C$demo_state.c$38$2_0$240	= .
                                    198 	.globl	C$demo_state.c$38$2_0$240
                                    199 ;src/states/demo_state.c:38: frame_cnt = 0;
      00004B 21 00 00         [10]  200 	ld	hl, #0x0000
      00004E 22r00r00         [16]  201 	ld	(_frame_cnt), hl
                           000051   202 	C$demo_state.c$39$2_0$240	= .
                                    203 	.globl	C$demo_state.c$39$2_0$240
                                    204 ;src/states/demo_state.c:39: while(frame_cnt < XS_PERIOD) {
      000051                        205 00101$:
      000051 11 18 00         [10]  206 	ld	de, #0x0018
      000054 2Ar00r00         [16]  207 	ld	hl, (_frame_cnt)
      000057 BF               [ 4]  208 	cp	a, a
      000058 ED 52            [15]  209 	sbc	hl, de
      00005A 30 05            [12]  210 	jr	NC, 00103$
                           00005C   211 	C$demo_state.c$40$3_0$241	= .
                                    212 	.globl	C$demo_state.c$40$3_0$241
                                    213 ;src/states/demo_state.c:40: waitForFrame();
      00005C CDr00r00         [17]  214 	call	_waitForFrame
      00005F 18 F0            [12]  215 	jr	00101$
      000061                        216 00103$:
                           000061   217 	C$demo_state.c$42$2_0$240	= .
                                    218 	.globl	C$demo_state.c$42$2_0$240
                                    219 ;src/states/demo_state.c:42: demo_state_status = 2;
      000061 21r00r00         [10]  220 	ld	hl, #_demo_state_status
      000064 36 02            [10]  221 	ld	(hl), #0x02
      000066 C9               [10]  222 	ret
      000067                        223 00129$:
                           000067   224 	C$demo_state.c$43$1_0$238	= .
                                    225 	.globl	C$demo_state.c$43$1_0$238
                                    226 ;src/states/demo_state.c:43: } else if(demo_state_status == 2) {
      000067 3Ar00r00         [13]  227 	ld	a, (_demo_state_status+0)
      00006A D6 02            [ 7]  228 	sub	a, #0x02
      00006C 20 4F            [12]  229 	jr	NZ, 00126$
                           00006E   230 	C$demo_state.c$44$2_0$242	= .
                                    231 	.globl	C$demo_state.c$44$2_0$242
                                    232 ;src/states/demo_state.c:44: draw_game_screen();
      00006E CDr00r00         [17]  233 	call	_draw_game_screen
                           000071   234 	C$demo_state.c$45$2_0$242	= .
                                    235 	.globl	C$demo_state.c$45$2_0$242
                                    236 ;src/states/demo_state.c:45: print_level_number(2,23,level+1);
      000071 3Ar00r00         [13]  237 	ld	a, (_level+0)
      000074 3C               [ 4]  238 	inc	a
      000075 F5               [11]  239 	push	af
      000076 33               [ 6]  240 	inc	sp
      000077 2E 17            [ 7]  241 	ld	l, #0x17
                                    242 ;	spillPairReg hl
                                    243 ;	spillPairReg hl
      000079 3E 02            [ 7]  244 	ld	a, #0x02
      00007B CDr00r00         [17]  245 	call	_print_level_number
                           00007E   246 	C$demo_state.c$46$2_0$242	= .
                                    247 	.globl	C$demo_state.c$46$2_0$242
                                    248 ;src/states/demo_state.c:46: print_string(2,19,"LVL]GOAL^");
      00007E 21r6Br01         [10]  249 	ld	hl, #___str_0
      000081 E5               [11]  250 	push	hl
      000082 2E 13            [ 7]  251 	ld	l, #0x13
                                    252 ;	spillPairReg hl
                                    253 ;	spillPairReg hl
      000084 3E 02            [ 7]  254 	ld	a, #0x02
      000086 CDr00r00         [17]  255 	call	_print_string
                           000089   256 	C$demo_state.c$47$2_0$242	= .
                                    257 	.globl	C$demo_state.c$47$2_0$242
                                    258 ;src/states/demo_state.c:47: print_score_value(2,21,(level+1)<<LEVEL_DELIMITER);
      000089 3Ar00r00         [13]  259 	ld	a, (_level+0)
      00008C 26 00            [ 7]  260 	ld	h, #0x00
                                    261 ;	spillPairReg hl
                                    262 ;	spillPairReg hl
      00008E 6F               [ 4]  263 	ld	l, a
                                    264 ;	spillPairReg hl
                                    265 ;	spillPairReg hl
      00008F 23               [ 6]  266 	inc	hl
      000090 29               [11]  267 	add	hl, hl
      000091 29               [11]  268 	add	hl, hl
      000092 29               [11]  269 	add	hl, hl
      000093 29               [11]  270 	add	hl, hl
      000094 29               [11]  271 	add	hl, hl
      000095 29               [11]  272 	add	hl, hl
      000096 E5               [11]  273 	push	hl
      000097 2E 15            [ 7]  274 	ld	l, #0x15
                                    275 ;	spillPairReg hl
                                    276 ;	spillPairReg hl
      000099 3E 02            [ 7]  277 	ld	a, #0x02
      00009B CDr00r00         [17]  278 	call	_print_score_value
                           00009E   279 	C$demo_state.c$48$2_0$242	= .
                                    280 	.globl	C$demo_state.c$48$2_0$242
                                    281 ;src/states/demo_state.c:48: print_score_value(24,19,score_p1);
      00009E 2Ar00r00         [16]  282 	ld	hl, (_score_p1)
      0000A1 E5               [11]  283 	push	hl
      0000A2 2E 13            [ 7]  284 	ld	l, #0x13
                                    285 ;	spillPairReg hl
                                    286 ;	spillPairReg hl
      0000A4 3E 18            [ 7]  287 	ld	a, #0x18
      0000A6 CDr00r00         [17]  288 	call	_print_score_value
                           0000A9   289 	C$demo_state.c$49$2_0$242	= .
                                    290 	.globl	C$demo_state.c$49$2_0$242
                                    291 ;src/states/demo_state.c:49: print_score_value(24,23,score_p2);
      0000A9 2Ar00r00         [16]  292 	ld	hl, (_score_p2)
      0000AC E5               [11]  293 	push	hl
      0000AD 2E 17            [ 7]  294 	ld	l, #0x17
                                    295 ;	spillPairReg hl
                                    296 ;	spillPairReg hl
      0000AF 3E 18            [ 7]  297 	ld	a, #0x18
      0000B1 CDr00r00         [17]  298 	call	_print_score_value
                           0000B4   299 	C$demo_state.c$50$2_0$242	= .
                                    300 	.globl	C$demo_state.c$50$2_0$242
                                    301 ;src/states/demo_state.c:50: initialize_game_lists();
      0000B4 CDr00r00         [17]  302 	call	_initialize_game_lists
                           0000B7   303 	C$demo_state.c$51$2_0$242	= .
                                    304 	.globl	C$demo_state.c$51$2_0$242
                                    305 ;src/states/demo_state.c:51: demo_state_status = 3;
      0000B7 21r00r00         [10]  306 	ld	hl, #_demo_state_status
      0000BA 36 03            [10]  307 	ld	(hl), #0x03
      0000BC C9               [10]  308 	ret
      0000BD                        309 00126$:
                           0000BD   310 	C$demo_state.c$52$1_0$238	= .
                                    311 	.globl	C$demo_state.c$52$1_0$238
                                    312 ;src/states/demo_state.c:52: }  else if (demo_state_status == 3) {
      0000BD 3Ar00r00         [13]  313 	ld	a, (_demo_state_status+0)
      0000C0 D6 03            [ 7]  314 	sub	a, #0x03
      0000C2 C2r54r01         [10]  315 	jp	NZ,00123$
                           0000C5   316 	C$demo_state.c$53$2_0$243	= .
                                    317 	.globl	C$demo_state.c$53$2_0$243
                                    318 ;src/states/demo_state.c:53: if (game_status!=GAME_STATUS_RESET && demo_duration < XXL_PERIOD) { 
      0000C5 3Ar00r00         [13]  319 	ld	a, (_game_status+0)
      0000C8 D6 15            [ 7]  320 	sub	a, #0x15
      0000CA 28 5A            [12]  321 	jr	Z, 00114$
      0000CC 11 E0 01         [10]  322 	ld	de, #0x01e0
      0000CF 2Ar00r00         [16]  323 	ld	hl, (_demo_duration)
      0000D2 BF               [ 4]  324 	cp	a, a
      0000D3 ED 52            [15]  325 	sbc	hl, de
      0000D5 30 4F            [12]  326 	jr	NC, 00114$
                           0000D7   327 	C$demo_state.c$54$3_0$244	= .
                                    328 	.globl	C$demo_state.c$54$3_0$244
                                    329 ;src/states/demo_state.c:54: execute_game_logic();
      0000D7 CDr00r00         [17]  330 	call	_execute_game_logic
                           0000DA   331 	C$demo_state.c$55$3_0$244	= .
                                    332 	.globl	C$demo_state.c$55$3_0$244
                                    333 ;src/states/demo_state.c:55: get_game_actions();
      0000DA CDr00r00         [17]  334 	call	_get_game_actions
                           0000DD   335 	C$demo_state.c$56$3_0$244	= .
                                    336 	.globl	C$demo_state.c$56$3_0$244
                                    337 ;src/states/demo_state.c:56: update_input();
      0000DD CDr00r00         [17]  338 	call	_update_input
                           0000E0   339 	C$demo_state.c$57$3_0$244	= .
                                    340 	.globl	C$demo_state.c$57$3_0$244
                                    341 ;src/states/demo_state.c:57: if(getButtonsPressed() & KEY_ONE_P1 || getButtonsPressed() & KEY_ONE_P2) {
      0000E0 CDr00r00         [17]  342 	call	_getButtonsPressed
      0000E3 CB 63            [ 8]  343 	bit	4, e
      0000E5 20 07            [12]  344 	jr	NZ, 00107$
      0000E7 CDr00r00         [17]  345 	call	_getButtonsPressed
      0000EA CB 52            [ 8]  346 	bit	2, d
      0000EC 28 2D            [12]  347 	jr	Z, 00108$
      0000EE                        348 00107$:
                           0000EE   349 	C$demo_state.c$58$4_0$245	= .
                                    350 	.globl	C$demo_state.c$58$4_0$245
                                    351 ;src/states/demo_state.c:58: end_demo();   
      0000EE CDr00r00         [17]  352 	call	_end_demo
                           0000F1   353 	C$demo_state.c$59$4_0$245	= .
                                    354 	.globl	C$demo_state.c$59$4_0$245
                                    355 ;src/states/demo_state.c:59: general_fade_out();
      0000F1 CDr00r00         [17]  356 	call	_general_fade_out
                           0000F4   357 	C$demo_state.c$60$4_0$245	= .
                                    358 	.globl	C$demo_state.c$60$4_0$245
                                    359 ;src/states/demo_state.c:60: blackBackgroundPalette();
      0000F4 CDr00r00         [17]  360 	call	_SMS_zeroBGPalette
                           0000F7   361 	C$demo_state.c$61$4_0$245	= .
                                    362 	.globl	C$demo_state.c$61$4_0$245
                                    363 ;src/states/demo_state.c:61: blackSpritePalette();
      0000F7 CDr00r00         [17]  364 	call	_SMS_zeroSpritePalette
                           0000FA   365 	C$demo_state.c$62$4_0$245	= .
                                    366 	.globl	C$demo_state.c$62$4_0$245
                                    367 ;src/states/demo_state.c:62: frame_cnt = 0;
      0000FA 21 00 00         [10]  368 	ld	hl, #0x0000
      0000FD 22r00r00         [16]  369 	ld	(_frame_cnt), hl
                           000100   370 	C$demo_state.c$63$4_0$245	= .
                                    371 	.globl	C$demo_state.c$63$4_0$245
                                    372 ;src/states/demo_state.c:63: while(frame_cnt < M_PERIOD) {
      000100                        373 00104$:
      000100 11 78 00         [10]  374 	ld	de, #0x0078
      000103 2Ar00r00         [16]  375 	ld	hl, (_frame_cnt)
      000106 BF               [ 4]  376 	cp	a, a
      000107 ED 52            [15]  377 	sbc	hl, de
      000109 30 05            [12]  378 	jr	NC, 00106$
                           00010B   379 	C$demo_state.c$64$5_0$246	= .
                                    380 	.globl	C$demo_state.c$64$5_0$246
                                    381 ;src/states/demo_state.c:64: waitForFrame();
      00010B CDr00r00         [17]  382 	call	_waitForFrame
      00010E 18 F0            [12]  383 	jr	00104$
      000110                        384 00106$:
                           000110   385 	C$demo_state.c$66$4_0$245	= .
                                    386 	.globl	C$demo_state.c$66$4_0$245
                                    387 ;src/states/demo_state.c:66: clear_game_lists();
      000110 CDr00r00         [17]  388 	call	_clear_game_lists
                           000113   389 	C$demo_state.c$67$4_0$245	= .
                                    390 	.globl	C$demo_state.c$67$4_0$245
                                    391 ;src/states/demo_state.c:67: clear_input();
      000113 CDr00r00         [17]  392 	call	_clear_input
                           000116   393 	C$demo_state.c$68$4_0$245	= .
                                    394 	.globl	C$demo_state.c$68$4_0$245
                                    395 ;src/states/demo_state.c:68: demo_state_status = 5;
      000116 21r00r00         [10]  396 	ld	hl, #_demo_state_status
      000119 36 05            [10]  397 	ld	(hl), #0x05
      00011B                        398 00108$:
                           00011B   399 	C$demo_state.c$70$3_0$244	= .
                                    400 	.globl	C$demo_state.c$70$3_0$244
                                    401 ;src/states/demo_state.c:70: waitForFrame();
      00011B CDr00r00         [17]  402 	call	_waitForFrame
                           00011E   403 	C$demo_state.c$71$3_0$244	= .
                                    404 	.globl	C$demo_state.c$71$3_0$244
                                    405 ;src/states/demo_state.c:71: demo_duration++;
      00011E 2Ar00r00         [16]  406 	ld	hl, (_demo_duration)
      000121 23               [ 6]  407 	inc	hl
      000122 22r00r00         [16]  408 	ld	(_demo_duration), hl
      000125 C9               [10]  409 	ret
      000126                        410 00114$:
                           000126   411 	C$demo_state.c$73$3_0$247	= .
                                    412 	.globl	C$demo_state.c$73$3_0$247
                                    413 ;src/states/demo_state.c:73: end_demo();   
      000126 CDr00r00         [17]  414 	call	_end_demo
                           000129   415 	C$demo_state.c$74$3_0$247	= .
                                    416 	.globl	C$demo_state.c$74$3_0$247
                                    417 ;src/states/demo_state.c:74: general_fade_out();
      000129 CDr00r00         [17]  418 	call	_general_fade_out
                           00012C   419 	C$demo_state.c$75$3_0$247	= .
                                    420 	.globl	C$demo_state.c$75$3_0$247
                                    421 ;src/states/demo_state.c:75: blackBackgroundPalette();
      00012C CDr00r00         [17]  422 	call	_SMS_zeroBGPalette
                           00012F   423 	C$demo_state.c$76$3_0$247	= .
                                    424 	.globl	C$demo_state.c$76$3_0$247
                                    425 ;src/states/demo_state.c:76: blackSpritePalette();
      00012F CDr00r00         [17]  426 	call	_SMS_zeroSpritePalette
                           000132   427 	C$demo_state.c$77$3_0$247	= .
                                    428 	.globl	C$demo_state.c$77$3_0$247
                                    429 ;src/states/demo_state.c:77: frame_cnt = 0;
      000132 21 00 00         [10]  430 	ld	hl, #0x0000
      000135 22r00r00         [16]  431 	ld	(_frame_cnt), hl
                           000138   432 	C$demo_state.c$78$3_0$247	= .
                                    433 	.globl	C$demo_state.c$78$3_0$247
                                    434 ;src/states/demo_state.c:78: while(frame_cnt < M_PERIOD) {
      000138                        435 00110$:
      000138 11 78 00         [10]  436 	ld	de, #0x0078
      00013B 2Ar00r00         [16]  437 	ld	hl, (_frame_cnt)
      00013E BF               [ 4]  438 	cp	a, a
      00013F ED 52            [15]  439 	sbc	hl, de
      000141 30 05            [12]  440 	jr	NC, 00112$
                           000143   441 	C$demo_state.c$79$4_0$248	= .
                                    442 	.globl	C$demo_state.c$79$4_0$248
                                    443 ;src/states/demo_state.c:79: waitForFrame();
      000143 CDr00r00         [17]  444 	call	_waitForFrame
      000146 18 F0            [12]  445 	jr	00110$
      000148                        446 00112$:
                           000148   447 	C$demo_state.c$81$3_0$247	= .
                                    448 	.globl	C$demo_state.c$81$3_0$247
                                    449 ;src/states/demo_state.c:81: clear_game_lists();
      000148 CDr00r00         [17]  450 	call	_clear_game_lists
                           00014B   451 	C$demo_state.c$82$3_0$247	= .
                                    452 	.globl	C$demo_state.c$82$3_0$247
                                    453 ;src/states/demo_state.c:82: clear_input();
      00014B CDr00r00         [17]  454 	call	_clear_input
                           00014E   455 	C$demo_state.c$83$3_0$247	= .
                                    456 	.globl	C$demo_state.c$83$3_0$247
                                    457 ;src/states/demo_state.c:83: demo_state_status = 4;
      00014E 21r00r00         [10]  458 	ld	hl, #_demo_state_status
      000151 36 04            [10]  459 	ld	(hl), #0x04
      000153 C9               [10]  460 	ret
      000154                        461 00123$:
                           000154   462 	C$demo_state.c$85$1_0$238	= .
                                    463 	.globl	C$demo_state.c$85$1_0$238
                                    464 ;src/states/demo_state.c:85: } else if(demo_state_status == 4) {
      000154 3Ar00r00         [13]  465 	ld	a, (_demo_state_status+0)
      000157 D6 04            [ 7]  466 	sub	a, #0x04
      000159 20 05            [12]  467 	jr	NZ, 00120$
                           00015B   468 	C$demo_state.c$86$2_0$249	= .
                                    469 	.globl	C$demo_state.c$86$2_0$249
                                    470 ;src/states/demo_state.c:86: transition_to_state(SCORE_STATE);
      00015B 3E 04            [ 7]  471 	ld	a, #0x04
      00015D C3r00r00         [10]  472 	jp	_transition_to_state
      000160                        473 00120$:
                           000160   474 	C$demo_state.c$87$1_0$238	= .
                                    475 	.globl	C$demo_state.c$87$1_0$238
                                    476 ;src/states/demo_state.c:87: } else if(demo_state_status == 5) {
      000160 3Ar00r00         [13]  477 	ld	a, (_demo_state_status+0)
      000163 D6 05            [ 7]  478 	sub	a, #0x05
      000165 C0               [11]  479 	ret	NZ
                           000166   480 	C$demo_state.c$88$2_0$250	= .
                                    481 	.globl	C$demo_state.c$88$2_0$250
                                    482 ;src/states/demo_state.c:88: transition_to_state(TITLE_STATE);
      000166 3E 03            [ 7]  483 	ld	a, #0x03
                           000168   484 	C$demo_state.c$90$1_0$238	= .
                                    485 	.globl	C$demo_state.c$90$1_0$238
                                    486 ;src/states/demo_state.c:90: }
                           000168   487 	C$demo_state.c$90$1_0$238	= .
                                    488 	.globl	C$demo_state.c$90$1_0$238
                           000168   489 	XG$demo_state_update$0$0	= .
                                    490 	.globl	XG$demo_state_update$0$0
      000168 C3r00r00         [10]  491 	jp	_transition_to_state
                           00016B   492 Fdemo_state$__str_0$0_0$0 == .
      00016B                        493 ___str_0:
      00016B 4C 56 4C 5D 47 4F 41   494 	.ascii "LVL]GOAL^"
             4C 5E
      000174 00                     495 	.db 0x00
                           000175   496 	G$demo_state_stop$0$0	= .
                                    497 	.globl	G$demo_state_stop$0$0
                           000175   498 	C$demo_state.c$92$1_0$252	= .
                                    499 	.globl	C$demo_state.c$92$1_0$252
                                    500 ;src/states/demo_state.c:92: void demo_state_stop(void) {
                                    501 ;	---------------------------------
                                    502 ; Function demo_state_stop
                                    503 ; ---------------------------------
      000175                        504 _demo_state_stop::
                           000175   505 	C$demo_state.c$93$1_0$252	= .
                                    506 	.globl	C$demo_state.c$93$1_0$252
                                    507 ;src/states/demo_state.c:93: clear_input();
                           000175   508 	C$demo_state.c$94$1_0$252	= .
                                    509 	.globl	C$demo_state.c$94$1_0$252
                                    510 ;src/states/demo_state.c:94: }
                           000175   511 	C$demo_state.c$94$1_0$252	= .
                                    512 	.globl	C$demo_state.c$94$1_0$252
                           000175   513 	XG$demo_state_stop$0$0	= .
                                    514 	.globl	XG$demo_state_stop$0$0
      000175 C3r00r00         [10]  515 	jp	_clear_input
                                    516 	.area _CODE
                                    517 	.area _INITIALIZER
                           000000   518 Fdemo_state$__xinit_demo_state_status$0_0$0 == .
      000000                        519 __xinit__demo_state_status:
      000000 00                     520 	.db #0x00	; 0
                           000001   521 Fdemo_state$__xinit_startLevel$0_0$0 == .
      000001                        522 __xinit__startLevel:
      000001 00                     523 	.db #0x00	; 0
                                    524 	.area _CABS (ABS)
