ASxxxx Assembler V02.00 + NoICE + SDCC mods  (Zilog Z80 / Hitachi HD64180 / ZX-Next / eZ80)                   Page 1
Hexadecimal [24-Bits]

Symbol Table

    .__.$$$.                                                    =  002710 L
    .__.ABS.                                                    =  000000 G
    .__.CPU.                                                    =  000000 L
    .__.H$L.                                                    =  000000 L
  0 A$flash$220                                                    0000A5 GR
  0 A$flash$221                                                    0000A7 GR
  0 A$flash$222                                                    0000AB GR
  0 A$flash$223                                                    0000AD GR
  0 A$flash$224                                                    0000B1 GR
  0 A$flash$225                                                    0000B3 GR
  0 A$flash$229                                                    0000B5 GR
  0 A$flash$230                                                    0000B8 GR
  0 A$flash$231                                                    0000BB GR
  0 A$flash$232                                                    0000BE GR
  0 A$flash$233                                                    0000C2 GR
  0 A$flash$235                                                    0000C4 GR
  0 A$flash$236                                                    0000C8 GR
  0 A$flash$237                                                    0000CC GR
  0 A$flash$238                                                    0000D0 GR
  0 A$flash$239                                                    0000D2 GR
  0 A$flash$243                                                    0000D5 GR
  0 A$flash$244                                                    0000D6 GR
  0 A$flash$245                                                    0000D8 GR
  0 A$flash$246                                                    0000D9 GR
  0 A$flash$250                                                    0000DB GR
  0 A$flash$251                                                    0000DC GR
  0 A$flash$252                                                    0000DD GR
  0 A$flash$253                                                    0000DE GR
  0 A$flash$254                                                    0000E1 GR
  0 A$flash$255                                                    0000E2 GR
  0 A$flash$256                                                    0000E3 GR
  0 A$flash$257                                                    0000E6 GR
  0 A$flash$258                                                    0000E9 GR
  0 A$flash$259                                                    0000EB GR
  0 A$flash$260                                                    0000EC GR
  0 A$flash$264                                                    0000ED GR
  0 A$flash$265                                                    0000EE GR
  0 A$flash$266                                                    0000F1 GR
  0 A$flash$267                                                    0000F2 GR
  0 A$flash$271                                                    0000F5 GR
  0 A$flash$272                                                    0000F7 GR
  0 A$flash$277                                                    0000F9 GR
  0 A$flash$287                                                    0000FA GR
  0 A$flash$288                                                    0000FC GR
  0 A$flash$289                                                    000100 GR
  0 A$flash$290                                                    000102 GR
  0 A$flash$291                                                    000106 GR
  0 A$flash$292                                                    000108 GR
  0 A$flash$296                                                    00010A GR
  0 A$flash$297                                                    00010D GR
  0 A$flash$298                                                    000110 GR
  0 A$flash$299                                                    000113 GR
  0 A$flash$300                                                    000117 GR
  0 A$flash$302                                                    000119 GR
  0 A$flash$303                                                    00011D GR
ASxxxx Assembler V02.00 + NoICE + SDCC mods  (Zilog Z80 / Hitachi HD64180 / ZX-Next / eZ80)                   Page 2
Hexadecimal [24-Bits]

Symbol Table

  0 A$flash$304                                                    000121 GR
  0 A$flash$305                                                    000125 GR
  0 A$flash$306                                                    000127 GR
  0 A$flash$310                                                    00012A GR
  0 A$flash$311                                                    00012B GR
  0 A$flash$312                                                    00012D GR
  0 A$flash$313                                                    00012E GR
  0 A$flash$317                                                    000130 GR
  0 A$flash$318                                                    000131 GR
  0 A$flash$319                                                    000132 GR
  0 A$flash$320                                                    000133 GR
  0 A$flash$321                                                    000136 GR
  0 A$flash$322                                                    000137 GR
  0 A$flash$323                                                    000138 GR
  0 A$flash$324                                                    00013B GR
  0 A$flash$325                                                    00013E GR
  0 A$flash$326                                                    000140 GR
  0 A$flash$327                                                    000141 GR
  0 A$flash$331                                                    000142 GR
  0 A$flash$332                                                    000145 GR
  0 A$flash$333                                                    000146 GR
  0 A$flash$334                                                    000147 GR
  0 A$flash$335                                                    000148 GR
  0 A$flash$336                                                    00014B GR
  0 A$flash$337                                                    00014C GR
  0 A$flash$341                                                    00014F GR
  0 A$flash$342                                                    000151 GR
  0 A$flash$343                                                    000153 GR
  0 A$flash$344                                                    000154 GR
  0 A$flash$345                                                    000155 GR
  0 A$flash$355                                                    000156 GR
  0 A$flash$356                                                    000158 GR
  0 A$flash$357                                                    00015C GR
  0 A$flash$358                                                    00015E GR
  0 A$flash$359                                                    000162 GR
  0 A$flash$360                                                    000164 GR
  0 A$flash$364                                                    000166 GR
  0 A$flash$365                                                    000169 GR
  0 A$flash$366                                                    00016C GR
  0 A$flash$367                                                    00016F GR
  0 A$flash$368                                                    000173 GR
  0 A$flash$370                                                    000175 GR
  0 A$flash$371                                                    000179 GR
  0 A$flash$372                                                    00017D GR
  0 A$flash$373                                                    000181 GR
  0 A$flash$374                                                    000183 GR
  0 A$flash$375                                                    000186 GR
  0 A$flash$379                                                    000189 GR
  0 A$flash$380                                                    00018A GR
  0 A$flash$381                                                    00018B GR
  0 A$flash$382                                                    00018D GR
  0 A$flash$383                                                    00018E GR
  0 A$flash$387                                                    000190 GR
  0 A$flash$388                                                    000193 GR
  0 A$flash$389                                                    000194 GR
ASxxxx Assembler V02.00 + NoICE + SDCC mods  (Zilog Z80 / Hitachi HD64180 / ZX-Next / eZ80)                   Page 3
Hexadecimal [24-Bits]

Symbol Table

  0 A$flash$390                                                    000195 GR
  0 A$flash$391                                                    000196 GR
  0 A$flash$392                                                    000199 GR
  0 A$flash$393                                                    00019C GR
  0 A$flash$394                                                    00019E GR
  0 A$flash$398                                                    00019F GR
  0 A$flash$399                                                    0001A2 GR
  0 A$flash$400                                                    0001A5 GR
  0 A$flash$401                                                    0001A8 GR
  0 A$flash$402                                                    0001AB GR
  0 A$flash$403                                                    0001AE GR
  0 A$flash$404                                                    0001B1 GR
  0 A$flash$405                                                    0001B4 GR
  0 A$flash$406                                                    0001B7 GR
  0 A$flash$407                                                    0001BA GR
  0 A$flash$409                                                    0001BD GR
  0 A$flash$410                                                    0001C0 GR
  0 A$flash$411                                                    0001C3 GR
  0 A$flash$412                                                    0001C6 GR
  0 A$flash$413                                                    0001C9 GR
  0 A$flash$414                                                    0001CC GR
  0 A$flash$415                                                    0001CF GR
  0 A$flash$416                                                    0001D0 GR
  0 A$flash$417                                                    0001D3 GR
  0 A$flash$418                                                    0001D6 GR
  0 A$flash$419                                                    0001D9 GR
  0 A$flash$420                                                    0001DC GR
  0 A$flash$424                                                    0001DE GR
  0 A$flash$425                                                    0001E1 GR
  0 A$flash$426                                                    0001E4 GR
  0 A$flash$427                                                    0001E5 GR
  0 A$flash$428                                                    0001E6 GR
  0 A$flash$429                                                    0001E7 GR
  0 A$flash$430                                                    0001EA GR
  0 A$flash$431                                                    0001ED GR
  0 A$flash$432                                                    0001F0 GR
  0 A$flash$433                                                    0001F3 GR
  0 A$flash$434                                                    0001F4 GR
  0 A$flash$438                                                    0001F7 GR
  0 A$flash$439                                                    0001FA GR
  0 A$flash$440                                                    0001FC GR
  0 A$flash$445                                                    0001FF GR
  0 A$flash$446                                                    000202 GR
  0 A$flash$447                                                    000204 GR
  0 A$flash$448                                                    000207 GR
  0 A$flash$453                                                    000209 GR
  0 A$flash$454                                                    00020B GR
  0 A$flash$455                                                    00020D GR
  0 A$flash$456                                                    00020E GR
  0 A$flash$457                                                    00020F GR
  0 A$flash$458                                                    000210 GR
  0 A$flash$55                                                     000000 GR
  0 A$flash$56                                                     000002 GR
  0 A$flash$57                                                     000006 GR
  0 A$flash$58                                                     000008 GR
ASxxxx Assembler V02.00 + NoICE + SDCC mods  (Zilog Z80 / Hitachi HD64180 / ZX-Next / eZ80)                   Page 4
Hexadecimal [24-Bits]

Symbol Table

  0 A$flash$59                                                     00000C GR
  0 A$flash$60                                                     00000E GR
  0 A$flash$61                                                     000010 GR
  0 A$flash$62                                                     000011 GR
  0 A$flash$63                                                     000014 GR
  0 A$flash$64                                                     000015 GR
  0 A$flash$65                                                     000016 GR
  0 A$flash$66                                                     000019 GR
  0 A$flash$67                                                     00001C GR
  0 A$flash$68                                                     00001E GR
  0 A$flash$72                                                     00001F GR
  0 A$flash$73                                                     000020 GR
  0 A$flash$74                                                     000024 GR
  0 A$flash$75                                                     000026 GR
  0 A$flash$79                                                     000029 GR
  0 A$flash$80                                                     00002B GR
  0 A$flash$85                                                     00002D GR
  0 C$flash.c$105$0_0$29                                        =  000000 GR
  0 C$flash.c$110$1_0$29                                        =  00001F GR
  0 C$flash.c$111$1_0$29                                        =  00002D GR
  0 C$flash.c$113$1_0$31                                        =  0000A5 GR
  0 C$flash.c$116$1_0$31                                        =  0000B5 GR
  0 C$flash.c$118$1_0$31                                        =  0000D5 GR
  0 C$flash.c$120$1_0$31                                        =  0000DB GR
  0 C$flash.c$121$1_0$31                                        =  0000ED GR
  0 C$flash.c$122$1_0$31                                        =  0000F9 GR
  0 C$flash.c$124$1_0$33                                        =  0000FA GR
  0 C$flash.c$127$1_0$33                                        =  00010A GR
  0 C$flash.c$129$1_0$33                                        =  00012A GR
  0 C$flash.c$131$1_0$33                                        =  000130 GR
  0 C$flash.c$132$1_0$33                                        =  000142 GR
  0 C$flash.c$133$1_0$33                                        =  00014F GR
  0 C$flash.c$135$1_0$35                                        =  000156 GR
  0 C$flash.c$139$1_0$35                                        =  000166 GR
  0 C$flash.c$140$1_0$35                                        =  000189 GR
  0 C$flash.c$141$1_0$35                                        =  000190 GR
  0 C$flash.c$143$2_0$36                                        =  00019F GR
  0 C$flash.c$144$2_0$36                                        =  0001DE GR
  0 C$flash.c$145$2_0$36                                        =  0001F7 GR
  0 C$flash.c$146$2_0$36                                        =  0001FF GR
  0 C$flash.c$148$1_0$35                                        =  000209 GR
  0 Fflash$IDS_READ$0_0$0                                       =  00002E GR
  0 Fflash$PROGRAM$0_0$0                                        =  000077 GR
  0 Fflash$SECTOR_ERASE$0_0$0                                   =  00004C GR
  0 G$flash_ids_get$0$0                                         =  000000 GR
  0 G$flash_program$0$0                                         =  000156 GR
  0 G$flash_program_byte$0$0                                    =  0000FA GR
  0 G$flash_sector_erase$0$0                                    =  0000A5 GR
  0 XG$flash_ids_get$0$0                                        =  00002D GR
  0 XG$flash_sector_erase$0$0                                   =  0000F9 GR
  0 _IDS_READ                                                      00002E R
  0 _PROGRAM                                                       000077 R
  0 _SECTOR_ERASE                                                  00004C R
    ___sdcc_call_hl                                                ****** GX
    ___sdcc_call_iy                                                ****** GX
ASxxxx Assembler V02.00 + NoICE + SDCC mods  (Zilog Z80 / Hitachi HD64180 / ZX-Next / eZ80)                   Page 5
Hexadecimal [24-Bits]

Symbol Table

  0 _flash_ids_get                                                 000000 GR
  0 _flash_program                                                 000156 GR
  0 _flash_program_byte                                            0000FA GR
  0 _flash_sector_erase                                            0000A5 GR


ASxxxx Assembler V02.00 + NoICE + SDCC mods  (Zilog Z80 / Hitachi HD64180 / ZX-Next / eZ80)                   Page 6
Hexadecimal [24-Bits]

Area Table

   0 _CODE                                      size    211   flags    0
   1 _DATA                                      size      0   flags    0
   2 _INITIALIZED                               size      0   flags    0
   3 _DABS                                      size      0   flags    8
   4 _HOME                                      size      0   flags    0
   5 _GSINIT                                    size      0   flags    0
   6 _GSFINAL                                   size      0   flags    0
   7 _INITIALIZER                               size      0   flags    0
   8 _CABS                                      size      0   flags    8

