ASxxxx Assembler V02.00 + NoICE + SDCC mods  (Zilog Z80 / Hitachi HD64180 / ZX-Next / eZ80)                   Page 1
Hexadecimal [24-Bits]

Symbol Table

    .__.$$$.                                                    =  002710 L
    .__.ABS.                                                    =  000000 G
    .__.CPU.                                                    =  000000 L
    .__.H$L.                                                    =  000000 L
  0 A$game_state$106                                               000000 GR
  0 A$game_state$110                                               000003 GR
  0 A$game_state$114                                               000006 GR
  0 A$game_state$115                                               000007 GR
  0 A$game_state$119                                               00000A GR
  0 A$game_state$123                                               00000D GR
  0 A$game_state$124                                               000010 GR
  0 A$game_state$128                                               000013 GR
  0 A$game_state$129                                               000016 GR
  0 A$game_state$137                                               000018 GR
  0 A$game_state$150                                               000019 GR
  0 A$game_state$151                                               00001C GR
  0 A$game_state$152                                               00001D GR
  0 A$game_state$156                                               00001F GR
  0 A$game_state$160                                               000022 GR
  0 A$game_state$161                                               000023 GR
  0 A$game_state$165                                               000026 GR
  0 A$game_state$166                                               000028 GR
  0 A$game_state$170                                               00002B GR
  0 A$game_state$171                                               00002E GR
  0 A$game_state$172                                               000030 GR
  0 A$game_state$177                                               000031 GR
  0 A$game_state$178                                               000034 GR
  0 A$game_state$179                                               000035 GR
  0 A$game_state$183                                               000037 GR
  0 A$game_state$184                                               00003A GR
  0 A$game_state$189                                               00003D GR
  0 A$game_state$190                                               000040 GR
  0 A$game_state$191                                               000043 GR
  0 A$game_state$192                                               000044 GR
  0 A$game_state$193                                               000046 GR
  0 A$game_state$197                                               000048 GR
  0 A$game_state$198                                               00004B GR
  0 A$game_state$203                                               00004D GR
  0 A$game_state$204                                               000050 GR
  0 A$game_state$205                                               000052 GR
  0 A$game_state$210                                               000053 GR
  0 A$game_state$211                                               000056 GR
  0 A$game_state$212                                               000058 GR
  0 A$game_state$216                                               00005A GR
  0 A$game_state$217                                               00005D GR
  0 A$game_state$218                                               00005E GR
  0 A$game_state$221                                               000060 GR
  0 A$game_state$222                                               000062 GR
  0 A$game_state$226                                               000065 GR
  0 A$game_state$227                                               000068 GR
  0 A$game_state$228                                               000069 GR
  0 A$game_state$231                                               00006B GR
  0 A$game_state$232                                               00006D GR
  0 A$game_state$236                                               000070 GR
  0 A$game_state$237                                               000073 GR
ASxxxx Assembler V02.00 + NoICE + SDCC mods  (Zilog Z80 / Hitachi HD64180 / ZX-Next / eZ80)                   Page 2
Hexadecimal [24-Bits]

Symbol Table

  0 A$game_state$238                                               000075 GR
  0 A$game_state$243                                               000076 GR
  0 A$game_state$244                                               000079 GR
  0 A$game_state$245                                               00007B GR
  0 A$game_state$249                                               00007D GR
  0 A$game_state$250                                               000080 GR
  0 A$game_state$255                                               000083 GR
  0 A$game_state$256                                               000086 GR
  0 A$game_state$257                                               000089 GR
  0 A$game_state$258                                               00008A GR
  0 A$game_state$259                                               00008C GR
  0 A$game_state$263                                               00008E GR
  0 A$game_state$264                                               000091 GR
  0 A$game_state$269                                               000093 GR
  0 A$game_state$270                                               000096 GR
  0 A$game_state$271                                               000098 GR
  0 A$game_state$276                                               000099 GR
  0 A$game_state$277                                               00009C GR
  0 A$game_state$278                                               00009E GR
  0 A$game_state$282                                               0000A0 GR
  0 A$game_state$286                                               0000A3 GR
  0 A$game_state$290                                               0000A6 GR
  0 A$game_state$294                                               0000A9 GR
  0 A$game_state$295                                               0000AB GR
  0 A$game_state$299                                               0000AE GR
  0 A$game_state$303                                               0000B1 GR
  0 A$game_state$304                                               0000B3 GR
  0 A$game_state$308                                               0000B6 GR
  0 A$game_state$312                                               0000B9 GR
  0 A$game_state$313                                               0000BC GR
  0 A$game_state$314                                               0000BD GR
  0 A$game_state$315                                               0000BE GR
  0 A$game_state$316                                               0000BF GR
  0 A$game_state$319                                               0000C1 GR
  0 A$game_state$320                                               0000C3 GR
  0 A$game_state$324                                               0000C6 GR
  0 A$game_state$325                                               0000C9 GR
  0 A$game_state$326                                               0000CA GR
  0 A$game_state$329                                               0000CC GR
  0 A$game_state$330                                               0000CE GR
  0 A$game_state$334                                               0000D1 GR
  0 A$game_state$335                                               0000D4 GR
  0 A$game_state$338                                               0000D6 GR
  0 A$game_state$341                                               0000D7 GR
  0 A$game_state$342                                               0000D8 GR
  0 A$game_state$343                                               0000D9 GR
  0 A$game_state$344                                               0000DA GR
  0 A$game_state$345                                               0000DB GR
  0 A$game_state$346                                               0000DC GR
  0 A$game_state$347                                               0000DD GR
  0 A$game_state$348                                               0000DE GR
  0 A$game_state$349                                               0000DF GR
  0 A$game_state$352                                               0000E1 GR
  0 A$game_state$353                                               0000E3 GR
  0 A$game_state$357                                               0000E6 GR
ASxxxx Assembler V02.00 + NoICE + SDCC mods  (Zilog Z80 / Hitachi HD64180 / ZX-Next / eZ80)                   Page 3
Hexadecimal [24-Bits]

Symbol Table

  0 A$game_state$358                                               0000E9 GR
  0 A$game_state$359                                               0000EA GR
  0 A$game_state$362                                               0000EC GR
  0 A$game_state$363                                               0000EE GR
  0 A$game_state$367                                               0000F1 GR
  0 A$game_state$368                                               0000F4 GR
  0 A$game_state$369                                               0000F5 GR
  0 A$game_state$372                                               0000F7 GR
  0 A$game_state$373                                               0000F9 GR
  0 A$game_state$377                                               0000FC GR
  0 A$game_state$381                                               0000FF GR
  0 A$game_state$382                                               000102 GR
  0 A$game_state$386                                               000104 GR
  0 A$game_state$390                                               000107 GR
  0 A$game_state$391                                               00010A GR
  0 A$game_state$392                                               00010C GR
  0 A$game_state$397                                               00010D GR
  0 A$game_state$398                                               000110 GR
  0 A$game_state$399                                               000112 GR
  0 A$game_state$400                                               000114 GR
  0 A$game_state$401                                               000116 GR
  0 A$game_state$403                                               000117 GR
  0 A$game_state$404                                               000118 GR
  0 A$game_state$405                                               00011B GR
  0 A$game_state$406                                               00011D GR
  0 A$game_state$407                                               00011F GR
  0 A$game_state$408                                               000121 GR
  0 A$game_state$410                                               000122 GR
  0 A$game_state$414                                               000123 GR
  0 A$game_state$415                                               000126 GR
  0 A$game_state$416                                               000128 GR
  0 A$game_state$420                                               00012B GR
  0 A$game_state$421                                               00012D GR
  0 A$game_state$422                                               00012F GR
  0 A$game_state$423                                               000131 GR
  0 A$game_state$427                                               000133 GR
  0 A$game_state$428                                               000136 GR
  0 A$game_state$429                                               000138 GR
  0 A$game_state$433                                               00013A GR
  0 A$game_state$437                                               00013D GR
  0 A$game_state$442                                               000140 GR
  0 A$game_state$443                                               000143 GR
  0 A$game_state$444                                               000144 GR
  0 A$game_state$445                                               000146 GR
  0 A$game_state$449                                               000149 GR
  0 A$game_state$450                                               00014D GR
  0 A$game_state$451                                               000151 GR
  0 A$game_state$455                                               000153 GR
  0 A$game_state$459                                               000157 GR
  0 A$game_state$463                                               00015A GR
  0 A$game_state$464                                               00015D GR
  0 A$game_state$465                                               00015F GR
  0 A$game_state$469                                               000161 GR
  0 A$game_state$474                                               000164 GR
  0 A$game_state$475                                               000166 GR
ASxxxx Assembler V02.00 + NoICE + SDCC mods  (Zilog Z80 / Hitachi HD64180 / ZX-Next / eZ80)                   Page 4
Hexadecimal [24-Bits]

Symbol Table

  0 A$game_state$476                                               000169 GR
  0 A$game_state$481                                               00016B GR
  0 A$game_state$482                                               00016E GR
  0 A$game_state$486                                               000170 GR
  0 A$game_state$490                                               000173 GR
  0 A$game_state$491                                               000176 GR
  0 A$game_state$492                                               000178 GR
  0 A$game_state$496                                               00017A GR
  0 A$game_state$497                                               00017D GR
  0 A$game_state$498                                               00017E GR
  0 A$game_state$501                                               000180 GR
  0 A$game_state$502                                               000182 GR
  0 A$game_state$507                                               000185 GR
  0 A$game_state$508                                               000187 GR
  0 A$game_state$513                                               00018A GR
  0 A$game_state$517                                               00018D GR
  0 A$game_state$522                                               000190 GR
  0 A$game_state$526                                               000193 GR
  0 A$game_state$530                                               000196 GR
  0 A$game_state$534                                               000199 GR
  0 A$game_state$535                                               00019C GR
  0 A$game_state$540                                               00019F GR
  0 A$game_state$541                                               0001A2 GR
  0 A$game_state$542                                               0001A5 GR
  0 A$game_state$543                                               0001A6 GR
  0 A$game_state$544                                               0001A8 GR
  0 A$game_state$548                                               0001AA GR
  0 A$game_state$549                                               0001AD GR
  0 A$game_state$554                                               0001AF GR
  0 A$game_state$558                                               0001B2 GR
  0 A$game_state$562                                               0001B5 GR
  0 A$game_state$563                                               0001B8 GR
  0 A$game_state$564                                               0001BA GR
  0 A$game_state$569                                               0001BB GR
  0 A$game_state$573                                               0001BE GR
  0 A$game_state$574                                               0001C0 GR
  0 A$game_state$575                                               0001C1 GR
  0 A$game_state$576                                               0001C2 GR
  0 A$game_state$580                                               0001C4 GR
  0 A$game_state$581                                               0001C8 GR
  0 A$game_state$582                                               0001CC GR
  0 A$game_state$586                                               0001CE GR
  0 A$game_state$587                                               0001D0 GR
  0 A$game_state$592                                               0001D3 GR
  0 A$game_state$593                                               0001D5 GR
  0 A$game_state$598                                               0001D8 GR
  0 A$game_state$599                                               0001D9 GR
  0 A$game_state$600                                               0001DA GR
  0 A$game_state$604                                               0001DB GR
  0 A$game_state$612                                               0001DD GR
  0 A$game_state$648                                               0001FE GR
  0 C$game_state.c$100$4_0$255                                  =  0001AA GR
  0 C$game_state.c$102$3_0$254                                  =  0001AF GR
  0 C$game_state.c$103$3_0$254                                  =  0001B2 GR
  0 C$game_state.c$104$3_0$254                                  =  0001B5 GR
ASxxxx Assembler V02.00 + NoICE + SDCC mods  (Zilog Z80 / Hitachi HD64180 / ZX-Next / eZ80)                   Page 5
Hexadecimal [24-Bits]

Symbol Table

  0 C$game_state.c$106$1_0$238                                  =  0001BB GR
  0 C$game_state.c$107$2_0$256                                  =  0001BE GR
  0 C$game_state.c$108$3_0$257                                  =  0001C4 GR
  0 C$game_state.c$109$4_0$258                                  =  0001CE GR
  0 C$game_state.c$111$4_0$259                                  =  0001D3 GR
  0 C$game_state.c$113$2_0$256                                  =  0001D8 GR
  0 C$game_state.c$114$3_0$260                                  =  0001DB GR
  0 C$game_state.c$117$1_0$238                                  =  0001DD GR
  0 C$game_state.c$119$1_0$262                                  =  0001FE GR
  0 C$game_state.c$120$1_0$262                                  =  0001FE GR
  0 C$game_state.c$121$1_0$262                                  =  0001FE GR
  0 C$game_state.c$18$0_0$236                                   =  000000 GR
  0 C$game_state.c$19$1_0$236                                   =  000000 GR
  0 C$game_state.c$20$1_0$236                                   =  000003 GR
  0 C$game_state.c$21$1_0$236                                   =  000006 GR
  0 C$game_state.c$22$1_0$236                                   =  00000A GR
  0 C$game_state.c$23$1_0$236                                   =  00000D GR
  0 C$game_state.c$24$1_0$236                                   =  000013 GR
  0 C$game_state.c$25$1_0$236                                   =  000018 GR
  0 C$game_state.c$27$1_0$238                                   =  000019 GR
  0 C$game_state.c$28$1_0$238                                   =  000019 GR
  0 C$game_state.c$29$2_0$239                                   =  00001F GR
  0 C$game_state.c$30$2_0$239                                   =  000022 GR
  0 C$game_state.c$31$2_0$239                                   =  000026 GR
  0 C$game_state.c$32$2_0$239                                   =  00002B GR
  0 C$game_state.c$33$1_0$238                                   =  000031 GR
  0 C$game_state.c$34$2_0$240                                   =  000037 GR
  0 C$game_state.c$35$2_0$240                                   =  00003D GR
  0 C$game_state.c$36$3_0$241                                   =  000048 GR
  0 C$game_state.c$38$2_0$240                                   =  00004D GR
  0 C$game_state.c$39$1_0$238                                   =  000053 GR
  0 C$game_state.c$40$2_0$242                                   =  00005A GR
  0 C$game_state.c$41$2_0$242                                   =  000065 GR
  0 C$game_state.c$42$2_0$242                                   =  000070 GR
  0 C$game_state.c$43$1_0$238                                   =  000076 GR
  0 C$game_state.c$44$2_0$243                                   =  00007D GR
  0 C$game_state.c$45$2_0$243                                   =  000083 GR
  0 C$game_state.c$46$3_0$244                                   =  00008E GR
  0 C$game_state.c$48$2_0$243                                   =  000093 GR
  0 C$game_state.c$49$1_0$238                                   =  000099 GR
  0 C$game_state.c$50$2_0$245                                   =  0000A0 GR
  0 C$game_state.c$51$2_0$245                                   =  0000A3 GR
  0 C$game_state.c$52$2_0$245                                   =  0000A6 GR
  0 C$game_state.c$53$2_0$245                                   =  0000A9 GR
  0 C$game_state.c$54$2_0$245                                   =  0000AE GR
  0 C$game_state.c$55$2_0$245                                   =  0000B1 GR
  0 C$game_state.c$56$2_0$245                                   =  0000B6 GR
  0 C$game_state.c$57$2_0$245                                   =  0000B9 GR
  0 C$game_state.c$58$2_0$245                                   =  0000C6 GR
  0 C$game_state.c$59$2_0$245                                   =  0000D1 GR
  0 C$game_state.c$60$2_0$245                                   =  0000E6 GR
  0 C$game_state.c$61$2_0$245                                   =  0000F1 GR
  0 C$game_state.c$62$2_0$245                                   =  0000FC GR
  0 C$game_state.c$63$2_0$245                                   =  0000FF GR
  0 C$game_state.c$64$2_0$245                                   =  000104 GR
ASxxxx Assembler V02.00 + NoICE + SDCC mods  (Zilog Z80 / Hitachi HD64180 / ZX-Next / eZ80)                   Page 6
Hexadecimal [24-Bits]

Symbol Table

  0 C$game_state.c$65$2_0$245                                   =  000107 GR
  0 C$game_state.c$66$1_0$238                                   =  000123 GR
  0 C$game_state.c$67$1_0$238                                   =  00010D GR
  0 C$game_state.c$67$2_0$246                                   =  00012B GR
  0 C$game_state.c$68$3_0$247                                   =  000133 GR
  0 C$game_state.c$69$4_0$248                                   =  00013A GR
  0 C$game_state.c$70$4_0$248                                   =  00013D GR
  0 C$game_state.c$72$3_0$247                                   =  000140 GR
  0 C$game_state.c$73$4_0$249                                   =  000149 GR
  0 C$game_state.c$74$5_0$250                                   =  000153 GR
  0 C$game_state.c$75$5_0$250                                   =  000157 GR
  0 C$game_state.c$76$5_0$250                                   =  00015A GR
  0 C$game_state.c$77$6_0$251                                   =  000161 GR
  0 C$game_state.c$79$5_0$250                                   =  000164 GR
  0 C$game_state.c$82$5_0$252                                   =  00016B GR
  0 C$game_state.c$83$5_0$252                                   =  000170 GR
  0 C$game_state.c$84$5_0$252                                   =  000173 GR
  0 C$game_state.c$85$6_0$253                                   =  00017A GR
  0 C$game_state.c$88$5_0$252                                   =  000185 GR
  0 C$game_state.c$91$4_0$249                                   =  00018A GR
  0 C$game_state.c$93$3_0$247                                   =  00018D GR
  0 C$game_state.c$95$3_0$254                                   =  000190 GR
  0 C$game_state.c$96$3_0$254                                   =  000193 GR
  0 C$game_state.c$97$3_0$254                                   =  000196 GR
  0 C$game_state.c$98$3_0$254                                   =  000199 GR
  0 C$game_state.c$99$3_0$254                                   =  00019F GR
  0 Fgame_state$__str_0$0_0$0                                   =  0001E0 GR
  0 Fgame_state$__str_1$0_0$0                                   =  0001E5 GR
  0 Fgame_state$__str_2$0_0$0                                   =  0001ED GR
  0 Fgame_state$__str_3$0_0$0                                   =  0001F7 GR
  7 Fgame_state$__xinit_game_state_status$0_0$0                 =  000000 GR
    G$ROM_bank_to_be_mapped_on_slot0$0_0$0                      =  00FFFD G
    G$ROM_bank_to_be_mapped_on_slot1$0_0$0                      =  00FFFE G
    G$ROM_bank_to_be_mapped_on_slot2$0_0$0                      =  00FFFF G
    G$SMS_SRAM$0_0$0                                            =  008000 G
    G$SRAM_bank_to_be_mapped_on_slot2$0_0$0                     =  00FFFC G
  0 G$game_state_start$0$0                                      =  000000 GR
  2 G$game_state_status$0_0$0                                   =  000000 GR
  0 G$game_state_stop$0$0                                       =  0001FE GR
  0 G$game_state_update$0$0                                     =  000019 GR
  0 XG$game_state_start$0$0                                     =  000018 GR
  0 XG$game_state_stop$0$0                                      =  0001FE GR
  0 XG$game_state_update$0$0                                    =  0001DD GR
    _PSGSFXStop                                                    ****** GX
    _PSGStop                                                       ****** GX
    _ROM_bank_to_be_mapped_on_slot0                             =  00FFFD G
    _ROM_bank_to_be_mapped_on_slot1                             =  00FFFE G
    _ROM_bank_to_be_mapped_on_slot2                             =  00FFFF G
    _SMS_SRAM                                                   =  008000 G
    _SMS_queryPauseRequested                                       ****** GX
    _SMS_resetPauseRequest                                         ****** GX
    _SMS_zeroBGPalette                                             ****** GX
    _SMS_zeroSpritePalette                                         ****** GX
    _SRAM_bank_to_be_mapped_on_slot2                            =  00FFFC G
  0 ___str_0                                                       0001E0 R
ASxxxx Assembler V02.00 + NoICE + SDCC mods  (Zilog Z80 / Hitachi HD64180 / ZX-Next / eZ80)                   Page 7
Hexadecimal [24-Bits]

Symbol Table

  0 ___str_1                                                       0001E5 R
  0 ___str_2                                                       0001ED R
  0 ___str_3                                                       0001F7 R
  7 __xinit__game_state_status                                     000000 R
    _clear_game_lists                                              ****** GX
    _clear_input                                                   ****** GX
    _draw_game_background                                          ****** GX
    _draw_game_screen                                              ****** GX
    _execute_game_logic                                            ****** GX
    _frame_cnt                                                     ****** GX
    _game_fade_in                                                  ****** GX
    _game_full_palette                                             ****** GX
    _game_half_palette                                             ****** GX
  0 _game_state_start                                              000000 GR
  2 _game_state_status                                             000000 GR
  0 _game_state_stop                                               0001FE GR
  0 _game_state_update                                             000019 GR
    _game_status                                                   ****** GX
    _general_fade_out                                              ****** GX
    _get_game_actions                                              ****** GX
    _highScoreReached                                              ****** GX
    _init_board                                                    ****** GX
    _init_gamestatus                                               ****** GX
    _initialize_game_lists                                         ****** GX
    _level                                                         ****** GX
    _load_game_assets                                              ****** GX
    _pause                                                         ****** GX
    _play_fx                                                       ****** GX
    _play_sample                                                   ****** GX
    _play_song                                                     ****** GX
    _print_level_number                                            ****** GX
    _print_score_value                                             ****** GX
    _print_string                                                  ****** GX
    _restore_board                                                 ****** GX
    _score_p1                                                      ****** GX
    _score_p2                                                      ****** GX
    _start_fadein_music                                            ****** GX
    _transition_to_state                                           ****** GX
    _waitForFrame                                                  ****** GX

ASxxxx Assembler V02.00 + NoICE + SDCC mods  (Zilog Z80 / Hitachi HD64180 / ZX-Next / eZ80)                   Page 8
Hexadecimal [24-Bits]

Area Table

   0 _CODE                                      size    201   flags    0
   1 _DATA                                      size      0   flags    0
   2 _INITIALIZED                               size      1   flags    0
   3 _DABS                                      size      0   flags    8
   4 _HOME                                      size      0   flags    0
   5 _GSINIT                                    size      0   flags    0
   6 _GSFINAL                                   size      0   flags    0
   7 _INITIALIZER                               size      1   flags    0
   8 _CABS                                      size      0   flags    8

