                                      1 ;--------------------------------------------------------
                                      2 ; File Created by SDCC : free open source ISO C Compiler 
                                      3 ; Version 4.2.12 #13827 (Linux)
                                      4 ;--------------------------------------------------------
                                      5 	.module game_state
                                      6 	.optsdcc -mz80
                                      7 	
                                      8 ;--------------------------------------------------------
                                      9 ; Public variables in this module
                                     10 ;--------------------------------------------------------
                                     11 	.globl _PSGSFXStop
                                     12 	.globl _PSGStop
                                     13 	.globl _SMS_resetPauseRequest
                                     14 	.globl _SMS_queryPauseRequested
                                     15 	.globl _SMS_zeroSpritePalette
                                     16 	.globl _SMS_zeroBGPalette
                                     17 	.globl _waitForFrame
                                     18 	.globl _clear_input
                                     19 	.globl _transition_to_state
                                     20 	.globl _restore_board
                                     21 	.globl _get_game_actions
                                     22 	.globl _execute_game_logic
                                     23 	.globl _init_gamestatus
                                     24 	.globl _init_board
                                     25 	.globl _play_sample
                                     26 	.globl _play_fx
                                     27 	.globl _play_song
                                     28 	.globl _start_fadein_music
                                     29 	.globl _print_string
                                     30 	.globl _print_level_number
                                     31 	.globl _print_score_value
                                     32 	.globl _draw_game_screen
                                     33 	.globl _draw_game_background
                                     34 	.globl _game_full_palette
                                     35 	.globl _game_half_palette
                                     36 	.globl _clear_game_lists
                                     37 	.globl _initialize_game_lists
                                     38 	.globl _game_fade_in
                                     39 	.globl _general_fade_out
                                     40 	.globl _load_game_assets
                                     41 	.globl _game_state_status
                                     42 	.globl _SMS_SRAM
                                     43 	.globl _SRAM_bank_to_be_mapped_on_slot2
                                     44 	.globl _ROM_bank_to_be_mapped_on_slot0
                                     45 	.globl _ROM_bank_to_be_mapped_on_slot1
                                     46 	.globl _ROM_bank_to_be_mapped_on_slot2
                                     47 	.globl _game_state_start
                                     48 	.globl _game_state_update
                                     49 	.globl _game_state_stop
                                     50 ;--------------------------------------------------------
                                     51 ; special function registers
                                     52 ;--------------------------------------------------------
                                     53 ;--------------------------------------------------------
                                     54 ; ram data
                                     55 ;--------------------------------------------------------
                                     56 	.area _DATA
                           00FFFF    57 G$ROM_bank_to_be_mapped_on_slot2$0_0$0 == 0xffff
                           00FFFF    58 _ROM_bank_to_be_mapped_on_slot2	=	0xffff
                           00FFFE    59 G$ROM_bank_to_be_mapped_on_slot1$0_0$0 == 0xfffe
                           00FFFE    60 _ROM_bank_to_be_mapped_on_slot1	=	0xfffe
                           00FFFD    61 G$ROM_bank_to_be_mapped_on_slot0$0_0$0 == 0xfffd
                           00FFFD    62 _ROM_bank_to_be_mapped_on_slot0	=	0xfffd
                           00FFFC    63 G$SRAM_bank_to_be_mapped_on_slot2$0_0$0 == 0xfffc
                           00FFFC    64 _SRAM_bank_to_be_mapped_on_slot2	=	0xfffc
                           008000    65 G$SMS_SRAM$0_0$0 == 0x8000
                           008000    66 _SMS_SRAM	=	0x8000
                                     67 ;--------------------------------------------------------
                                     68 ; ram data
                                     69 ;--------------------------------------------------------
                                     70 	.area _INITIALIZED
                           000000    71 G$game_state_status$0_0$0==.
      000000                         72 _game_state_status::
      000000                         73 	.ds 1
                                     74 ;--------------------------------------------------------
                                     75 ; absolute external ram data
                                     76 ;--------------------------------------------------------
                                     77 	.area _DABS (ABS)
                                     78 ;--------------------------------------------------------
                                     79 ; global & static initialisations
                                     80 ;--------------------------------------------------------
                                     81 	.area _HOME
                                     82 	.area _GSINIT
                                     83 	.area _GSFINAL
                                     84 	.area _GSINIT
                                     85 ;--------------------------------------------------------
                                     86 ; Home
                                     87 ;--------------------------------------------------------
                                     88 	.area _HOME
                                     89 	.area _HOME
                                     90 ;--------------------------------------------------------
                                     91 ; code
                                     92 ;--------------------------------------------------------
                                     93 	.area _CODE
                           000000    94 	G$game_state_start$0$0	= .
                                     95 	.globl	G$game_state_start$0$0
                           000000    96 	C$game_state.c$18$0_0$236	= .
                                     97 	.globl	C$game_state.c$18$0_0$236
                                     98 ;src/states/game_state.c:18: void game_state_start(void) {
                                     99 ;	---------------------------------
                                    100 ; Function game_state_start
                                    101 ; ---------------------------------
      000000                        102 _game_state_start::
                           000000   103 	C$game_state.c$19$1_0$236	= .
                                    104 	.globl	C$game_state.c$19$1_0$236
                                    105 ;src/states/game_state.c:19: load_game_assets();
      000000 CDr00r00         [17]  106 	call	_load_game_assets
                           000003   107 	C$game_state.c$20$1_0$236	= .
                                    108 	.globl	C$game_state.c$20$1_0$236
                                    109 ;src/states/game_state.c:20: draw_game_background();
      000003 CDr00r00         [17]  110 	call	_draw_game_background
                           000006   111 	C$game_state.c$21$1_0$236	= .
                                    112 	.globl	C$game_state.c$21$1_0$236
                                    113 ;src/states/game_state.c:21: init_gamestatus(0);
      000006 AF               [ 4]  114 	xor	a, a
      000007 CDr00r00         [17]  115 	call	_init_gamestatus
                           00000A   116 	C$game_state.c$22$1_0$236	= .
                                    117 	.globl	C$game_state.c$22$1_0$236
                                    118 ;src/states/game_state.c:22: init_board();
      00000A CDr00r00         [17]  119 	call	_init_board
                           00000D   120 	C$game_state.c$23$1_0$236	= .
                                    121 	.globl	C$game_state.c$23$1_0$236
                                    122 ;src/states/game_state.c:23: frame_cnt = 0;
      00000D 21 00 00         [10]  123 	ld	hl, #0x0000
      000010 22r00r00         [16]  124 	ld	(_frame_cnt), hl
                           000013   125 	C$game_state.c$24$1_0$236	= .
                                    126 	.globl	C$game_state.c$24$1_0$236
                                    127 ;src/states/game_state.c:24: game_state_status = 0;
      000013 21r00r00         [10]  128 	ld	hl, #_game_state_status
      000016 36 00            [10]  129 	ld	(hl), #0x00
                           000018   130 	C$game_state.c$25$1_0$236	= .
                                    131 	.globl	C$game_state.c$25$1_0$236
                                    132 ;src/states/game_state.c:25: }
                           000018   133 	C$game_state.c$25$1_0$236	= .
                                    134 	.globl	C$game_state.c$25$1_0$236
                           000018   135 	XG$game_state_start$0$0	= .
                                    136 	.globl	XG$game_state_start$0$0
      000018 C9               [10]  137 	ret
                           000019   138 	G$game_state_update$0$0	= .
                                    139 	.globl	G$game_state_update$0$0
                           000019   140 	C$game_state.c$27$1_0$238	= .
                                    141 	.globl	C$game_state.c$27$1_0$238
                                    142 ;src/states/game_state.c:27: void game_state_update(void) {
                                    143 ;	---------------------------------
                                    144 ; Function game_state_update
                                    145 ; ---------------------------------
      000019                        146 _game_state_update::
                           000019   147 	C$game_state.c$28$1_0$238	= .
                                    148 	.globl	C$game_state.c$28$1_0$238
                                    149 ;src/states/game_state.c:28: if(game_state_status == 0) {
      000019 3Ar00r00         [13]  150 	ld	a, (_game_state_status+0)
      00001C B7               [ 4]  151 	or	a, a
      00001D 20 12            [12]  152 	jr	NZ, 00151$
                           00001F   153 	C$game_state.c$29$2_0$239	= .
                                    154 	.globl	C$game_state.c$29$2_0$239
                                    155 ;src/states/game_state.c:29: start_fadein_music();
      00001F CDr00r00         [17]  156 	call	_start_fadein_music
                           000022   157 	C$game_state.c$30$2_0$239	= .
                                    158 	.globl	C$game_state.c$30$2_0$239
                                    159 ;src/states/game_state.c:30: game_fade_in(0);
      000022 AF               [ 4]  160 	xor	a, a
      000023 CDr00r00         [17]  161 	call	_game_fade_in
                           000026   162 	C$game_state.c$31$2_0$239	= .
                                    163 	.globl	C$game_state.c$31$2_0$239
                                    164 ;src/states/game_state.c:31: play_song(START_OST);
      000026 3E 05            [ 7]  165 	ld	a, #0x05
      000028 CDr00r00         [17]  166 	call	_play_song
                           00002B   167 	C$game_state.c$32$2_0$239	= .
                                    168 	.globl	C$game_state.c$32$2_0$239
                                    169 ;src/states/game_state.c:32: game_state_status = 1;
      00002B 21r00r00         [10]  170 	ld	hl, #_game_state_status
      00002E 36 01            [10]  171 	ld	(hl), #0x01
      000030 C9               [10]  172 	ret
      000031                        173 00151$:
                           000031   174 	C$game_state.c$33$1_0$238	= .
                                    175 	.globl	C$game_state.c$33$1_0$238
                                    176 ;src/states/game_state.c:33: } else if(game_state_status == 1) {
      000031 3Ar00r00         [13]  177 	ld	a, (_game_state_status+0)
      000034 3D               [ 4]  178 	dec	a
      000035 20 1C            [12]  179 	jr	NZ, 00148$
                           000037   180 	C$game_state.c$34$2_0$240	= .
                                    181 	.globl	C$game_state.c$34$2_0$240
                                    182 ;src/states/game_state.c:34: frame_cnt = 0;
      000037 21 00 00         [10]  183 	ld	hl, #0x0000
      00003A 22r00r00         [16]  184 	ld	(_frame_cnt), hl
                           00003D   185 	C$game_state.c$35$2_0$240	= .
                                    186 	.globl	C$game_state.c$35$2_0$240
                                    187 ;src/states/game_state.c:35: while(frame_cnt < XS_PERIOD) {
      00003D                        188 00101$:
      00003D 11 18 00         [10]  189 	ld	de, #0x0018
      000040 2Ar00r00         [16]  190 	ld	hl, (_frame_cnt)
      000043 BF               [ 4]  191 	cp	a, a
      000044 ED 52            [15]  192 	sbc	hl, de
      000046 30 05            [12]  193 	jr	NC, 00103$
                           000048   194 	C$game_state.c$36$3_0$241	= .
                                    195 	.globl	C$game_state.c$36$3_0$241
                                    196 ;src/states/game_state.c:36: waitForFrame();
      000048 CDr00r00         [17]  197 	call	_waitForFrame
      00004B 18 F0            [12]  198 	jr	00101$
      00004D                        199 00103$:
                           00004D   200 	C$game_state.c$38$2_0$240	= .
                                    201 	.globl	C$game_state.c$38$2_0$240
                                    202 ;src/states/game_state.c:38: game_state_status = 2;
      00004D 21r00r00         [10]  203 	ld	hl, #_game_state_status
      000050 36 02            [10]  204 	ld	(hl), #0x02
      000052 C9               [10]  205 	ret
      000053                        206 00148$:
                           000053   207 	C$game_state.c$39$1_0$238	= .
                                    208 	.globl	C$game_state.c$39$1_0$238
                                    209 ;src/states/game_state.c:39: } else if(game_state_status == 2) {
      000053 3Ar00r00         [13]  210 	ld	a, (_game_state_status+0)
      000056 D6 02            [ 7]  211 	sub	a, #0x02
      000058 20 1C            [12]  212 	jr	NZ, 00145$
                           00005A   213 	C$game_state.c$40$2_0$242	= .
                                    214 	.globl	C$game_state.c$40$2_0$242
                                    215 ;src/states/game_state.c:40: print_string(12,10,"GET^");
      00005A 21rE0r01         [10]  216 	ld	hl, #___str_0
      00005D E5               [11]  217 	push	hl
      00005E 2E 0A            [ 7]  218 	ld	l, #0x0a
                                    219 ;	spillPairReg hl
                                    220 ;	spillPairReg hl
      000060 3E 0C            [ 7]  221 	ld	a, #0x0c
      000062 CDr00r00         [17]  222 	call	_print_string
                           000065   223 	C$game_state.c$41$2_0$242	= .
                                    224 	.globl	C$game_state.c$41$2_0$242
                                    225 ;src/states/game_state.c:41: print_string(16,10,"READY[^");
      000065 21rE5r01         [10]  226 	ld	hl, #___str_1
      000068 E5               [11]  227 	push	hl
      000069 2E 0A            [ 7]  228 	ld	l, #0x0a
                                    229 ;	spillPairReg hl
                                    230 ;	spillPairReg hl
      00006B 3E 10            [ 7]  231 	ld	a, #0x10
      00006D CDr00r00         [17]  232 	call	_print_string
                           000070   233 	C$game_state.c$42$2_0$242	= .
                                    234 	.globl	C$game_state.c$42$2_0$242
                                    235 ;src/states/game_state.c:42: game_state_status = 3;
      000070 21r00r00         [10]  236 	ld	hl, #_game_state_status
      000073 36 03            [10]  237 	ld	(hl), #0x03
      000075 C9               [10]  238 	ret
      000076                        239 00145$:
                           000076   240 	C$game_state.c$43$1_0$238	= .
                                    241 	.globl	C$game_state.c$43$1_0$238
                                    242 ;src/states/game_state.c:43: } else if(game_state_status == 3) {
      000076 3Ar00r00         [13]  243 	ld	a, (_game_state_status+0)
      000079 D6 03            [ 7]  244 	sub	a, #0x03
      00007B 20 1C            [12]  245 	jr	NZ, 00142$
                           00007D   246 	C$game_state.c$44$2_0$243	= .
                                    247 	.globl	C$game_state.c$44$2_0$243
                                    248 ;src/states/game_state.c:44: frame_cnt = 0;
      00007D 21 00 00         [10]  249 	ld	hl, #0x0000
      000080 22r00r00         [16]  250 	ld	(_frame_cnt), hl
                           000083   251 	C$game_state.c$45$2_0$243	= .
                                    252 	.globl	C$game_state.c$45$2_0$243
                                    253 ;src/states/game_state.c:45: while(frame_cnt < L_PERIOD) {
      000083                        254 00104$:
      000083 11 B4 00         [10]  255 	ld	de, #0x00b4
      000086 2Ar00r00         [16]  256 	ld	hl, (_frame_cnt)
      000089 BF               [ 4]  257 	cp	a, a
      00008A ED 52            [15]  258 	sbc	hl, de
      00008C 30 05            [12]  259 	jr	NC, 00106$
                           00008E   260 	C$game_state.c$46$3_0$244	= .
                                    261 	.globl	C$game_state.c$46$3_0$244
                                    262 ;src/states/game_state.c:46: waitForFrame();
      00008E CDr00r00         [17]  263 	call	_waitForFrame
      000091 18 F0            [12]  264 	jr	00104$
      000093                        265 00106$:
                           000093   266 	C$game_state.c$48$2_0$243	= .
                                    267 	.globl	C$game_state.c$48$2_0$243
                                    268 ;src/states/game_state.c:48: game_state_status = 4;
      000093 21r00r00         [10]  269 	ld	hl, #_game_state_status
      000096 36 04            [10]  270 	ld	(hl), #0x04
      000098 C9               [10]  271 	ret
      000099                        272 00142$:
                           000099   273 	C$game_state.c$49$1_0$238	= .
                                    274 	.globl	C$game_state.c$49$1_0$238
                                    275 ;src/states/game_state.c:49: } else if(game_state_status == 4) {
      000099 3Ar00r00         [13]  276 	ld	a, (_game_state_status+0)
      00009C D6 04            [ 7]  277 	sub	a, #0x04
      00009E 20 6D            [12]  278 	jr	NZ, 00139$
                           0000A0   279 	C$game_state.c$50$2_0$245	= .
                                    280 	.globl	C$game_state.c$50$2_0$245
                                    281 ;src/states/game_state.c:50: stop_music();
      0000A0 CDr00r00         [17]  282 	call	_PSGStop
                           0000A3   283 	C$game_state.c$51$2_0$245	= .
                                    284 	.globl	C$game_state.c$51$2_0$245
                                    285 ;src/states/game_state.c:51: stop_fx();
      0000A3 CDr00r00         [17]  286 	call	_PSGSFXStop
                           0000A6   287 	C$game_state.c$52$2_0$245	= .
                                    288 	.globl	C$game_state.c$52$2_0$245
                                    289 ;src/states/game_state.c:52: waitForFrame();
      0000A6 CDr00r00         [17]  290 	call	_waitForFrame
                           0000A9   291 	C$game_state.c$53$2_0$245	= .
                                    292 	.globl	C$game_state.c$53$2_0$245
                                    293 ;src/states/game_state.c:53: play_sample(GETREADY_SAMPLE);
      0000A9 3E 02            [ 7]  294 	ld	a, #0x02
      0000AB CDr00r00         [17]  295 	call	_play_sample
                           0000AE   296 	C$game_state.c$54$2_0$245	= .
                                    297 	.globl	C$game_state.c$54$2_0$245
                                    298 ;src/states/game_state.c:54: waitForFrame();
      0000AE CDr00r00         [17]  299 	call	_waitForFrame
                           0000B1   300 	C$game_state.c$55$2_0$245	= .
                                    301 	.globl	C$game_state.c$55$2_0$245
                                    302 ;src/states/game_state.c:55: play_song(INGAME_OST);
      0000B1 3E 06            [ 7]  303 	ld	a, #0x06
      0000B3 CDr00r00         [17]  304 	call	_play_song
                           0000B6   305 	C$game_state.c$56$2_0$245	= .
                                    306 	.globl	C$game_state.c$56$2_0$245
                                    307 ;src/states/game_state.c:56: draw_game_screen();
      0000B6 CDr00r00         [17]  308 	call	_draw_game_screen
                           0000B9   309 	C$game_state.c$57$2_0$245	= .
                                    310 	.globl	C$game_state.c$57$2_0$245
                                    311 ;src/states/game_state.c:57: print_level_number(2,23,level+1);
      0000B9 3Ar00r00         [13]  312 	ld	a, (_level+0)
      0000BC 3C               [ 4]  313 	inc	a
      0000BD F5               [11]  314 	push	af
      0000BE 33               [ 6]  315 	inc	sp
      0000BF 2E 17            [ 7]  316 	ld	l, #0x17
                                    317 ;	spillPairReg hl
                                    318 ;	spillPairReg hl
      0000C1 3E 02            [ 7]  319 	ld	a, #0x02
      0000C3 CDr00r00         [17]  320 	call	_print_level_number
                           0000C6   321 	C$game_state.c$58$2_0$245	= .
                                    322 	.globl	C$game_state.c$58$2_0$245
                                    323 ;src/states/game_state.c:58: print_string(2,19,"LVL]GOAL^");
      0000C6 21rEDr01         [10]  324 	ld	hl, #___str_2
      0000C9 E5               [11]  325 	push	hl
      0000CA 2E 13            [ 7]  326 	ld	l, #0x13
                                    327 ;	spillPairReg hl
                                    328 ;	spillPairReg hl
      0000CC 3E 02            [ 7]  329 	ld	a, #0x02
      0000CE CDr00r00         [17]  330 	call	_print_string
                           0000D1   331 	C$game_state.c$59$2_0$245	= .
                                    332 	.globl	C$game_state.c$59$2_0$245
                                    333 ;src/states/game_state.c:59: print_score_value(2,21,(level+1)<<LEVEL_DELIMITER);
      0000D1 3Ar00r00         [13]  334 	ld	a, (_level+0)
      0000D4 26 00            [ 7]  335 	ld	h, #0x00
                                    336 ;	spillPairReg hl
                                    337 ;	spillPairReg hl
      0000D6 6F               [ 4]  338 	ld	l, a
                                    339 ;	spillPairReg hl
                                    340 ;	spillPairReg hl
      0000D7 23               [ 6]  341 	inc	hl
      0000D8 29               [11]  342 	add	hl, hl
      0000D9 29               [11]  343 	add	hl, hl
      0000DA 29               [11]  344 	add	hl, hl
      0000DB 29               [11]  345 	add	hl, hl
      0000DC 29               [11]  346 	add	hl, hl
      0000DD 29               [11]  347 	add	hl, hl
      0000DE E5               [11]  348 	push	hl
      0000DF 2E 15            [ 7]  349 	ld	l, #0x15
                                    350 ;	spillPairReg hl
                                    351 ;	spillPairReg hl
      0000E1 3E 02            [ 7]  352 	ld	a, #0x02
      0000E3 CDr00r00         [17]  353 	call	_print_score_value
                           0000E6   354 	C$game_state.c$60$2_0$245	= .
                                    355 	.globl	C$game_state.c$60$2_0$245
                                    356 ;src/states/game_state.c:60: print_score_value(24,19,score_p1);
      0000E6 2Ar00r00         [16]  357 	ld	hl, (_score_p1)
      0000E9 E5               [11]  358 	push	hl
      0000EA 2E 13            [ 7]  359 	ld	l, #0x13
                                    360 ;	spillPairReg hl
                                    361 ;	spillPairReg hl
      0000EC 3E 18            [ 7]  362 	ld	a, #0x18
      0000EE CDr00r00         [17]  363 	call	_print_score_value
                           0000F1   364 	C$game_state.c$61$2_0$245	= .
                                    365 	.globl	C$game_state.c$61$2_0$245
                                    366 ;src/states/game_state.c:61: print_score_value(24,23,score_p2);
      0000F1 2Ar00r00         [16]  367 	ld	hl, (_score_p2)
      0000F4 E5               [11]  368 	push	hl
      0000F5 2E 17            [ 7]  369 	ld	l, #0x17
                                    370 ;	spillPairReg hl
                                    371 ;	spillPairReg hl
      0000F7 3E 18            [ 7]  372 	ld	a, #0x18
      0000F9 CDr00r00         [17]  373 	call	_print_score_value
                           0000FC   374 	C$game_state.c$62$2_0$245	= .
                                    375 	.globl	C$game_state.c$62$2_0$245
                                    376 ;src/states/game_state.c:62: initialize_game_lists();
      0000FC CDr00r00         [17]  377 	call	_initialize_game_lists
                           0000FF   378 	C$game_state.c$63$2_0$245	= .
                                    379 	.globl	C$game_state.c$63$2_0$245
                                    380 ;src/states/game_state.c:63: pause = false;
      0000FF 21r00r00         [10]  381 	ld	hl, #_pause
      000102 36 00            [10]  382 	ld	(hl), #0x00
                           000104   383 	C$game_state.c$64$2_0$245	= .
                                    384 	.globl	C$game_state.c$64$2_0$245
                                    385 ;src/states/game_state.c:64: SMS_resetPauseRequest();
      000104 CDr00r00         [17]  386 	call	_SMS_resetPauseRequest
                           000107   387 	C$game_state.c$65$2_0$245	= .
                                    388 	.globl	C$game_state.c$65$2_0$245
                                    389 ;src/states/game_state.c:65: game_state_status = 5;
      000107 21r00r00         [10]  390 	ld	hl, #_game_state_status
      00010A 36 05            [10]  391 	ld	(hl), #0x05
      00010C C9               [10]  392 	ret
      00010D                        393 00139$:
                           00010D   394 	C$game_state.c$67$1_0$238	= .
                                    395 	.globl	C$game_state.c$67$1_0$238
                                    396 ;src/states/game_state.c:67: if (game_status!=GAME_STATUS_RESET && game_status != GAME_STATUS_ENDGAME2) { 
      00010D 3Ar00r00         [13]  397 	ld	a, (_game_status+0)
      000110 D6 15            [ 7]  398 	sub	a, #0x15
      000112 3E 01            [ 7]  399 	ld	a, #0x01
      000114 28 01            [12]  400 	jr	Z, 00279$
      000116 AF               [ 4]  401 	xor	a, a
      000117                        402 00279$:
      000117 4F               [ 4]  403 	ld	c, a
      000118 3Ar00r00         [13]  404 	ld	a, (_game_status+0)
      00011B D6 14            [ 7]  405 	sub	a, #0x14
      00011D 3E 01            [ 7]  406 	ld	a, #0x01
      00011F 28 01            [12]  407 	jr	Z, 00281$
      000121 AF               [ 4]  408 	xor	a, a
      000122                        409 00281$:
      000122 47               [ 4]  410 	ld	b, a
                           000123   411 	C$game_state.c$66$1_0$238	= .
                                    412 	.globl	C$game_state.c$66$1_0$238
                                    413 ;src/states/game_state.c:66: }  else if (game_state_status == 5) {
      000123 3Ar00r00         [13]  414 	ld	a, (_game_state_status+0)
      000126 D6 05            [ 7]  415 	sub	a, #0x05
      000128 C2rBBr01         [10]  416 	jp	NZ,00136$
                           00012B   417 	C$game_state.c$67$2_0$246	= .
                                    418 	.globl	C$game_state.c$67$2_0$246
                                    419 ;src/states/game_state.c:67: if (game_status!=GAME_STATUS_RESET && game_status != GAME_STATUS_ENDGAME2) { 
      00012B CB 41            [ 8]  420 	bit	0, c
      00012D 20 61            [12]  421 	jr	NZ, 00122$
      00012F CB 40            [ 8]  422 	bit	0, b
      000131 20 5D            [12]  423 	jr	NZ, 00122$
                           000133   424 	C$game_state.c$68$3_0$247	= .
                                    425 	.globl	C$game_state.c$68$3_0$247
                                    426 ;src/states/game_state.c:68: if(!pause) {
      000133 21r00r00         [10]  427 	ld	hl, #_pause
      000136 CB 46            [12]  428 	bit	0, (hl)
      000138 20 06            [12]  429 	jr	NZ, 00108$
                           00013A   430 	C$game_state.c$69$4_0$248	= .
                                    431 	.globl	C$game_state.c$69$4_0$248
                                    432 ;src/states/game_state.c:69: execute_game_logic();
      00013A CDr00r00         [17]  433 	call	_execute_game_logic
                           00013D   434 	C$game_state.c$70$4_0$248	= .
                                    435 	.globl	C$game_state.c$70$4_0$248
                                    436 ;src/states/game_state.c:70: get_game_actions();
      00013D CDr00r00         [17]  437 	call	_get_game_actions
      000140                        438 00108$:
                           000140   439 	C$game_state.c$72$3_0$247	= .
                                    440 	.globl	C$game_state.c$72$3_0$247
                                    441 ;src/states/game_state.c:72: if(SMS_queryPauseRequested()) {
      000140 CDr00r00         [17]  442 	call	_SMS_queryPauseRequested
      000143 4F               [ 4]  443 	ld	c, a
      000144 CB 41            [ 8]  444 	bit	0, c
      000146 CAr00r00         [10]  445 	jp	Z,_waitForFrame
                           000149   446 	C$game_state.c$73$4_0$249	= .
                                    447 	.globl	C$game_state.c$73$4_0$249
                                    448 ;src/states/game_state.c:73: if(pause) {
      000149 FD 21r00r00      [14]  449 	ld	iy, #_pause
      00014D FD CB 00 46      [20]  450 	bit	0, 0 (iy)
      000151 28 18            [12]  451 	jr	Z, 00114$
                           000153   452 	C$game_state.c$74$5_0$250	= .
                                    453 	.globl	C$game_state.c$74$5_0$250
                                    454 ;src/states/game_state.c:74: pause = false;
      000153 FD 36 00 00      [19]  455 	ld	0 (iy), #0x00
                           000157   456 	C$game_state.c$75$5_0$250	= .
                                    457 	.globl	C$game_state.c$75$5_0$250
                                    458 ;src/states/game_state.c:75: game_full_palette();
      000157 CDr00r00         [17]  459 	call	_game_full_palette
                           00015A   460 	C$game_state.c$76$5_0$250	= .
                                    461 	.globl	C$game_state.c$76$5_0$250
                                    462 ;src/states/game_state.c:76: if(game_status != GAME_STATUS_GAMEOVER) {
      00015A 3Ar00r00         [13]  463 	ld	a, (_game_status+0)
      00015D D6 12            [ 7]  464 	sub	a, #0x12
      00015F 28 03            [12]  465 	jr	Z, 00110$
                           000161   466 	C$game_state.c$77$6_0$251	= .
                                    467 	.globl	C$game_state.c$77$6_0$251
                                    468 ;src/states/game_state.c:77: restore_board();
      000161 CDr00r00         [17]  469 	call	_restore_board
      000164                        470 00110$:
                           000164   471 	C$game_state.c$79$5_0$250	= .
                                    472 	.globl	C$game_state.c$79$5_0$250
                                    473 ;src/states/game_state.c:79: play_fx(SELECT_FX);
      000164 3E 01            [ 7]  474 	ld	a, #0x01
      000166 CDr00r00         [17]  475 	call	_play_fx
      000169 18 1F            [12]  476 	jr	00115$
      00016B                        477 00114$:
                           00016B   478 	C$game_state.c$82$5_0$252	= .
                                    479 	.globl	C$game_state.c$82$5_0$252
                                    480 ;src/states/game_state.c:82: pause = true;
      00016B 21r00r00         [10]  481 	ld	hl, #_pause
      00016E 36 01            [10]  482 	ld	(hl), #0x01
                           000170   483 	C$game_state.c$83$5_0$252	= .
                                    484 	.globl	C$game_state.c$83$5_0$252
                                    485 ;src/states/game_state.c:83: game_half_palette();
      000170 CDr00r00         [17]  486 	call	_game_half_palette
                           000173   487 	C$game_state.c$84$5_0$252	= .
                                    488 	.globl	C$game_state.c$84$5_0$252
                                    489 ;src/states/game_state.c:84: if(game_status != GAME_STATUS_GAMEOVER) {
      000173 3Ar00r00         [13]  490 	ld	a, (_game_status+0)
      000176 D6 12            [ 7]  491 	sub	a, #0x12
      000178 28 0B            [12]  492 	jr	Z, 00112$
                           00017A   493 	C$game_state.c$85$6_0$253	= .
                                    494 	.globl	C$game_state.c$85$6_0$253
                                    495 ;src/states/game_state.c:85: print_string(13,10,"PAUSE^");
      00017A 21rF7r01         [10]  496 	ld	hl, #___str_3
      00017D E5               [11]  497 	push	hl
      00017E 2E 0A            [ 7]  498 	ld	l, #0x0a
                                    499 ;	spillPairReg hl
                                    500 ;	spillPairReg hl
      000180 3E 0D            [ 7]  501 	ld	a, #0x0d
      000182 CDr00r00         [17]  502 	call	_print_string
      000185                        503 00112$:
                           000185   504 	C$game_state.c$88$5_0$252	= .
                                    505 	.globl	C$game_state.c$88$5_0$252
                                    506 ;src/states/game_state.c:88: play_fx(SELECT_FX);
      000185 3E 01            [ 7]  507 	ld	a, #0x01
      000187 CDr00r00         [17]  508 	call	_play_fx
      00018A                        509 00115$:
                           00018A   510 	C$game_state.c$91$4_0$249	= .
                                    511 	.globl	C$game_state.c$91$4_0$249
                                    512 ;src/states/game_state.c:91: SMS_resetPauseRequest();
      00018A CDr00r00         [17]  513 	call	_SMS_resetPauseRequest
                           00018D   514 	C$game_state.c$93$3_0$247	= .
                                    515 	.globl	C$game_state.c$93$3_0$247
                                    516 ;src/states/game_state.c:93: waitForFrame();
      00018D C3r00r00         [10]  517 	jp	_waitForFrame
      000190                        518 00122$:
                           000190   519 	C$game_state.c$95$3_0$254	= .
                                    520 	.globl	C$game_state.c$95$3_0$254
                                    521 ;src/states/game_state.c:95: general_fade_out();
      000190 CDr00r00         [17]  522 	call	_general_fade_out
                           000193   523 	C$game_state.c$96$3_0$254	= .
                                    524 	.globl	C$game_state.c$96$3_0$254
                                    525 ;src/states/game_state.c:96: blackBackgroundPalette();
      000193 CDr00r00         [17]  526 	call	_SMS_zeroBGPalette
                           000196   527 	C$game_state.c$97$3_0$254	= .
                                    528 	.globl	C$game_state.c$97$3_0$254
                                    529 ;src/states/game_state.c:97: blackSpritePalette();
      000196 CDr00r00         [17]  530 	call	_SMS_zeroSpritePalette
                           000199   531 	C$game_state.c$98$3_0$254	= .
                                    532 	.globl	C$game_state.c$98$3_0$254
                                    533 ;src/states/game_state.c:98: frame_cnt = 0;
      000199 21 00 00         [10]  534 	ld	hl, #0x0000
      00019C 22r00r00         [16]  535 	ld	(_frame_cnt), hl
                           00019F   536 	C$game_state.c$99$3_0$254	= .
                                    537 	.globl	C$game_state.c$99$3_0$254
                                    538 ;src/states/game_state.c:99: while(frame_cnt < M_PERIOD) {
      00019F                        539 00118$:
      00019F 11 78 00         [10]  540 	ld	de, #0x0078
      0001A2 2Ar00r00         [16]  541 	ld	hl, (_frame_cnt)
      0001A5 BF               [ 4]  542 	cp	a, a
      0001A6 ED 52            [15]  543 	sbc	hl, de
      0001A8 30 05            [12]  544 	jr	NC, 00120$
                           0001AA   545 	C$game_state.c$100$4_0$255	= .
                                    546 	.globl	C$game_state.c$100$4_0$255
                                    547 ;src/states/game_state.c:100: waitForFrame();
      0001AA CDr00r00         [17]  548 	call	_waitForFrame
      0001AD 18 F0            [12]  549 	jr	00118$
      0001AF                        550 00120$:
                           0001AF   551 	C$game_state.c$102$3_0$254	= .
                                    552 	.globl	C$game_state.c$102$3_0$254
                                    553 ;src/states/game_state.c:102: clear_game_lists();
      0001AF CDr00r00         [17]  554 	call	_clear_game_lists
                           0001B2   555 	C$game_state.c$103$3_0$254	= .
                                    556 	.globl	C$game_state.c$103$3_0$254
                                    557 ;src/states/game_state.c:103: clear_input();
      0001B2 CDr00r00         [17]  558 	call	_clear_input
                           0001B5   559 	C$game_state.c$104$3_0$254	= .
                                    560 	.globl	C$game_state.c$104$3_0$254
                                    561 ;src/states/game_state.c:104: game_state_status = 6;
      0001B5 21r00r00         [10]  562 	ld	hl, #_game_state_status
      0001B8 36 06            [10]  563 	ld	(hl), #0x06
      0001BA C9               [10]  564 	ret
      0001BB                        565 00136$:
                           0001BB   566 	C$game_state.c$106$1_0$238	= .
                                    567 	.globl	C$game_state.c$106$1_0$238
                                    568 ;src/states/game_state.c:106: } else if(game_state_status == 6) {
      0001BB 3Ar00r00         [13]  569 	ld	a, (_game_state_status+0)
                           0001BE   570 	C$game_state.c$107$2_0$256	= .
                                    571 	.globl	C$game_state.c$107$2_0$256
                                    572 ;src/states/game_state.c:107: if(game_status == GAME_STATUS_RESET) {
      0001BE D6 06            [ 7]  573 	sub	a,#0x06
      0001C0 C0               [11]  574 	ret	NZ
      0001C1 B1               [ 4]  575 	or	a,c
      0001C2 28 14            [12]  576 	jr	Z, 00131$
                           0001C4   577 	C$game_state.c$108$3_0$257	= .
                                    578 	.globl	C$game_state.c$108$3_0$257
                                    579 ;src/states/game_state.c:108: if(highScoreReached) {
      0001C4 FD 21r00r00      [14]  580 	ld	iy, #_highScoreReached
      0001C8 FD CB 00 46      [20]  581 	bit	0, 0 (iy)
      0001CC 28 05            [12]  582 	jr	Z, 00126$
                           0001CE   583 	C$game_state.c$109$4_0$258	= .
                                    584 	.globl	C$game_state.c$109$4_0$258
                                    585 ;src/states/game_state.c:109: transition_to_state(ENTER_SCORE_STATE);
      0001CE 3E 08            [ 7]  586 	ld	a, #0x08
      0001D0 C3r00r00         [10]  587 	jp	_transition_to_state
      0001D3                        588 00126$:
                           0001D3   589 	C$game_state.c$111$4_0$259	= .
                                    590 	.globl	C$game_state.c$111$4_0$259
                                    591 ;src/states/game_state.c:111: transition_to_state(LOGO_STATE);
      0001D3 3E 01            [ 7]  592 	ld	a, #0x01
      0001D5 C3r00r00         [10]  593 	jp	_transition_to_state
      0001D8                        594 00131$:
                           0001D8   595 	C$game_state.c$113$2_0$256	= .
                                    596 	.globl	C$game_state.c$113$2_0$256
                                    597 ;src/states/game_state.c:113: } else if(game_status == GAME_STATUS_ENDGAME2) {
      0001D8 78               [ 4]  598 	ld	a, b
      0001D9 B7               [ 4]  599 	or	a, a
      0001DA C8               [11]  600 	ret	Z
                           0001DB   601 	C$game_state.c$114$3_0$260	= .
                                    602 	.globl	C$game_state.c$114$3_0$260
                                    603 ;src/states/game_state.c:114: transition_to_state(END_GAME_STATE);
      0001DB 3E 09            [ 7]  604 	ld	a, #0x09
                           0001DD   605 	C$game_state.c$117$1_0$238	= .
                                    606 	.globl	C$game_state.c$117$1_0$238
                                    607 ;src/states/game_state.c:117: }
                           0001DD   608 	C$game_state.c$117$1_0$238	= .
                                    609 	.globl	C$game_state.c$117$1_0$238
                           0001DD   610 	XG$game_state_update$0$0	= .
                                    611 	.globl	XG$game_state_update$0$0
      0001DD C3r00r00         [10]  612 	jp	_transition_to_state
                           0001E0   613 Fgame_state$__str_0$0_0$0 == .
      0001E0                        614 ___str_0:
      0001E0 47 45 54 5E            615 	.ascii "GET^"
      0001E4 00                     616 	.db 0x00
                           0001E5   617 Fgame_state$__str_1$0_0$0 == .
      0001E5                        618 ___str_1:
      0001E5 52 45 41 44 59 5B 5E   619 	.ascii "READY[^"
      0001EC 00                     620 	.db 0x00
                           0001ED   621 Fgame_state$__str_2$0_0$0 == .
      0001ED                        622 ___str_2:
      0001ED 4C 56 4C 5D 47 4F 41   623 	.ascii "LVL]GOAL^"
             4C 5E
      0001F6 00                     624 	.db 0x00
                           0001F7   625 Fgame_state$__str_3$0_0$0 == .
      0001F7                        626 ___str_3:
      0001F7 50 41 55 53 45 5E      627 	.ascii "PAUSE^"
      0001FD 00                     628 	.db 0x00
                           0001FE   629 	G$game_state_stop$0$0	= .
                                    630 	.globl	G$game_state_stop$0$0
                           0001FE   631 	C$game_state.c$119$1_0$262	= .
                                    632 	.globl	C$game_state.c$119$1_0$262
                                    633 ;src/states/game_state.c:119: void game_state_stop(void) {
                                    634 ;	---------------------------------
                                    635 ; Function game_state_stop
                                    636 ; ---------------------------------
      0001FE                        637 _game_state_stop::
                           0001FE   638 	C$game_state.c$120$1_0$262	= .
                                    639 	.globl	C$game_state.c$120$1_0$262
                                    640 ;src/states/game_state.c:120: clear_input();
                           0001FE   641 	C$game_state.c$121$1_0$262	= .
                                    642 	.globl	C$game_state.c$121$1_0$262
                                    643 ;src/states/game_state.c:121: }
                           0001FE   644 	C$game_state.c$121$1_0$262	= .
                                    645 	.globl	C$game_state.c$121$1_0$262
                           0001FE   646 	XG$game_state_stop$0$0	= .
                                    647 	.globl	XG$game_state_stop$0$0
      0001FE C3r00r00         [10]  648 	jp	_clear_input
                                    649 	.area _CODE
                                    650 	.area _INITIALIZER
                           000000   651 Fgame_state$__xinit_game_state_status$0_0$0 == .
      000000                        652 __xinit__game_state_status:
      000000 00                     653 	.db #0x00	; 0
                                    654 	.area _CABS (ABS)
