                                      1 ;--------------------------------------------------------
                                      2 ; File Created by SDCC : free open source ISO C Compiler 
                                      3 ; Version 4.2.12 #13827 (Linux)
                                      4 ;--------------------------------------------------------
                                      5 	.module globalvariables
                                      6 	.optsdcc -mz80
                                      7 	
                                      8 ;--------------------------------------------------------
                                      9 ; Public variables in this module
                                     10 ;--------------------------------------------------------
                                     11 	.globl _background_palette
                                     12 	.globl _sprite_palette
                                     13 	.globl _statemanager
                                     14 	.globl _currentSaveSystem
                                     15 	.globl _highscore_table
                                     16 	.globl _highscore_table_backup
                                     17 	.globl _active_points_list
                                     18 	.globl _current_player
                                     19 	.globl _number_human_players
                                     20 	.globl _next_square
                                     21 	.globl _current_square
                                     22 	.globl _active_pieces
                                     23 	.globl _max_row_index
                                     24 	.globl _row_index
                                     25 	.globl _piece_index
                                     26 	.globl _suitable_columns
                                     27 	.globl _board
                                     28 	.globl _rotation_counter
                                     29 	.globl _movement_counter
                                     30 	.globl _current_rotation
                                     31 	.globl _target_rotation
                                     32 	.globl _target_row
                                     33 	.globl _target_column
                                     34 	.globl _endOfDrawingLevel
                                     35 	.globl _decodingIndex
                                     36 	.globl _newLevel
                                     37 	.globl _resetPressed
                                     38 	.globl _rotation2Action
                                     39 	.globl _rotation1Action
                                     40 	.globl _downAction
                                     41 	.globl _rightAction
                                     42 	.globl _leftAction
                                     43 	.globl _level
                                     44 	.globl _fallAcum
                                     45 	.globl _fallSpeed
                                     46 	.globl _generateBonus
                                     47 	.globl _isHurryUp
                                     48 	.globl _isPaletteRed
                                     49 	.globl _piecesDestroyed
                                     50 	.globl _piecesUpdated
                                     51 	.globl _last_square_x
                                     52 	.globl _bonusSamplePlay
                                     53 	.globl _bonusScore
                                     54 	.globl _highScoreReached
                                     55 	.globl _score_p2
                                     56 	.globl _score_p1
                                     57 	.globl _game_status
                                     58 	.globl _end_state
                                     59 	.globl _preserve_context
                                     60 	.globl _previous_state
                                     61 	.globl _next_state
                                     62 	.globl _current_state
                                     63 	.globl _currentScrollColumn
                                     64 	.globl _creditsEnd
                                     65 	.globl _waveIndex
                                     66 	.globl _cursory
                                     67 	.globl _cursorx
                                     68 	.globl _lineCnt
                                     69 	.globl _scroll_x
                                     70 	.globl _current_atenuation
                                     71 	.globl _target_atenuation
                                     72 	.globl _current_fx_bank
                                     73 	.globl _current_music_bank
                                     74 	.globl _current_resource_bank
                                     75 	.globl _repeat_rotation
                                     76 	.globl _repeat_movement
                                     77 	.globl _button_input
                                     78 	.globl _rotation_input
                                     79 	.globl _movement_direction
                                     80 	.globl _input_cnt_rotation
                                     81 	.globl _input_cnt_direction
                                     82 	.globl _level_timer
                                     83 	.globl _frame_cnt
                                     84 	.globl _rand_index
                                     85 	.globl _pause
                                     86 	.globl _SMS_SRAM
                                     87 	.globl _SRAM_bank_to_be_mapped_on_slot2
                                     88 	.globl _ROM_bank_to_be_mapped_on_slot0
                                     89 	.globl _ROM_bank_to_be_mapped_on_slot1
                                     90 	.globl _ROM_bank_to_be_mapped_on_slot2
                                     91 ;--------------------------------------------------------
                                     92 ; special function registers
                                     93 ;--------------------------------------------------------
                                     94 ;--------------------------------------------------------
                                     95 ; ram data
                                     96 ;--------------------------------------------------------
                                     97 	.area _DATA
                           00FFFF    98 G$ROM_bank_to_be_mapped_on_slot2$0_0$0 == 0xffff
                           00FFFF    99 _ROM_bank_to_be_mapped_on_slot2	=	0xffff
                           00FFFE   100 G$ROM_bank_to_be_mapped_on_slot1$0_0$0 == 0xfffe
                           00FFFE   101 _ROM_bank_to_be_mapped_on_slot1	=	0xfffe
                           00FFFD   102 G$ROM_bank_to_be_mapped_on_slot0$0_0$0 == 0xfffd
                           00FFFD   103 _ROM_bank_to_be_mapped_on_slot0	=	0xfffd
                           00FFFC   104 G$SRAM_bank_to_be_mapped_on_slot2$0_0$0 == 0xfffc
                           00FFFC   105 _SRAM_bank_to_be_mapped_on_slot2	=	0xfffc
                           008000   106 G$SMS_SRAM$0_0$0 == 0x8000
                           008000   107 _SMS_SRAM	=	0x8000
                           000000   108 G$pause$0_0$0==.
      000000                        109 _pause::
      000000                        110 	.ds 1
                           000001   111 G$rand_index$0_0$0==.
      000001                        112 _rand_index::
      000001                        113 	.ds 1
                           000002   114 G$frame_cnt$0_0$0==.
      000002                        115 _frame_cnt::
      000002                        116 	.ds 2
                           000004   117 G$level_timer$0_0$0==.
      000004                        118 _level_timer::
      000004                        119 	.ds 2
                           000006   120 G$input_cnt_direction$0_0$0==.
      000006                        121 _input_cnt_direction::
      000006                        122 	.ds 2
                           000008   123 G$input_cnt_rotation$0_0$0==.
      000008                        124 _input_cnt_rotation::
      000008                        125 	.ds 2
                           00000A   126 G$movement_direction$0_0$0==.
      00000A                        127 _movement_direction::
      00000A                        128 	.ds 2
                           00000C   129 G$rotation_input$0_0$0==.
      00000C                        130 _rotation_input::
      00000C                        131 	.ds 2
                           00000E   132 G$button_input$0_0$0==.
      00000E                        133 _button_input::
      00000E                        134 	.ds 2
                           000010   135 G$repeat_movement$0_0$0==.
      000010                        136 _repeat_movement::
      000010                        137 	.ds 2
                           000012   138 G$repeat_rotation$0_0$0==.
      000012                        139 _repeat_rotation::
      000012                        140 	.ds 2
                           000014   141 G$current_resource_bank$0_0$0==.
      000014                        142 _current_resource_bank::
      000014                        143 	.ds 1
                           000015   144 G$current_music_bank$0_0$0==.
      000015                        145 _current_music_bank::
      000015                        146 	.ds 1
                           000016   147 G$current_fx_bank$0_0$0==.
      000016                        148 _current_fx_bank::
      000016                        149 	.ds 1
                           000017   150 G$target_atenuation$0_0$0==.
      000017                        151 _target_atenuation::
      000017                        152 	.ds 1
                           000018   153 G$current_atenuation$0_0$0==.
      000018                        154 _current_atenuation::
      000018                        155 	.ds 1
                           000019   156 G$scroll_x$0_0$0==.
      000019                        157 _scroll_x::
      000019                        158 	.ds 12
                           000025   159 G$lineCnt$0_0$0==.
      000025                        160 _lineCnt::
      000025                        161 	.ds 1
                           000026   162 G$cursorx$0_0$0==.
      000026                        163 _cursorx::
      000026                        164 	.ds 1
                           000027   165 G$cursory$0_0$0==.
      000027                        166 _cursory::
      000027                        167 	.ds 1
                           000028   168 G$waveIndex$0_0$0==.
      000028                        169 _waveIndex::
      000028                        170 	.ds 1
                           000029   171 G$creditsEnd$0_0$0==.
      000029                        172 _creditsEnd::
      000029                        173 	.ds 1
                           00002A   174 G$currentScrollColumn$0_0$0==.
      00002A                        175 _currentScrollColumn::
      00002A                        176 	.ds 1
                           00002B   177 G$current_state$0_0$0==.
      00002B                        178 _current_state::
      00002B                        179 	.ds 1
                           00002C   180 G$next_state$0_0$0==.
      00002C                        181 _next_state::
      00002C                        182 	.ds 1
                           00002D   183 G$previous_state$0_0$0==.
      00002D                        184 _previous_state::
      00002D                        185 	.ds 1
                           00002E   186 G$preserve_context$0_0$0==.
      00002E                        187 _preserve_context::
      00002E                        188 	.ds 1
                           00002F   189 G$end_state$0_0$0==.
      00002F                        190 _end_state::
      00002F                        191 	.ds 1
                           000030   192 G$game_status$0_0$0==.
      000030                        193 _game_status::
      000030                        194 	.ds 1
                           000031   195 G$score_p1$0_0$0==.
      000031                        196 _score_p1::
      000031                        197 	.ds 2
                           000033   198 G$score_p2$0_0$0==.
      000033                        199 _score_p2::
      000033                        200 	.ds 2
                           000035   201 G$highScoreReached$0_0$0==.
      000035                        202 _highScoreReached::
      000035                        203 	.ds 1
                           000036   204 G$bonusScore$0_0$0==.
      000036                        205 _bonusScore::
      000036                        206 	.ds 1
                           000037   207 G$bonusSamplePlay$0_0$0==.
      000037                        208 _bonusSamplePlay::
      000037                        209 	.ds 1
                           000038   210 G$last_square_x$0_0$0==.
      000038                        211 _last_square_x::
      000038                        212 	.ds 1
                           000039   213 G$piecesUpdated$0_0$0==.
      000039                        214 _piecesUpdated::
      000039                        215 	.ds 1
                           00003A   216 G$piecesDestroyed$0_0$0==.
      00003A                        217 _piecesDestroyed::
      00003A                        218 	.ds 1
                           00003B   219 G$isPaletteRed$0_0$0==.
      00003B                        220 _isPaletteRed::
      00003B                        221 	.ds 1
                           00003C   222 G$isHurryUp$0_0$0==.
      00003C                        223 _isHurryUp::
      00003C                        224 	.ds 1
                           00003D   225 G$generateBonus$0_0$0==.
      00003D                        226 _generateBonus::
      00003D                        227 	.ds 1
                           00003E   228 G$fallSpeed$0_0$0==.
      00003E                        229 _fallSpeed::
      00003E                        230 	.ds 1
                           00003F   231 G$fallAcum$0_0$0==.
      00003F                        232 _fallAcum::
      00003F                        233 	.ds 2
                           000041   234 G$level$0_0$0==.
      000041                        235 _level::
      000041                        236 	.ds 1
                           000042   237 G$leftAction$0_0$0==.
      000042                        238 _leftAction::
      000042                        239 	.ds 1
                           000043   240 G$rightAction$0_0$0==.
      000043                        241 _rightAction::
      000043                        242 	.ds 1
                           000044   243 G$downAction$0_0$0==.
      000044                        244 _downAction::
      000044                        245 	.ds 1
                           000045   246 G$rotation1Action$0_0$0==.
      000045                        247 _rotation1Action::
      000045                        248 	.ds 1
                           000046   249 G$rotation2Action$0_0$0==.
      000046                        250 _rotation2Action::
      000046                        251 	.ds 1
                           000047   252 G$resetPressed$0_0$0==.
      000047                        253 _resetPressed::
      000047                        254 	.ds 1
                           000048   255 G$newLevel$0_0$0==.
      000048                        256 _newLevel::
      000048                        257 	.ds 1
                           000049   258 G$decodingIndex$0_0$0==.
      000049                        259 _decodingIndex::
      000049                        260 	.ds 1
                           00004A   261 G$endOfDrawingLevel$0_0$0==.
      00004A                        262 _endOfDrawingLevel::
      00004A                        263 	.ds 1
                           00004B   264 G$target_column$0_0$0==.
      00004B                        265 _target_column::
      00004B                        266 	.ds 1
                           00004C   267 G$target_row$0_0$0==.
      00004C                        268 _target_row::
      00004C                        269 	.ds 1
                           00004D   270 G$target_rotation$0_0$0==.
      00004D                        271 _target_rotation::
      00004D                        272 	.ds 1
                           00004E   273 G$current_rotation$0_0$0==.
      00004E                        274 _current_rotation::
      00004E                        275 	.ds 1
                           00004F   276 G$movement_counter$0_0$0==.
      00004F                        277 _movement_counter::
      00004F                        278 	.ds 1
                           000050   279 G$rotation_counter$0_0$0==.
      000050                        280 _rotation_counter::
      000050                        281 	.ds 1
                           000051   282 G$board$0_0$0==.
      000051                        283 _board::
      000051                        284 	.ds 220
                           00012D   285 G$suitable_columns$0_0$0==.
      00012D                        286 _suitable_columns::
      00012D                        287 	.ds 10
                           000137   288 G$piece_index$0_0$0==.
      000137                        289 _piece_index::
      000137                        290 	.ds 1
                           000138   291 G$row_index$0_0$0==.
      000138                        292 _row_index::
      000138                        293 	.ds 1
                           000139   294 G$max_row_index$0_0$0==.
      000139                        295 _max_row_index::
      000139                        296 	.ds 1
                           00013A   297 G$active_pieces$0_0$0==.
      00013A                        298 _active_pieces::
      00013A                        299 	.ds 30
                           000158   300 G$current_square$0_0$0==.
      000158                        301 _current_square::
      000158                        302 	.ds 6
                           00015E   303 G$next_square$0_0$0==.
      00015E                        304 _next_square::
      00015E                        305 	.ds 6
                           000164   306 G$number_human_players$0_0$0==.
      000164                        307 _number_human_players::
      000164                        308 	.ds 1
                           000165   309 G$current_player$0_0$0==.
      000165                        310 _current_player::
      000165                        311 	.ds 1
                           000166   312 G$active_points_list$0_0$0==.
      000166                        313 _active_points_list::
      000166                        314 	.ds 2
                           000168   315 G$highscore_table_backup$0_0$0==.
      000168                        316 _highscore_table_backup::
      000168                        317 	.ds 2
                           00016A   318 G$highscore_table$0_0$0==.
      00016A                        319 _highscore_table::
      00016A                        320 	.ds 52
                           00019E   321 G$currentSaveSystem$0_0$0==.
      00019E                        322 _currentSaveSystem::
      00019E                        323 	.ds 1
                           00019F   324 G$statemanager$0_0$0==.
      00019F                        325 _statemanager::
      00019F                        326 	.ds 66
                                    327 ;--------------------------------------------------------
                                    328 ; ram data
                                    329 ;--------------------------------------------------------
                                    330 	.area _INITIALIZED
                           000000   331 G$sprite_palette$0_0$0==.
      000000                        332 _sprite_palette::
      000000                        333 	.ds 16
                           000010   334 G$background_palette$0_0$0==.
      000010                        335 _background_palette::
      000010                        336 	.ds 16
                                    337 ;--------------------------------------------------------
                                    338 ; absolute external ram data
                                    339 ;--------------------------------------------------------
                                    340 	.area _DABS (ABS)
                                    341 ;--------------------------------------------------------
                                    342 ; global & static initialisations
                                    343 ;--------------------------------------------------------
                                    344 	.area _HOME
                                    345 	.area _GSINIT
                                    346 	.area _GSFINAL
                                    347 	.area _GSINIT
                                    348 ;--------------------------------------------------------
                                    349 ; Home
                                    350 ;--------------------------------------------------------
                                    351 	.area _HOME
                                    352 	.area _HOME
                                    353 ;--------------------------------------------------------
                                    354 ; code
                                    355 ;--------------------------------------------------------
                                    356 	.area _CODE
                                    357 	.area _CODE
                                    358 	.area _INITIALIZER
                           000000   359 Fglobalvariables$__xinit_sprite_palette$0_0$0 == .
      000000                        360 __xinit__sprite_palette:
      000000 00                     361 	.db #0x00	; 0
      000001 3F                     362 	.db #0x3f	; 63
      000002 36                     363 	.db #0x36	; 54	'6'
      000003 3E                     364 	.db #0x3e	; 62
      000004 3B                     365 	.db #0x3b	; 59
      000005 11                     366 	.db #0x11	; 17
      000006 29                     367 	.db #0x29	; 41
      000007 2A                     368 	.db #0x2a	; 42
      000008 00                     369 	.db #0x00	; 0
      000009 3F                     370 	.db #0x3f	; 63
      00000A 2A                     371 	.db #0x2a	; 42
      00000B 00                     372 	.db #0x00	; 0
      00000C 3F                     373 	.db #0x3f	; 63
      00000D 2A                     374 	.db #0x2a	; 42
      00000E 0F                     375 	.db #0x0f	; 15
      00000F 07                     376 	.db #0x07	; 7
                           000010   377 Fglobalvariables$__xinit_background_palette$0_0$0 == .
      000010                        378 __xinit__background_palette:
      000010 38                     379 	.db #0x38	; 56	'8'
      000011 00                     380 	.db #0x00	; 0
      000012 38                     381 	.db #0x38	; 56	'8'
      000013 38                     382 	.db #0x38	; 56	'8'
      000014 00                     383 	.db #0x00	; 0
      000015 00                     384 	.db #0x00	; 0
      000016 00                     385 	.db #0x00	; 0
      000017 00                     386 	.db #0x00	; 0
      000018 00                     387 	.db #0x00	; 0
      000019 00                     388 	.db #0x00	; 0
      00001A 00                     389 	.db #0x00	; 0
      00001B 00                     390 	.db #0x00	; 0
      00001C 00                     391 	.db #0x00	; 0
      00001D 00                     392 	.db #0x00	; 0
      00001E 00                     393 	.db #0x00	; 0
      00001F 00                     394 	.db #0x00	; 0
                                    395 	.area _CABS (ABS)
