                                      1 ;--------------------------------------------------------
                                      2 ; File Created by SDCC : free open source ISO C Compiler 
                                      3 ; Version 4.2.12 #13827 (Linux)
                                      4 ;--------------------------------------------------------
                                      5 	.module intro_state
                                      6 	.optsdcc -mz80
                                      7 	
                                      8 ;--------------------------------------------------------
                                      9 ; Public variables in this module
                                     10 ;--------------------------------------------------------
                                     11 	.globl _PSGStop
                                     12 	.globl _waitForFrame
                                     13 	.globl _clear_tilemap
                                     14 	.globl _getButtonsPressed
                                     15 	.globl _update_input
                                     16 	.globl _clear_input
                                     17 	.globl _transition_to_state
                                     18 	.globl _play_song
                                     19 	.globl _start_fadeout_music
                                     20 	.globl _start_fadein_music
                                     21 	.globl _update_dialog_box
                                     22 	.globl _create_dialog_box
                                     23 	.globl _sprite_fade_in
                                     24 	.globl _background_fade_in_to_sepia
                                     25 	.globl _background_fade_in
                                     26 	.globl _general_fade_out
                                     27 	.globl _background_fade_out
                                     28 	.globl _load_tilemap
                                     29 	.globl _load_tileset_batches
                                     30 	.globl _load_tileset
                                     31 	.globl _currentLine
                                     32 	.globl _intro_state_status
                                     33 	.globl _SMS_SRAM
                                     34 	.globl _SRAM_bank_to_be_mapped_on_slot2
                                     35 	.globl _ROM_bank_to_be_mapped_on_slot0
                                     36 	.globl _ROM_bank_to_be_mapped_on_slot1
                                     37 	.globl _ROM_bank_to_be_mapped_on_slot2
                                     38 	.globl _intro_state_start
                                     39 	.globl _intro_state_update
                                     40 	.globl _intro_state_stop
                                     41 ;--------------------------------------------------------
                                     42 ; special function registers
                                     43 ;--------------------------------------------------------
                                     44 ;--------------------------------------------------------
                                     45 ; ram data
                                     46 ;--------------------------------------------------------
                                     47 	.area _DATA
                           00FFFF    48 G$ROM_bank_to_be_mapped_on_slot2$0_0$0 == 0xffff
                           00FFFF    49 _ROM_bank_to_be_mapped_on_slot2	=	0xffff
                           00FFFE    50 G$ROM_bank_to_be_mapped_on_slot1$0_0$0 == 0xfffe
                           00FFFE    51 _ROM_bank_to_be_mapped_on_slot1	=	0xfffe
                           00FFFD    52 G$ROM_bank_to_be_mapped_on_slot0$0_0$0 == 0xfffd
                           00FFFD    53 _ROM_bank_to_be_mapped_on_slot0	=	0xfffd
                           00FFFC    54 G$SRAM_bank_to_be_mapped_on_slot2$0_0$0 == 0xfffc
                           00FFFC    55 _SRAM_bank_to_be_mapped_on_slot2	=	0xfffc
                           008000    56 G$SMS_SRAM$0_0$0 == 0x8000
                           008000    57 _SMS_SRAM	=	0x8000
                           000000    58 G$intro_state_status$0_0$0==.
      000000                         59 _intro_state_status::
      000000                         60 	.ds 1
                                     61 ;--------------------------------------------------------
                                     62 ; ram data
                                     63 ;--------------------------------------------------------
                                     64 	.area _INITIALIZED
                           000000    65 G$currentLine$0_0$0==.
      000000                         66 _currentLine::
      000000                         67 	.ds 1
                                     68 ;--------------------------------------------------------
                                     69 ; absolute external ram data
                                     70 ;--------------------------------------------------------
                                     71 	.area _DABS (ABS)
                                     72 ;--------------------------------------------------------
                                     73 ; global & static initialisations
                                     74 ;--------------------------------------------------------
                                     75 	.area _HOME
                                     76 	.area _GSINIT
                                     77 	.area _GSFINAL
                                     78 	.area _GSINIT
                                     79 ;--------------------------------------------------------
                                     80 ; Home
                                     81 ;--------------------------------------------------------
                                     82 	.area _HOME
                                     83 	.area _HOME
                                     84 ;--------------------------------------------------------
                                     85 ; code
                                     86 ;--------------------------------------------------------
                                     87 	.area _CODE
                           000000    88 	G$intro_state_start$0$0	= .
                                     89 	.globl	G$intro_state_start$0$0
                           000000    90 	C$intro_state.c$18$0_0$209	= .
                                     91 	.globl	C$intro_state.c$18$0_0$209
                                     92 ;src/states/intro_state.c:18: void intro_state_start(void) {
                                     93 ;	---------------------------------
                                     94 ; Function intro_state_start
                                     95 ; ---------------------------------
      000000                         96 _intro_state_start::
                           000000    97 	C$intro_state.c$19$1_0$209	= .
                                     98 	.globl	C$intro_state.c$19$1_0$209
                                     99 ;src/states/intro_state.c:19: frame_cnt = 0;
      000000 21 00 00         [10]  100 	ld	hl, #0x0000
      000003 22r00r00         [16]  101 	ld	(_frame_cnt), hl
                           000006   102 	C$intro_state.c$20$1_0$209	= .
                                    103 	.globl	C$intro_state.c$20$1_0$209
                                    104 ;src/states/intro_state.c:20: intro_state_status = 0;
      000006 21r00r00         [10]  105 	ld	hl, #_intro_state_status
      000009 36 00            [10]  106 	ld	(hl), #0x00
                           00000B   107 	C$intro_state.c$21$1_0$209	= .
                                    108 	.globl	C$intro_state.c$21$1_0$209
                                    109 ;src/states/intro_state.c:21: currentLine = 0;
      00000B 21r00r00         [10]  110 	ld	hl, #_currentLine
      00000E 36 00            [10]  111 	ld	(hl), #0x00
                           000010   112 	C$intro_state.c$22$1_0$209	= .
                                    113 	.globl	C$intro_state.c$22$1_0$209
                                    114 ;src/states/intro_state.c:22: clear_tilemap();
      000010 CDr00r00         [17]  115 	call	_clear_tilemap
                           000013   116 	C$intro_state.c$23$1_0$209	= .
                                    117 	.globl	C$intro_state.c$23$1_0$209
                                    118 ;src/states/intro_state.c:23: load_tileset(SIMPLE_FONT_ASSET,DIGITS_BASE_ADDRESS);
      000013 2E 18            [ 7]  119 	ld	l, #0x18
                                    120 ;	spillPairReg hl
                                    121 ;	spillPairReg hl
      000015 3E 02            [ 7]  122 	ld	a, #0x02
      000017 CDr00r00         [17]  123 	call	_load_tileset
                           00001A   124 	C$intro_state.c$24$1_0$209	= .
                                    125 	.globl	C$intro_state.c$24$1_0$209
                                    126 ;src/states/intro_state.c:24: load_tileset(INTRO1_ASSETS,BACKGROUND_BASE_ADRESS);
      00001A 2E 3F            [ 7]  127 	ld	l, #0x3f
                                    128 ;	spillPairReg hl
                                    129 ;	spillPairReg hl
      00001C 3E 03            [ 7]  130 	ld	a, #0x03
      00001E CDr00r00         [17]  131 	call	_load_tileset
                           000021   132 	C$intro_state.c$25$1_0$209	= .
                                    133 	.globl	C$intro_state.c$25$1_0$209
                                    134 ;src/states/intro_state.c:25: load_tilemap(INTRO1_ASSETS);
      000021 3E 03            [ 7]  135 	ld	a, #0x03
                           000023   136 	C$intro_state.c$27$1_0$209	= .
                                    137 	.globl	C$intro_state.c$27$1_0$209
                                    138 ;src/states/intro_state.c:27: }
                           000023   139 	C$intro_state.c$27$1_0$209	= .
                                    140 	.globl	C$intro_state.c$27$1_0$209
                           000023   141 	XG$intro_state_start$0$0	= .
                                    142 	.globl	XG$intro_state_start$0$0
      000023 C3r00r00         [10]  143 	jp	_load_tilemap
                           000026   144 	G$intro_state_update$0$0	= .
                                    145 	.globl	G$intro_state_update$0$0
                           000026   146 	C$intro_state.c$29$1_0$211	= .
                                    147 	.globl	C$intro_state.c$29$1_0$211
                                    148 ;src/states/intro_state.c:29: void intro_state_update(void) {
                                    149 ;	---------------------------------
                                    150 ; Function intro_state_update
                                    151 ; ---------------------------------
      000026                        152 _intro_state_update::
                           000026   153 	C$intro_state.c$30$1_0$211	= .
                                    154 	.globl	C$intro_state.c$30$1_0$211
                                    155 ;src/states/intro_state.c:30: if(intro_state_status == 0) {
      000026 3Ar00r00         [13]  156 	ld	a, (_intro_state_status+0)
      000029 B7               [ 4]  157 	or	a, a
      00002A 20 1B            [12]  158 	jr	NZ, 00127$
                           00002C   159 	C$intro_state.c$31$2_0$212	= .
                                    160 	.globl	C$intro_state.c$31$2_0$212
                                    161 ;src/states/intro_state.c:31: play_song(INTRO_OST);
      00002C 3E 02            [ 7]  162 	ld	a, #0x02
      00002E CDr00r00         [17]  163 	call	_play_song
                           000031   164 	C$intro_state.c$32$2_0$212	= .
                                    165 	.globl	C$intro_state.c$32$2_0$212
                                    166 ;src/states/intro_state.c:32: start_fadein_music();
      000031 CDr00r00         [17]  167 	call	_start_fadein_music
                           000034   168 	C$intro_state.c$33$2_0$212	= .
                                    169 	.globl	C$intro_state.c$33$2_0$212
                                    170 ;src/states/intro_state.c:33: background_fade_in_to_sepia(INTRO1_PALETTE,2);
      000034 2E 02            [ 7]  171 	ld	l, #0x02
                                    172 ;	spillPairReg hl
                                    173 ;	spillPairReg hl
      000036 3E 03            [ 7]  174 	ld	a, #0x03
      000038 CDr00r00         [17]  175 	call	_background_fade_in_to_sepia
                           00003B   176 	C$intro_state.c$34$2_0$212	= .
                                    177 	.globl	C$intro_state.c$34$2_0$212
                                    178 ;src/states/intro_state.c:34: sprite_fade_in(FONT_PALETTE,1);
      00003B 2E 01            [ 7]  179 	ld	l, #0x01
                                    180 ;	spillPairReg hl
                                    181 ;	spillPairReg hl
      00003D AF               [ 4]  182 	xor	a, a
      00003E CDr00r00         [17]  183 	call	_sprite_fade_in
                           000041   184 	C$intro_state.c$35$2_0$212	= .
                                    185 	.globl	C$intro_state.c$35$2_0$212
                                    186 ;src/states/intro_state.c:35: intro_state_status = 1;
      000041 21r00r00         [10]  187 	ld	hl, #_intro_state_status
      000044 36 01            [10]  188 	ld	(hl), #0x01
      000046 C9               [10]  189 	ret
      000047                        190 00127$:
                           000047   191 	C$intro_state.c$36$1_0$211	= .
                                    192 	.globl	C$intro_state.c$36$1_0$211
                                    193 ;src/states/intro_state.c:36: } else if(intro_state_status == 1) {
      000047 3Ar00r00         [13]  194 	ld	a, (_intro_state_status+0)
      00004A 3D               [ 4]  195 	dec	a
      00004B 20 09            [12]  196 	jr	NZ, 00124$
                           00004D   197 	C$intro_state.c$37$2_0$213	= .
                                    198 	.globl	C$intro_state.c$37$2_0$213
                                    199 ;src/states/intro_state.c:37: create_dialog_box();
      00004D CDr00r00         [17]  200 	call	_create_dialog_box
                           000050   201 	C$intro_state.c$38$2_0$213	= .
                                    202 	.globl	C$intro_state.c$38$2_0$213
                                    203 ;src/states/intro_state.c:38: intro_state_status = 2;
      000050 21r00r00         [10]  204 	ld	hl, #_intro_state_status
      000053 36 02            [10]  205 	ld	(hl), #0x02
      000055 C9               [10]  206 	ret
      000056                        207 00124$:
                           000056   208 	C$intro_state.c$39$1_0$211	= .
                                    209 	.globl	C$intro_state.c$39$1_0$211
                                    210 ;src/states/intro_state.c:39: } else if(intro_state_status == 2) {
      000056 3Ar00r00         [13]  211 	ld	a, (_intro_state_status+0)
      000059 D6 02            [ 7]  212 	sub	a, #0x02
      00005B C2r16r01         [10]  213 	jp	NZ,00121$
                           00005E   214 	C$intro_state.c$40$2_0$214	= .
                                    215 	.globl	C$intro_state.c$40$2_0$214
                                    216 ;src/states/intro_state.c:40: update_input();
      00005E CDr00r00         [17]  217 	call	_update_input
                           000061   218 	C$intro_state.c$41$2_0$214	= .
                                    219 	.globl	C$intro_state.c$41$2_0$214
                                    220 ;src/states/intro_state.c:41: if(getButtonsPressed() & KEY_ONE_P1 || getButtonsPressed() & KEY_ONE_P2 || (currentLine>>1) > NUMBER_INTRO_SENTENCES+5) {
      000061 CDr00r00         [17]  221 	call	_getButtonsPressed
      000064 CB 63            [ 8]  222 	bit	4, e
      000066 20 15            [12]  223 	jr	NZ, 00101$
      000068 CDr00r00         [17]  224 	call	_getButtonsPressed
      00006B CB 52            [ 8]  225 	bit	2, d
      00006D 20 0E            [12]  226 	jr	NZ, 00101$
      00006F FD 21r00r00      [14]  227 	ld	iy, #_currentLine
      000073 FD 4E 00         [19]  228 	ld	c, 0 (iy)
      000076 CB 39            [ 8]  229 	srl	c
      000078 3E 12            [ 7]  230 	ld	a, #0x12
      00007A 91               [ 4]  231 	sub	a, c
      00007B 30 0E            [12]  232 	jr	NC, 00102$
      00007D                        233 00101$:
                           00007D   234 	C$intro_state.c$42$3_0$215	= .
                                    235 	.globl	C$intro_state.c$42$3_0$215
                                    236 ;src/states/intro_state.c:42: intro_state_status = 3;
      00007D FD 21r00r00      [14]  237 	ld	iy, #_intro_state_status
      000081 FD 36 00 03      [19]  238 	ld	0 (iy), #0x03
                           000085   239 	C$intro_state.c$43$3_0$215	= .
                                    240 	.globl	C$intro_state.c$43$3_0$215
                                    241 ;src/states/intro_state.c:43: frame_cnt = 0;
      000085 21 00 00         [10]  242 	ld	hl, #0x0000
      000088 22r00r00         [16]  243 	ld	(_frame_cnt), hl
      00008B                        244 00102$:
                           00008B   245 	C$intro_state.c$45$2_0$214	= .
                                    246 	.globl	C$intro_state.c$45$2_0$214
                                    247 ;src/states/intro_state.c:45: if((frame_cnt & 63) == 0) {
      00008B 3Ar00r00         [13]  248 	ld	a, (_frame_cnt+0)
      00008E E6 3F            [ 7]  249 	and	a, #0x3f
      000090 C2r00r00         [10]  250 	jp	NZ,_waitForFrame
                           000093   251 	C$intro_state.c$46$3_0$216	= .
                                    252 	.globl	C$intro_state.c$46$3_0$216
                                    253 ;src/states/intro_state.c:46: update_dialog_box(currentLine>>1, currentLine&1,0);
      000093 3Ar00r00         [13]  254 	ld	a, (_currentLine+0)
      000096 E6 01            [ 7]  255 	and	a, #0x01
      000098 6F               [ 4]  256 	ld	l, a
                                    257 ;	spillPairReg hl
                                    258 ;	spillPairReg hl
      000099 3Ar00r00         [13]  259 	ld	a, (#_currentLine + 0)
      00009C 4F               [ 4]  260 	ld	c, a
      00009D CB 39            [ 8]  261 	srl	c
      00009F AF               [ 4]  262 	xor	a, a
      0000A0 F5               [11]  263 	push	af
      0000A1 33               [ 6]  264 	inc	sp
      0000A2 79               [ 4]  265 	ld	a, c
      0000A3 CDr00r00         [17]  266 	call	_update_dialog_box
                           0000A6   267 	C$intro_state.c$47$3_0$216	= .
                                    268 	.globl	C$intro_state.c$47$3_0$216
                                    269 ;src/states/intro_state.c:47: currentLine++;
      0000A6 FD 21r00r00      [14]  270 	ld	iy, #_currentLine
      0000AA FD 34 00         [23]  271 	inc	0 (iy)
                           0000AD   272 	C$intro_state.c$48$3_0$216	= .
                                    273 	.globl	C$intro_state.c$48$3_0$216
                                    274 ;src/states/intro_state.c:48: switch (currentLine)
      0000AD 3Ar00r00         [13]  275 	ld	a,(_currentLine+0)
      0000B0 FE 04            [ 7]  276 	cp	a,#0x04
      0000B2 28 17            [12]  277 	jr	Z, 00105$
      0000B4 FE 0C            [ 7]  278 	cp	a,#0x0c
      0000B6 28 1C            [12]  279 	jr	Z, 00106$
      0000B8 FE 0D            [ 7]  280 	cp	a,#0x0d
      0000BA 28 2A            [12]  281 	jr	Z, 00107$
      0000BC FE 14            [ 7]  282 	cp	a,#0x14
      0000BE 28 30            [12]  283 	jr	Z, 00108$
      0000C0 FE 15            [ 7]  284 	cp	a,#0x15
      0000C2 28 3E            [12]  285 	jr	Z, 00109$
      0000C4 D6 1A            [ 7]  286 	sub	a, #0x1a
      0000C6 28 44            [12]  287 	jr	Z, 00110$
      0000C8 C3r00r00         [10]  288 	jp	_waitForFrame
                           0000CB   289 	C$intro_state.c$50$4_0$217	= .
                                    290 	.globl	C$intro_state.c$50$4_0$217
                                    291 ;src/states/intro_state.c:50: case 4:
      0000CB                        292 00105$:
                           0000CB   293 	C$intro_state.c$51$4_0$217	= .
                                    294 	.globl	C$intro_state.c$51$4_0$217
                                    295 ;src/states/intro_state.c:51: background_fade_in(INTRO1_PALETTE,3);
                                    296 ;	spillPairReg hl
                                    297 ;	spillPairReg hl
      0000CB 3E 03            [ 7]  298 	ld	a,#0x03
      0000CD 6F               [ 4]  299 	ld	l,a
      0000CE CDr00r00         [17]  300 	call	_background_fade_in
                           0000D1   301 	C$intro_state.c$52$4_0$217	= .
                                    302 	.globl	C$intro_state.c$52$4_0$217
                                    303 ;src/states/intro_state.c:52: break;
      0000D1 C3r00r00         [10]  304 	jp	_waitForFrame
                           0000D4   305 	C$intro_state.c$53$4_0$217	= .
                                    306 	.globl	C$intro_state.c$53$4_0$217
                                    307 ;src/states/intro_state.c:53: case 12:
      0000D4                        308 00106$:
                           0000D4   309 	C$intro_state.c$54$4_0$217	= .
                                    310 	.globl	C$intro_state.c$54$4_0$217
                                    311 ;src/states/intro_state.c:54: background_fade_out();
      0000D4 CDr00r00         [17]  312 	call	_background_fade_out
                           0000D7   313 	C$intro_state.c$55$4_0$217	= .
                                    314 	.globl	C$intro_state.c$55$4_0$217
                                    315 ;src/states/intro_state.c:55: load_tileset_batches(INTRO2_ASSETS, BACKGROUND_BASE_ADRESS);
      0000D7 2E 3F            [ 7]  316 	ld	l, #0x3f
                                    317 ;	spillPairReg hl
                                    318 ;	spillPairReg hl
      0000D9 3E 04            [ 7]  319 	ld	a, #0x04
      0000DB CDr00r00         [17]  320 	call	_load_tileset_batches
                           0000DE   321 	C$intro_state.c$56$4_0$217	= .
                                    322 	.globl	C$intro_state.c$56$4_0$217
                                    323 ;src/states/intro_state.c:56: load_tilemap(INTRO2_ASSETS);
      0000DE 3E 04            [ 7]  324 	ld	a, #0x04
      0000E0 CDr00r00         [17]  325 	call	_load_tilemap
                           0000E3   326 	C$intro_state.c$57$4_0$217	= .
                                    327 	.globl	C$intro_state.c$57$4_0$217
                                    328 ;src/states/intro_state.c:57: break;
      0000E3 C3r00r00         [10]  329 	jp	_waitForFrame
                           0000E6   330 	C$intro_state.c$58$4_0$217	= .
                                    331 	.globl	C$intro_state.c$58$4_0$217
                                    332 ;src/states/intro_state.c:58: case 13:
      0000E6                        333 00107$:
                           0000E6   334 	C$intro_state.c$59$4_0$217	= .
                                    335 	.globl	C$intro_state.c$59$4_0$217
                                    336 ;src/states/intro_state.c:59: background_fade_in(INTRO2_PALETTE,2);
      0000E6 2E 02            [ 7]  337 	ld	l, #0x02
                                    338 ;	spillPairReg hl
                                    339 ;	spillPairReg hl
      0000E8 3E 04            [ 7]  340 	ld	a, #0x04
      0000EA CDr00r00         [17]  341 	call	_background_fade_in
                           0000ED   342 	C$intro_state.c$60$4_0$217	= .
                                    343 	.globl	C$intro_state.c$60$4_0$217
                                    344 ;src/states/intro_state.c:60: break;
      0000ED C3r00r00         [10]  345 	jp	_waitForFrame
                           0000F0   346 	C$intro_state.c$61$4_0$217	= .
                                    347 	.globl	C$intro_state.c$61$4_0$217
                                    348 ;src/states/intro_state.c:61: case 20:
      0000F0                        349 00108$:
                           0000F0   350 	C$intro_state.c$62$4_0$217	= .
                                    351 	.globl	C$intro_state.c$62$4_0$217
                                    352 ;src/states/intro_state.c:62: background_fade_out();
      0000F0 CDr00r00         [17]  353 	call	_background_fade_out
                           0000F3   354 	C$intro_state.c$63$4_0$217	= .
                                    355 	.globl	C$intro_state.c$63$4_0$217
                                    356 ;src/states/intro_state.c:63: load_tileset_batches(INTRO3_ASSETS, BACKGROUND_BASE_ADRESS);
      0000F3 2E 3F            [ 7]  357 	ld	l, #0x3f
                                    358 ;	spillPairReg hl
                                    359 ;	spillPairReg hl
      0000F5 3E 05            [ 7]  360 	ld	a, #0x05
      0000F7 CDr00r00         [17]  361 	call	_load_tileset_batches
                           0000FA   362 	C$intro_state.c$64$4_0$217	= .
                                    363 	.globl	C$intro_state.c$64$4_0$217
                                    364 ;src/states/intro_state.c:64: load_tilemap(INTRO3_ASSETS);
      0000FA 3E 05            [ 7]  365 	ld	a, #0x05
      0000FC CDr00r00         [17]  366 	call	_load_tilemap
                           0000FF   367 	C$intro_state.c$65$4_0$217	= .
                                    368 	.globl	C$intro_state.c$65$4_0$217
                                    369 ;src/states/intro_state.c:65: break;
      0000FF C3r00r00         [10]  370 	jp	_waitForFrame
                           000102   371 	C$intro_state.c$66$4_0$217	= .
                                    372 	.globl	C$intro_state.c$66$4_0$217
                                    373 ;src/states/intro_state.c:66: case 21:
      000102                        374 00109$:
                           000102   375 	C$intro_state.c$67$4_0$217	= .
                                    376 	.globl	C$intro_state.c$67$4_0$217
                                    377 ;src/states/intro_state.c:67: background_fade_in(INTRO3_PALETTE,2);;
      000102 2E 02            [ 7]  378 	ld	l, #0x02
                                    379 ;	spillPairReg hl
                                    380 ;	spillPairReg hl
      000104 3E 05            [ 7]  381 	ld	a, #0x05
      000106 CDr00r00         [17]  382 	call	_background_fade_in
                           000109   383 	C$intro_state.c$68$4_0$217	= .
                                    384 	.globl	C$intro_state.c$68$4_0$217
                                    385 ;src/states/intro_state.c:68: break;
      000109 C3r00r00         [10]  386 	jp	_waitForFrame
                           00010C   387 	C$intro_state.c$69$4_0$217	= .
                                    388 	.globl	C$intro_state.c$69$4_0$217
                                    389 ;src/states/intro_state.c:69: case 26:
      00010C                        390 00110$:
                           00010C   391 	C$intro_state.c$70$4_0$217	= .
                                    392 	.globl	C$intro_state.c$70$4_0$217
                                    393 ;src/states/intro_state.c:70: background_fade_in_to_sepia(INTRO3_PALETTE,3);
      00010C 2E 03            [ 7]  394 	ld	l, #0x03
                                    395 ;	spillPairReg hl
                                    396 ;	spillPairReg hl
      00010E 3E 05            [ 7]  397 	ld	a, #0x05
      000110 CDr00r00         [17]  398 	call	_background_fade_in_to_sepia
                           000113   399 	C$intro_state.c$74$2_0$214	= .
                                    400 	.globl	C$intro_state.c$74$2_0$214
                                    401 ;src/states/intro_state.c:74: }
                           000113   402 	C$intro_state.c$76$2_0$214	= .
                                    403 	.globl	C$intro_state.c$76$2_0$214
                                    404 ;src/states/intro_state.c:76: waitForFrame();
      000113 C3r00r00         [10]  405 	jp	_waitForFrame
      000116                        406 00121$:
                           000116   407 	C$intro_state.c$77$1_0$211	= .
                                    408 	.globl	C$intro_state.c$77$1_0$211
                                    409 ;src/states/intro_state.c:77: } else if(intro_state_status == 3) {
      000116 3Ar00r00         [13]  410 	ld	a, (_intro_state_status+0)
      000119 D6 03            [ 7]  411 	sub	a, #0x03
      00011B 20 0C            [12]  412 	jr	NZ, 00118$
                           00011D   413 	C$intro_state.c$78$2_0$218	= .
                                    414 	.globl	C$intro_state.c$78$2_0$218
                                    415 ;src/states/intro_state.c:78: start_fadeout_music();
      00011D CDr00r00         [17]  416 	call	_start_fadeout_music
                           000120   417 	C$intro_state.c$79$2_0$218	= .
                                    418 	.globl	C$intro_state.c$79$2_0$218
                                    419 ;src/states/intro_state.c:79: general_fade_out();
      000120 CDr00r00         [17]  420 	call	_general_fade_out
                           000123   421 	C$intro_state.c$80$2_0$218	= .
                                    422 	.globl	C$intro_state.c$80$2_0$218
                                    423 ;src/states/intro_state.c:80: intro_state_status = 4;    
      000123 21r00r00         [10]  424 	ld	hl, #_intro_state_status
      000126 36 04            [10]  425 	ld	(hl), #0x04
      000128 C9               [10]  426 	ret
      000129                        427 00118$:
                           000129   428 	C$intro_state.c$81$1_0$211	= .
                                    429 	.globl	C$intro_state.c$81$1_0$211
                                    430 ;src/states/intro_state.c:81: } else if(intro_state_status == 4) {
      000129 3Ar00r00         [13]  431 	ld	a, (_intro_state_status+0)
      00012C D6 04            [ 7]  432 	sub	a, #0x04
      00012E C0               [11]  433 	ret	NZ
                           00012F   434 	C$intro_state.c$82$2_0$219	= .
                                    435 	.globl	C$intro_state.c$82$2_0$219
                                    436 ;src/states/intro_state.c:82: transition_to_state(TITLE_STATE);
      00012F 3E 03            [ 7]  437 	ld	a, #0x03
                           000131   438 	C$intro_state.c$84$1_0$211	= .
                                    439 	.globl	C$intro_state.c$84$1_0$211
                                    440 ;src/states/intro_state.c:84: }
                           000131   441 	C$intro_state.c$84$1_0$211	= .
                                    442 	.globl	C$intro_state.c$84$1_0$211
                           000131   443 	XG$intro_state_update$0$0	= .
                                    444 	.globl	XG$intro_state_update$0$0
      000131 C3r00r00         [10]  445 	jp	_transition_to_state
                           000134   446 	G$intro_state_stop$0$0	= .
                                    447 	.globl	G$intro_state_stop$0$0
                           000134   448 	C$intro_state.c$86$1_0$221	= .
                                    449 	.globl	C$intro_state.c$86$1_0$221
                                    450 ;src/states/intro_state.c:86: void intro_state_stop(void) {
                                    451 ;	---------------------------------
                                    452 ; Function intro_state_stop
                                    453 ; ---------------------------------
      000134                        454 _intro_state_stop::
                           000134   455 	C$intro_state.c$87$1_0$221	= .
                                    456 	.globl	C$intro_state.c$87$1_0$221
                                    457 ;src/states/intro_state.c:87: clear_input();
      000134 CDr00r00         [17]  458 	call	_clear_input
                           000137   459 	C$intro_state.c$88$1_0$221	= .
                                    460 	.globl	C$intro_state.c$88$1_0$221
                                    461 ;src/states/intro_state.c:88: stop_music();
                           000137   462 	C$intro_state.c$89$1_0$221	= .
                                    463 	.globl	C$intro_state.c$89$1_0$221
                                    464 ;src/states/intro_state.c:89: }
                           000137   465 	C$intro_state.c$89$1_0$221	= .
                                    466 	.globl	C$intro_state.c$89$1_0$221
                           000137   467 	XG$intro_state_stop$0$0	= .
                                    468 	.globl	XG$intro_state_stop$0$0
      000137 C3r00r00         [10]  469 	jp	_PSGStop
                                    470 	.area _CODE
                                    471 	.area _INITIALIZER
                           000000   472 Fintro_state$__xinit_currentLine$0_0$0 == .
      000000                        473 __xinit__currentLine:
      000000 00                     474 	.db #0x00	; 0
                                    475 	.area _CABS (ABS)
