ASxxxx Assembler V02.00 + NoICE + SDCC mods  (Zilog Z80 / Hitachi HD64180 / ZX-Next / eZ80)                   Page 1
Hexadecimal [24-Bits]

Symbol Table

    .__.$$$.                                                    =  002710 L
    .__.ABS.                                                    =  000000 G
    .__.CPU.                                                    =  000000 L
    .__.H$L.                                                    =  000000 L
  0 A$palettes$100                                                 00001C GR
  0 A$palettes$1001                                                0003F8 GR
  0 A$palettes$1002                                                0003FB GR
  0 A$palettes$1003                                                0003FC GR
  0 A$palettes$1007                                                0003FE GR
  0 A$palettes$101                                                 00001F GR
  0 A$palettes$1012                                                000401 GR
  0 A$palettes$1013                                                000404 GR
  0 A$palettes$1014                                                000405 GR
  0 A$palettes$1015                                                000406 GR
  0 A$palettes$1016                                                000409 GR
  0 A$palettes$1017                                                00040A GR
  0 A$palettes$1018                                                00040D GR
  0 A$palettes$1019                                                00040E GR
  0 A$palettes$102                                                 000020 GR
  0 A$palettes$1020                                                00040F GR
  0 A$palettes$1021                                                000410 GR
  0 A$palettes$1022                                                000411 GR
  0 A$palettes$1023                                                000412 GR
  0 A$palettes$1024                                                000415 GR
  0 A$palettes$1025                                                000418 GR
  0 A$palettes$1029                                                000419 GR
  0 A$palettes$103                                                 000022 GR
  0 A$palettes$1030                                                00041C GR
  0 A$palettes$1035                                                00041F GR
  0 A$palettes$1037                                                000421 GR
  0 A$palettes$1038                                                000422 GR
  0 A$palettes$1039                                                000425 GR
  0 A$palettes$104                                                 000023 GR
  0 A$palettes$1043                                                000427 GR
  0 A$palettes$1044                                                000428 GR
  0 A$palettes$1045                                                00042B GR
  0 A$palettes$1049                                                00042C GR
  0 A$palettes$105                                                 000024 GR
  0 A$palettes$1050                                                00042D GR
  0 A$palettes$1055                                                00042F GR
  0 A$palettes$1056                                                000432 GR
  0 A$palettes$1057                                                000433 GR
  0 A$palettes$106                                                 000025 GR
  0 A$palettes$1061                                                000436 GR
  0 A$palettes$1062                                                000439 GR
  0 A$palettes$1067                                                00043C GR
  0 A$palettes$1068                                                00043F GR
  0 A$palettes$1069                                                000440 GR
  0 A$palettes$107                                                 000026 GR
  0 A$palettes$1070                                                000441 GR
  0 A$palettes$1073                                                000444 GR
  0 A$palettes$1076                                                000447 GR
  0 A$palettes$1080                                                00044A GR
  0 A$palettes$1081                                                00044C GR
  0 A$palettes$1082                                                00044E GR
ASxxxx Assembler V02.00 + NoICE + SDCC mods  (Zilog Z80 / Hitachi HD64180 / ZX-Next / eZ80)                   Page 2
Hexadecimal [24-Bits]

Symbol Table

  0 A$palettes$1083                                                00044F GR
  0 A$palettes$1084                                                000450 GR
  0 A$palettes$1094                                                000451 GR
  0 A$palettes$1095                                                000453 GR
  0 A$palettes$1096                                                000457 GR
  0 A$palettes$1097                                                000459 GR
  0 A$palettes$1098                                                00045D GR
  0 A$palettes$1099                                                00045F GR
  0 A$palettes$1100                                                000461 GR
  0 A$palettes$1101                                                000464 GR
  0 A$palettes$1105                                                000467 GR
  0 A$palettes$1107                                                00046B GR
  0 A$palettes$1108                                                00046E GR
  0 A$palettes$1109                                                000471 GR
  0 A$palettes$111                                                 000027 GR
  0 A$palettes$1113                                                000473 GR
  0 A$palettes$1114                                                000476 GR
  0 A$palettes$1115                                                000478 GR
  0 A$palettes$1116                                                00047B GR
  0 A$palettes$1117                                                00047C GR
  0 A$palettes$1118                                                00047D GR
  0 A$palettes$1119                                                000480 GR
  0 A$palettes$112                                                 000028 GR
  0 A$palettes$1120                                                000483 GR
  0 A$palettes$1121                                                000485 GR
  0 A$palettes$1122                                                000488 GR
  0 A$palettes$1123                                                00048B GR
  0 A$palettes$1124                                                00048D GR
  0 A$palettes$1125                                                00048F GR
  0 A$palettes$1126                                                000492 GR
  0 A$palettes$1127                                                000495 GR
  0 A$palettes$1128                                                000498 GR
  0 A$palettes$1129                                                000499 GR
  0 A$palettes$1130                                                00049C GR
  0 A$palettes$1131                                                00049F GR
  0 A$palettes$1135                                                0004A0 GR
  0 A$palettes$1136                                                0004A3 GR
  0 A$palettes$1141                                                0004A5 GR
  0 A$palettes$1142                                                0004A8 GR
  0 A$palettes$1146                                                0004AB GR
  0 A$palettes$1148                                                0004AF GR
  0 A$palettes$1149                                                0004B2 GR
  0 A$palettes$1150                                                0004B4 GR
  0 A$palettes$1154                                                0004B7 GR
  0 A$palettes$1156                                                0004BB GR
  0 A$palettes$1157                                                0004BE GR
  0 A$palettes$1158                                                0004C1 GR
  0 A$palettes$1162                                                0004C4 GR
  0 A$palettes$1163                                                0004C7 GR
  0 A$palettes$1164                                                0004C9 GR
  0 A$palettes$1165                                                0004CC GR
  0 A$palettes$1166                                                0004CD GR
  0 A$palettes$1167                                                0004CE GR
  0 A$palettes$1168                                                0004D1 GR
  0 A$palettes$1169                                                0004D4 GR
ASxxxx Assembler V02.00 + NoICE + SDCC mods  (Zilog Z80 / Hitachi HD64180 / ZX-Next / eZ80)                   Page 3
Hexadecimal [24-Bits]

Symbol Table

  0 A$palettes$117                                                 00002A GR
  0 A$palettes$1170                                                0004D5 GR
  0 A$palettes$1171                                                0004D8 GR
  0 A$palettes$1172                                                0004DA GR
  0 A$palettes$1176                                                0004DD GR
  0 A$palettes$1177                                                0004E0 GR
  0 A$palettes$1178                                                0004E2 GR
  0 A$palettes$1179                                                0004E4 GR
  0 A$palettes$118                                                 00002B GR
  0 A$palettes$1180                                                0004E5 GR
  0 A$palettes$1181                                                0004E6 GR
  0 A$palettes$1182                                                0004E8 GR
  0 A$palettes$1183                                                0004E9 GR
  0 A$palettes$1184                                                0004EC GR
  0 A$palettes$1185                                                0004EF GR
  0 A$palettes$1186                                                0004F3 GR
  0 A$palettes$1187                                                0004F7 GR
  0 A$palettes$1188                                                0004FB GR
  0 A$palettes$1189                                                0004FF GR
  0 A$palettes$1190                                                000502 GR
  0 A$palettes$1194                                                000505 GR
  0 A$palettes$1195                                                000508 GR
  0 A$palettes$1196                                                00050B GR
  0 A$palettes$1197                                                00050F GR
  0 A$palettes$1198                                                000512 GR
  0 A$palettes$1199                                                000514 GR
  0 A$palettes$1200                                                000517 GR
  0 A$palettes$1201                                                00051A GR
  0 A$palettes$1202                                                00051C GR
  0 A$palettes$1203                                                00051F GR
  0 A$palettes$1204                                                000523 GR
  0 A$palettes$1205                                                000527 GR
  0 A$palettes$1206                                                00052B GR
  0 A$palettes$1207                                                00052F GR
  0 A$palettes$1208                                                000533 GR
  0 A$palettes$1209                                                000537 GR
  0 A$palettes$1210                                                00053B GR
  0 A$palettes$1211                                                00053F GR
  0 A$palettes$1212                                                000542 GR
  0 A$palettes$1216                                                000545 GR
  0 A$palettes$1217                                                000548 GR
  0 A$palettes$1218                                                00054B GR
  0 A$palettes$1219                                                00054E GR
  0 A$palettes$122                                                 00002E GR
  0 A$palettes$1220                                                000551 GR
  0 A$palettes$1221                                                000553 GR
  0 A$palettes$1222                                                000556 GR
  0 A$palettes$1223                                                000559 GR
  0 A$palettes$1224                                                00055C GR
  0 A$palettes$1225                                                00055D GR
  0 A$palettes$1226                                                000560 GR
  0 A$palettes$1227                                                000563 GR
  0 A$palettes$1228                                                000567 GR
  0 A$palettes$1229                                                00056A GR
  0 A$palettes$123                                                 000030 GR
ASxxxx Assembler V02.00 + NoICE + SDCC mods  (Zilog Z80 / Hitachi HD64180 / ZX-Next / eZ80)                   Page 4
Hexadecimal [24-Bits]

Symbol Table

  0 A$palettes$1230                                                00056C GR
  0 A$palettes$1231                                                00056F GR
  0 A$palettes$1232                                                000572 GR
  0 A$palettes$1233                                                000574 GR
  0 A$palettes$1234                                                000577 GR
  0 A$palettes$1235                                                00057B GR
  0 A$palettes$1236                                                00057F GR
  0 A$palettes$1237                                                000583 GR
  0 A$palettes$1238                                                000587 GR
  0 A$palettes$124                                                 000032 GR
  0 A$palettes$1242                                                00058A GR
  0 A$palettes$1243                                                00058B GR
  0 A$palettes$1244                                                00058E GR
  0 A$palettes$1248                                                000590 GR
  0 A$palettes$1249                                                000593 GR
  0 A$palettes$125                                                 000033 GR
  0 A$palettes$1254                                                000595 GR
  0 A$palettes$1255                                                000598 GR
  0 A$palettes$1256                                                000599 GR
  0 A$palettes$126                                                 000034 GR
  0 A$palettes$1260                                                00059B GR
  0 A$palettes$1265                                                00059E GR
  0 A$palettes$1266                                                00059F GR
  0 A$palettes$1267                                                0005A2 GR
  0 A$palettes$1271                                                0005A4 GR
  0 A$palettes$1272                                                0005A7 GR
  0 A$palettes$1277                                                0005A9 GR
  0 A$palettes$1278                                                0005AC GR
  0 A$palettes$1279                                                0005AD GR
  0 A$palettes$1283                                                0005AF GR
  0 A$palettes$1288                                                0005B2 GR
  0 A$palettes$1289                                                0005B3 GR
  0 A$palettes$1290                                                0005B6 GR
  0 A$palettes$1294                                                0005B8 GR
  0 A$palettes$1295                                                0005BB GR
  0 A$palettes$1300                                                0005BD GR
  0 A$palettes$1301                                                0005C0 GR
  0 A$palettes$1302                                                0005C1 GR
  0 A$palettes$1306                                                0005C3 GR
  0 A$palettes$1311                                                0005C6 GR
  0 A$palettes$1312                                                0005C9 GR
  0 A$palettes$1313                                                0005CA GR
  0 A$palettes$1314                                                0005CB GR
  0 A$palettes$1315                                                0005CE GR
  0 A$palettes$1316                                                0005CF GR
  0 A$palettes$1317                                                0005D2 GR
  0 A$palettes$1318                                                0005D3 GR
  0 A$palettes$1319                                                0005D4 GR
  0 A$palettes$1320                                                0005D5 GR
  0 A$palettes$1321                                                0005D6 GR
  0 A$palettes$1322                                                0005D7 GR
  0 A$palettes$1323                                                0005DA GR
  0 A$palettes$1324                                                0005DD GR
  0 A$palettes$1328                                                0005DE GR
  0 A$palettes$1329                                                0005E1 GR
ASxxxx Assembler V02.00 + NoICE + SDCC mods  (Zilog Z80 / Hitachi HD64180 / ZX-Next / eZ80)                   Page 5
Hexadecimal [24-Bits]

Symbol Table

  0 A$palettes$1334                                                0005E4 GR
  0 A$palettes$1336                                                0005E6 GR
  0 A$palettes$1337                                                0005E7 GR
  0 A$palettes$1338                                                0005EA GR
  0 A$palettes$1342                                                0005EC GR
  0 A$palettes$1343                                                0005ED GR
  0 A$palettes$1344                                                0005F0 GR
  0 A$palettes$1348                                                0005F1 GR
  0 A$palettes$1349                                                0005F2 GR
  0 A$palettes$1354                                                0005F4 GR
  0 A$palettes$1355                                                0005F7 GR
  0 A$palettes$1356                                                0005F8 GR
  0 A$palettes$136                                                 000035 GR
  0 A$palettes$1360                                                0005FB GR
  0 A$palettes$1361                                                0005FE GR
  0 A$palettes$1366                                                000601 GR
  0 A$palettes$1367                                                000604 GR
  0 A$palettes$1368                                                000605 GR
  0 A$palettes$1369                                                000606 GR
  0 A$palettes$137                                                 000036 GR
  0 A$palettes$1372                                                000609 GR
  0 A$palettes$1375                                                00060C GR
  0 A$palettes$1379                                                00060F GR
  0 A$palettes$1380                                                000611 GR
  0 A$palettes$1381                                                000613 GR
  0 A$palettes$1382                                                000614 GR
  0 A$palettes$1383                                                000615 GR
  0 A$palettes$141                                                 000037 GR
  0 A$palettes$142                                                 00003A GR
  0 A$palettes$143                                                 00003C GR
  0 A$palettes$144                                                 00003D GR
  0 A$palettes$152                                                 00003E GR
  0 A$palettes$165                                                 00003F GR
  0 A$palettes$173                                                 000042 GR
  0 A$palettes$183                                                 000043 GR
  0 A$palettes$184                                                 000045 GR
  0 A$palettes$185                                                 000049 GR
  0 A$palettes$186                                                 00004B GR
  0 A$palettes$187                                                 00004C GR
  0 A$palettes$191                                                 00004D GR
  0 A$palettes$193                                                 00004F GR
  0 A$palettes$194                                                 000050 GR
  0 A$palettes$195                                                 000053 GR
  0 A$palettes$199                                                 000055 GR
  0 A$palettes$200                                                 000057 GR
  0 A$palettes$201                                                 000058 GR
  0 A$palettes$202                                                 00005B GR
  0 A$palettes$203                                                 00005D GR
  0 A$palettes$204                                                 00005F GR
  0 A$palettes$205                                                 000062 GR
  0 A$palettes$206                                                 000063 GR
  0 A$palettes$207                                                 000065 GR
  0 A$palettes$208                                                 000066 GR
  0 A$palettes$209                                                 000067 GR
  0 A$palettes$210                                                 000068 GR
ASxxxx Assembler V02.00 + NoICE + SDCC mods  (Zilog Z80 / Hitachi HD64180 / ZX-Next / eZ80)                   Page 6
Hexadecimal [24-Bits]

Symbol Table

  0 A$palettes$211                                                 000069 GR
  0 A$palettes$215                                                 00006A GR
  0 A$palettes$216                                                 00006B GR
  0 A$palettes$221                                                 00006D GR
  0 A$palettes$222                                                 00006E GR
  0 A$palettes$226                                                 000071 GR
  0 A$palettes$227                                                 000073 GR
  0 A$palettes$228                                                 000075 GR
  0 A$palettes$229                                                 000076 GR
  0 A$palettes$230                                                 000077 GR
  0 A$palettes$240                                                 000078 GR
  0 A$palettes$241                                                 000079 GR
  0 A$palettes$245                                                 00007A GR
  0 A$palettes$246                                                 00007D GR
  0 A$palettes$247                                                 00007F GR
  0 A$palettes$248                                                 000080 GR
  0 A$palettes$256                                                 000081 GR
  0 A$palettes$269                                                 000082 GR
  0 A$palettes$277                                                 000085 GR
  0 A$palettes$287                                                 000086 GR
  0 A$palettes$288                                                 000088 GR
  0 A$palettes$289                                                 00008C GR
  0 A$palettes$290                                                 00008E GR
  0 A$palettes$291                                                 00008F GR
  0 A$palettes$292                                                 000090 GR
  0 A$palettes$293                                                 000091 GR
  0 A$palettes$294                                                 000092 GR
  0 A$palettes$295                                                 000095 GR
  0 A$palettes$296                                                 000098 GR
  0 A$palettes$297                                                 00009B GR
  0 A$palettes$301                                                 00009E GR
  0 A$palettes$303                                                 0000A2 GR
  0 A$palettes$304                                                 0000A5 GR
  0 A$palettes$305                                                 0000A8 GR
  0 A$palettes$309                                                 0000AB GR
  0 A$palettes$310                                                 0000AE GR
  0 A$palettes$311                                                 0000B1 GR
  0 A$palettes$314                                                 0000B2 GR
  0 A$palettes$315                                                 0000B5 GR
  0 A$palettes$316                                                 0000B7 GR
  0 A$palettes$317                                                 0000B8 GR
  0 A$palettes$318                                                 0000B9 GR
  0 A$palettes$319                                                 0000BA GR
  0 A$palettes$320                                                 0000BC GR
  0 A$palettes$324                                                 0000BD GR
  0 A$palettes$325                                                 0000BE GR
  0 A$palettes$326                                                 0000C0 GR
  0 A$palettes$327                                                 0000C2 GR
  0 A$palettes$330                                                 0000C3 GR
  0 A$palettes$331                                                 0000C4 GR
  0 A$palettes$332                                                 0000C6 GR
  0 A$palettes$335                                                 0000C7 GR
  0 A$palettes$336                                                 0000C9 GR
  0 A$palettes$337                                                 0000CB GR
  0 A$palettes$338                                                 0000CD GR
ASxxxx Assembler V02.00 + NoICE + SDCC mods  (Zilog Z80 / Hitachi HD64180 / ZX-Next / eZ80)                   Page 7
Hexadecimal [24-Bits]

Symbol Table

  0 A$palettes$342                                                 0000CF GR
  0 A$palettes$343                                                 0000D1 GR
  0 A$palettes$344                                                 0000D2 GR
  0 A$palettes$345                                                 0000D4 GR
  0 A$palettes$346                                                 0000D5 GR
  0 A$palettes$347                                                 0000D6 GR
  0 A$palettes$348                                                 0000D8 GR
  0 A$palettes$349                                                 0000D9 GR
  0 A$palettes$350                                                 0000DB GR
  0 A$palettes$351                                                 0000DD GR
  0 A$palettes$352                                                 0000DF GR
  0 A$palettes$353                                                 0000E1 GR
  0 A$palettes$354                                                 0000E3 GR
  0 A$palettes$355                                                 0000E5 GR
  0 A$palettes$356                                                 0000E7 GR
  0 A$palettes$360                                                 0000E9 GR
  0 A$palettes$361                                                 0000EA GR
  0 A$palettes$362                                                 0000EB GR
  0 A$palettes$366                                                 0000EE GR
  0 A$palettes$367                                                 0000F0 GR
  0 A$palettes$368                                                 0000F3 GR
  0 A$palettes$369                                                 0000F5 GR
  0 A$palettes$370                                                 0000F8 GR
  0 A$palettes$371                                                 0000FA GR
  0 A$palettes$372                                                 0000FD GR
  0 A$palettes$373                                                 0000FE GR
  0 A$palettes$374                                                 0000FF GR
  0 A$palettes$375                                                 000100 GR
  0 A$palettes$377                                                 000101 GR
  0 A$palettes$378                                                 000104 GR
  0 A$palettes$379                                                 000107 GR
  0 A$palettes$380                                                 00010A GR
  0 A$palettes$381                                                 00010D GR
  0 A$palettes$382                                                 000110 GR
  0 A$palettes$383                                                 000113 GR
  0 A$palettes$384                                                 000116 GR
  0 A$palettes$385                                                 000119 GR
  0 A$palettes$386                                                 00011C GR
  0 A$palettes$394                                                 00011F GR
  0 A$palettes$398                                                 000123 GR
  0 A$palettes$402                                                 000127 GR
  0 A$palettes$406                                                 000129 GR
  0 A$palettes$414                                                 00012B GR
  0 A$palettes$418                                                 00012F GR
  0 A$palettes$422                                                 000133 GR
  0 A$palettes$426                                                 000135 GR
  0 A$palettes$434                                                 000137 GR
  0 A$palettes$438                                                 00013B GR
  0 A$palettes$442                                                 00013F GR
  0 A$palettes$446                                                 000141 GR
  0 A$palettes$454                                                 000143 GR
  0 A$palettes$458                                                 000147 GR
  0 A$palettes$462                                                 00014B GR
  0 A$palettes$466                                                 00014D GR
  0 A$palettes$474                                                 00014F GR
ASxxxx Assembler V02.00 + NoICE + SDCC mods  (Zilog Z80 / Hitachi HD64180 / ZX-Next / eZ80)                   Page 8
Hexadecimal [24-Bits]

Symbol Table

  0 A$palettes$478                                                 000153 GR
  0 A$palettes$482                                                 000157 GR
  0 A$palettes$490                                                 000159 GR
  0 A$palettes$491                                                 00015C GR
  0 A$palettes$492                                                 00015F GR
  0 A$palettes$493                                                 000160 GR
  0 A$palettes$494                                                 000163 GR
  0 A$palettes$495                                                 000165 GR
  0 A$palettes$496                                                 000166 GR
  0 A$palettes$497                                                 000169 GR
  0 A$palettes$498                                                 00016A GR
  0 A$palettes$499                                                 00016B GR
  0 A$palettes$500                                                 00016E GR
  0 A$palettes$501                                                 00016F GR
  0 A$palettes$502                                                 000170 GR
  0 A$palettes$503                                                 000171 GR
  0 A$palettes$504                                                 000172 GR
  0 A$palettes$505                                                 000173 GR
  0 A$palettes$506                                                 000174 GR
  0 A$palettes$507                                                 000175 GR
  0 A$palettes$511                                                 000176 GR
  0 A$palettes$512                                                 000179 GR
  0 A$palettes$517                                                 00017C GR
  0 A$palettes$518                                                 00017E GR
  0 A$palettes$519                                                 000180 GR
  0 A$palettes$520                                                 000181 GR
  0 A$palettes$521                                                 000182 GR
  0 A$palettes$531                                                 000183 GR
  0 A$palettes$532                                                 000185 GR
  0 A$palettes$533                                                 000189 GR
  0 A$palettes$534                                                 00018B GR
  0 A$palettes$535                                                 00018C GR
  0 A$palettes$536                                                 00018D GR
  0 A$palettes$537                                                 00018E GR
  0 A$palettes$538                                                 00018F GR
  0 A$palettes$539                                                 000192 GR
  0 A$palettes$540                                                 000195 GR
  0 A$palettes$541                                                 000198 GR
  0 A$palettes$545                                                 00019B GR
  0 A$palettes$547                                                 00019F GR
  0 A$palettes$548                                                 0001A2 GR
  0 A$palettes$549                                                 0001A5 GR
  0 A$palettes$553                                                 0001A8 GR
  0 A$palettes$554                                                 0001AB GR
  0 A$palettes$555                                                 0001AE GR
  0 A$palettes$558                                                 0001AF GR
  0 A$palettes$559                                                 0001B2 GR
  0 A$palettes$560                                                 0001B4 GR
  0 A$palettes$561                                                 0001B5 GR
  0 A$palettes$562                                                 0001B6 GR
  0 A$palettes$563                                                 0001B7 GR
  0 A$palettes$564                                                 0001B9 GR
  0 A$palettes$568                                                 0001BA GR
  0 A$palettes$569                                                 0001BB GR
  0 A$palettes$570                                                 0001BD GR
ASxxxx Assembler V02.00 + NoICE + SDCC mods  (Zilog Z80 / Hitachi HD64180 / ZX-Next / eZ80)                   Page 9
Hexadecimal [24-Bits]

Symbol Table

  0 A$palettes$571                                                 0001BF GR
  0 A$palettes$574                                                 0001C0 GR
  0 A$palettes$575                                                 0001C1 GR
  0 A$palettes$576                                                 0001C3 GR
  0 A$palettes$579                                                 0001C4 GR
  0 A$palettes$580                                                 0001C6 GR
  0 A$palettes$581                                                 0001C8 GR
  0 A$palettes$582                                                 0001CA GR
  0 A$palettes$586                                                 0001CC GR
  0 A$palettes$587                                                 0001CE GR
  0 A$palettes$588                                                 0001CF GR
  0 A$palettes$589                                                 0001D1 GR
  0 A$palettes$590                                                 0001D2 GR
  0 A$palettes$591                                                 0001D3 GR
  0 A$palettes$592                                                 0001D5 GR
  0 A$palettes$593                                                 0001D6 GR
  0 A$palettes$594                                                 0001D8 GR
  0 A$palettes$595                                                 0001DA GR
  0 A$palettes$596                                                 0001DC GR
  0 A$palettes$597                                                 0001DE GR
  0 A$palettes$598                                                 0001E0 GR
  0 A$palettes$599                                                 0001E2 GR
  0 A$palettes$600                                                 0001E4 GR
  0 A$palettes$604                                                 0001E6 GR
  0 A$palettes$605                                                 0001E7 GR
  0 A$palettes$606                                                 0001E8 GR
  0 A$palettes$610                                                 0001EB GR
  0 A$palettes$611                                                 0001ED GR
  0 A$palettes$612                                                 0001F0 GR
  0 A$palettes$613                                                 0001F2 GR
  0 A$palettes$614                                                 0001F5 GR
  0 A$palettes$615                                                 0001F7 GR
  0 A$palettes$616                                                 0001FA GR
  0 A$palettes$617                                                 0001FB GR
  0 A$palettes$618                                                 0001FC GR
  0 A$palettes$619                                                 0001FD GR
  0 A$palettes$621                                                 0001FE GR
  0 A$palettes$622                                                 000201 GR
  0 A$palettes$623                                                 000204 GR
  0 A$palettes$624                                                 000207 GR
  0 A$palettes$625                                                 00020A GR
  0 A$palettes$626                                                 00020D GR
  0 A$palettes$627                                                 000210 GR
  0 A$palettes$628                                                 000213 GR
  0 A$palettes$629                                                 000216 GR
  0 A$palettes$630                                                 000219 GR
  0 A$palettes$638                                                 00021C GR
  0 A$palettes$642                                                 000220 GR
  0 A$palettes$646                                                 000224 GR
  0 A$palettes$650                                                 000226 GR
  0 A$palettes$658                                                 000228 GR
  0 A$palettes$662                                                 00022C GR
  0 A$palettes$666                                                 000230 GR
  0 A$palettes$670                                                 000232 GR
  0 A$palettes$678                                                 000234 GR
ASxxxx Assembler V02.00 + NoICE + SDCC mods  (Zilog Z80 / Hitachi HD64180 / ZX-Next / eZ80)                    Page 10
Hexadecimal [24-Bits]

Symbol Table

  0 A$palettes$682                                                 000238 GR
  0 A$palettes$686                                                 00023C GR
  0 A$palettes$690                                                 00023E GR
  0 A$palettes$698                                                 000240 GR
  0 A$palettes$702                                                 000244 GR
  0 A$palettes$706                                                 000248 GR
  0 A$palettes$710                                                 00024A GR
  0 A$palettes$718                                                 00024C GR
  0 A$palettes$722                                                 000250 GR
  0 A$palettes$726                                                 000254 GR
  0 A$palettes$730                                                 000256 GR
  0 A$palettes$738                                                 000258 GR
  0 A$palettes$742                                                 00025C GR
  0 A$palettes$746                                                 000260 GR
  0 A$palettes$754                                                 000262 GR
  0 A$palettes$755                                                 000265 GR
  0 A$palettes$756                                                 000268 GR
  0 A$palettes$757                                                 000269 GR
  0 A$palettes$758                                                 00026C GR
  0 A$palettes$759                                                 00026E GR
  0 A$palettes$760                                                 00026F GR
  0 A$palettes$761                                                 000272 GR
  0 A$palettes$762                                                 000273 GR
  0 A$palettes$763                                                 000274 GR
  0 A$palettes$764                                                 000277 GR
  0 A$palettes$765                                                 000278 GR
  0 A$palettes$766                                                 000279 GR
  0 A$palettes$767                                                 00027A GR
  0 A$palettes$768                                                 00027B GR
  0 A$palettes$769                                                 00027C GR
  0 A$palettes$770                                                 00027D GR
  0 A$palettes$771                                                 00027E GR
  0 A$palettes$775                                                 00027F GR
  0 A$palettes$776                                                 000282 GR
  0 A$palettes$781                                                 000285 GR
  0 A$palettes$782                                                 000287 GR
  0 A$palettes$783                                                 000289 GR
  0 A$palettes$784                                                 00028A GR
  0 A$palettes$785                                                 00028B GR
  0 A$palettes$79                                                  000000 GR
  0 A$palettes$795                                                 00028C GR
  0 A$palettes$796                                                 00028E GR
  0 A$palettes$797                                                 000292 GR
  0 A$palettes$798                                                 000294 GR
  0 A$palettes$799                                                 000298 GR
  0 A$palettes$80                                                  000002 GR
  0 A$palettes$800                                                 00029A GR
  0 A$palettes$801                                                 00029C GR
  0 A$palettes$802                                                 00029F GR
  0 A$palettes$806                                                 0002A2 GR
  0 A$palettes$808                                                 0002A6 GR
  0 A$palettes$809                                                 0002A9 GR
  0 A$palettes$81                                                  000006 GR
  0 A$palettes$810                                                 0002AC GR
  0 A$palettes$814                                                 0002AE GR
ASxxxx Assembler V02.00 + NoICE + SDCC mods  (Zilog Z80 / Hitachi HD64180 / ZX-Next / eZ80)                    Page 11
Hexadecimal [24-Bits]

Symbol Table

  0 A$palettes$815                                                 0002B1 GR
  0 A$palettes$816                                                 0002B3 GR
  0 A$palettes$817                                                 0002B6 GR
  0 A$palettes$818                                                 0002B7 GR
  0 A$palettes$819                                                 0002B8 GR
  0 A$palettes$82                                                  000008 GR
  0 A$palettes$820                                                 0002BB GR
  0 A$palettes$821                                                 0002BE GR
  0 A$palettes$822                                                 0002C0 GR
  0 A$palettes$823                                                 0002C3 GR
  0 A$palettes$824                                                 0002C6 GR
  0 A$palettes$825                                                 0002C8 GR
  0 A$palettes$826                                                 0002CA GR
  0 A$palettes$827                                                 0002CD GR
  0 A$palettes$828                                                 0002D0 GR
  0 A$palettes$829                                                 0002D3 GR
  0 A$palettes$83                                                  000009 GR
  0 A$palettes$830                                                 0002D4 GR
  0 A$palettes$831                                                 0002D7 GR
  0 A$palettes$832                                                 0002DA GR
  0 A$palettes$836                                                 0002DB GR
  0 A$palettes$837                                                 0002DE GR
  0 A$palettes$842                                                 0002E0 GR
  0 A$palettes$843                                                 0002E3 GR
  0 A$palettes$847                                                 0002E6 GR
  0 A$palettes$849                                                 0002EA GR
  0 A$palettes$850                                                 0002ED GR
  0 A$palettes$851                                                 0002EF GR
  0 A$palettes$855                                                 0002F2 GR
  0 A$palettes$857                                                 0002F6 GR
  0 A$palettes$858                                                 0002F9 GR
  0 A$palettes$859                                                 0002FC GR
  0 A$palettes$863                                                 0002FF GR
  0 A$palettes$864                                                 000302 GR
  0 A$palettes$865                                                 000304 GR
  0 A$palettes$866                                                 000307 GR
  0 A$palettes$867                                                 000308 GR
  0 A$palettes$868                                                 000309 GR
  0 A$palettes$869                                                 00030C GR
  0 A$palettes$87                                                  00000A GR
  0 A$palettes$870                                                 00030F GR
  0 A$palettes$871                                                 000310 GR
  0 A$palettes$872                                                 000313 GR
  0 A$palettes$873                                                 000315 GR
  0 A$palettes$877                                                 000318 GR
  0 A$palettes$878                                                 00031B GR
  0 A$palettes$879                                                 00031D GR
  0 A$palettes$880                                                 00031F GR
  0 A$palettes$881                                                 000320 GR
  0 A$palettes$882                                                 000321 GR
  0 A$palettes$883                                                 000323 GR
  0 A$palettes$884                                                 000324 GR
  0 A$palettes$885                                                 000327 GR
  0 A$palettes$886                                                 00032A GR
  0 A$palettes$887                                                 00032E GR
ASxxxx Assembler V02.00 + NoICE + SDCC mods  (Zilog Z80 / Hitachi HD64180 / ZX-Next / eZ80)                    Page 12
Hexadecimal [24-Bits]

Symbol Table

  0 A$palettes$888                                                 000332 GR
  0 A$palettes$889                                                 000336 GR
  0 A$palettes$89                                                  00000C GR
  0 A$palettes$890                                                 00033A GR
  0 A$palettes$891                                                 00033D GR
  0 A$palettes$895                                                 000340 GR
  0 A$palettes$896                                                 000343 GR
  0 A$palettes$897                                                 000346 GR
  0 A$palettes$898                                                 00034A GR
  0 A$palettes$899                                                 00034D GR
  0 A$palettes$90                                                  00000D GR
  0 A$palettes$900                                                 00034F GR
  0 A$palettes$901                                                 000352 GR
  0 A$palettes$902                                                 000355 GR
  0 A$palettes$903                                                 000357 GR
  0 A$palettes$904                                                 00035A GR
  0 A$palettes$905                                                 00035E GR
  0 A$palettes$906                                                 000362 GR
  0 A$palettes$907                                                 000366 GR
  0 A$palettes$908                                                 00036A GR
  0 A$palettes$909                                                 00036E GR
  0 A$palettes$91                                                  000010 GR
  0 A$palettes$910                                                 000372 GR
  0 A$palettes$911                                                 000376 GR
  0 A$palettes$912                                                 00037A GR
  0 A$palettes$913                                                 00037D GR
  0 A$palettes$917                                                 000380 GR
  0 A$palettes$918                                                 000383 GR
  0 A$palettes$919                                                 000386 GR
  0 A$palettes$920                                                 000389 GR
  0 A$palettes$921                                                 00038C GR
  0 A$palettes$922                                                 00038E GR
  0 A$palettes$923                                                 000391 GR
  0 A$palettes$924                                                 000394 GR
  0 A$palettes$925                                                 000397 GR
  0 A$palettes$926                                                 000398 GR
  0 A$palettes$927                                                 00039B GR
  0 A$palettes$928                                                 00039E GR
  0 A$palettes$929                                                 0003A2 GR
  0 A$palettes$930                                                 0003A5 GR
  0 A$palettes$931                                                 0003A7 GR
  0 A$palettes$932                                                 0003AA GR
  0 A$palettes$933                                                 0003AD GR
  0 A$palettes$934                                                 0003AF GR
  0 A$palettes$935                                                 0003B2 GR
  0 A$palettes$936                                                 0003B6 GR
  0 A$palettes$937                                                 0003BA GR
  0 A$palettes$938                                                 0003BE GR
  0 A$palettes$939                                                 0003C2 GR
  0 A$palettes$943                                                 0003C5 GR
  0 A$palettes$944                                                 0003C6 GR
  0 A$palettes$945                                                 0003C9 GR
  0 A$palettes$949                                                 0003CB GR
  0 A$palettes$95                                                  000012 GR
  0 A$palettes$950                                                 0003CE GR
ASxxxx Assembler V02.00 + NoICE + SDCC mods  (Zilog Z80 / Hitachi HD64180 / ZX-Next / eZ80)                    Page 13
Hexadecimal [24-Bits]

Symbol Table

  0 A$palettes$955                                                 0003D0 GR
  0 A$palettes$956                                                 0003D3 GR
  0 A$palettes$957                                                 0003D4 GR
  0 A$palettes$96                                                  000014 GR
  0 A$palettes$961                                                 0003D6 GR
  0 A$palettes$966                                                 0003D9 GR
  0 A$palettes$967                                                 0003DA GR
  0 A$palettes$968                                                 0003DD GR
  0 A$palettes$97                                                  000015 GR
  0 A$palettes$972                                                 0003DF GR
  0 A$palettes$973                                                 0003E2 GR
  0 A$palettes$978                                                 0003E4 GR
  0 A$palettes$979                                                 0003E7 GR
  0 A$palettes$98                                                  000018 GR
  0 A$palettes$980                                                 0003E8 GR
  0 A$palettes$984                                                 0003EA GR
  0 A$palettes$989                                                 0003ED GR
  0 A$palettes$99                                                  00001A GR
  0 A$palettes$990                                                 0003EE GR
  0 A$palettes$991                                                 0003F1 GR
  0 A$palettes$995                                                 0003F3 GR
  0 A$palettes$996                                                 0003F6 GR
  0 C$palettes.c$10$2_0$108                                     =  000027 GR
  0 C$palettes.c$10$3_0$109                                     =  00000A GR
  0 C$palettes.c$101$4_0$126                                    =  00012B GR
  0 C$palettes.c$102$4_0$126                                    =  00012B GR
  0 C$palettes.c$103$4_0$126                                    =  00012F GR
  0 C$palettes.c$104$4_0$126                                    =  000133 GR
  0 C$palettes.c$105$4_0$126                                    =  000135 GR
  0 C$palettes.c$108$4_0$126                                    =  000137 GR
  0 C$palettes.c$109$4_0$126                                    =  000137 GR
  0 C$palettes.c$11$3_0$109                                     =  000012 GR
  0 C$palettes.c$110$4_0$126                                    =  00013B GR
  0 C$palettes.c$111$4_0$126                                    =  00013F GR
  0 C$palettes.c$112$4_0$126                                    =  000141 GR
  0 C$palettes.c$115$4_0$126                                    =  000143 GR
  0 C$palettes.c$116$4_0$126                                    =  000143 GR
  0 C$palettes.c$117$4_0$126                                    =  000147 GR
  0 C$palettes.c$118$4_0$126                                    =  00014B GR
  0 C$palettes.c$119$4_0$126                                    =  00014D GR
  0 C$palettes.c$120$4_0$126                                    =  00014F GR
  0 C$palettes.c$121$4_0$126                                    =  00014F GR
  0 C$palettes.c$122$4_0$126                                    =  000153 GR
  0 C$palettes.c$123$4_0$126                                    =  000157 GR
  0 C$palettes.c$125$3_0$125                                    =  000159 GR
  0 C$palettes.c$126$3_0$125                                    =  000159 GR
  0 C$palettes.c$128$2_0$124                                    =  00017C GR
  0 C$palettes.c$13$1_0$107                                     =  00002A GR
  0 C$palettes.c$130$2_0$129                                    =  000183 GR
  0 C$palettes.c$132$2_0$129                                    =  00027F GR
  0 C$palettes.c$133$3_0$130                                    =  0001A8 GR
  0 C$palettes.c$134$3_0$130                                    =  0001BA GR
  0 C$palettes.c$135$2_0$129                                    =  0001CC GR
  0 C$palettes.c$136$3_0$130                                    =  0001E6 GR
  0 C$palettes.c$137$3_0$130                                    =  0001EB GR
ASxxxx Assembler V02.00 + NoICE + SDCC mods  (Zilog Z80 / Hitachi HD64180 / ZX-Next / eZ80)                    Page 14
Hexadecimal [24-Bits]

Symbol Table

  0 C$palettes.c$139$4_0$131                                    =  00021C GR
  0 C$palettes.c$14$1_0$107                                     =  00002E GR
  0 C$palettes.c$140$4_0$131                                    =  00021C GR
  0 C$palettes.c$141$4_0$131                                    =  000220 GR
  0 C$palettes.c$142$4_0$131                                    =  000224 GR
  0 C$palettes.c$143$4_0$131                                    =  000226 GR
  0 C$palettes.c$145$4_0$131                                    =  000228 GR
  0 C$palettes.c$146$4_0$131                                    =  000228 GR
  0 C$palettes.c$147$4_0$131                                    =  00022C GR
  0 C$palettes.c$148$4_0$131                                    =  000230 GR
  0 C$palettes.c$149$4_0$131                                    =  000232 GR
  0 C$palettes.c$151$4_0$131                                    =  000234 GR
  0 C$palettes.c$152$4_0$131                                    =  000234 GR
  0 C$palettes.c$153$4_0$131                                    =  000238 GR
  0 C$palettes.c$154$4_0$131                                    =  00023C GR
  0 C$palettes.c$155$4_0$131                                    =  00023E GR
  0 C$palettes.c$158$4_0$131                                    =  000240 GR
  0 C$palettes.c$159$4_0$131                                    =  000240 GR
  0 C$palettes.c$16$1_0$111                                     =  000035 GR
  0 C$palettes.c$160$4_0$131                                    =  000244 GR
  0 C$palettes.c$161$4_0$131                                    =  000248 GR
  0 C$palettes.c$162$4_0$131                                    =  00024A GR
  0 C$palettes.c$168$4_0$131                                    =  00024C GR
  0 C$palettes.c$169$4_0$131                                    =  00024C GR
  0 C$palettes.c$17$1_0$111                                     =  000037 GR
  0 C$palettes.c$170$4_0$131                                    =  000250 GR
  0 C$palettes.c$171$4_0$131                                    =  000254 GR
  0 C$palettes.c$172$4_0$131                                    =  000256 GR
  0 C$palettes.c$173$4_0$131                                    =  000258 GR
  0 C$palettes.c$174$4_0$131                                    =  000258 GR
  0 C$palettes.c$175$4_0$131                                    =  00025C GR
  0 C$palettes.c$176$4_0$131                                    =  000260 GR
  0 C$palettes.c$178$3_0$130                                    =  000262 GR
  0 C$palettes.c$179$3_0$130                                    =  000262 GR
  0 C$palettes.c$18$1_0$111                                     =  00003E GR
  0 C$palettes.c$181$2_0$129                                    =  000285 GR
  0 C$palettes.c$20$1_0$113                                     =  00003F GR
  0 C$palettes.c$21$1_0$113                                     =  00003F GR
  0 C$palettes.c$22$1_0$113                                     =  000042 GR
  0 C$palettes.c$24$1_0$115                                     =  000043 GR
  0 C$palettes.c$26$2_0$116                                     =  00006A GR
  0 C$palettes.c$26$3_0$117                                     =  00004D GR
  0 C$palettes.c$27$3_0$117                                     =  000055 GR
  0 C$palettes.c$29$1_0$115                                     =  00006D GR
  0 C$palettes.c$30$1_0$115                                     =  000071 GR
  0 C$palettes.c$32$1_0$119                                     =  000078 GR
  0 C$palettes.c$33$1_0$119                                     =  00007A GR
  0 C$palettes.c$34$1_0$119                                     =  000081 GR
  0 C$palettes.c$355$2_0$133                                    =  00028C GR
  0 C$palettes.c$36$1_0$121                                     =  000082 GR
  0 C$palettes.c$360$2_0$134                                    =  0002DB GR
  0 C$palettes.c$360$3_0$135                                    =  0002A2 GR
  0 C$palettes.c$361$3_0$135                                    =  0002AE GR
  0 C$palettes.c$363$1_0$133                                    =  0002E0 GR
  0 C$palettes.c$365$3_0$137                                    =  0002E6 GR
ASxxxx Assembler V02.00 + NoICE + SDCC mods  (Zilog Z80 / Hitachi HD64180 / ZX-Next / eZ80)                    Page 15
Hexadecimal [24-Bits]

Symbol Table

  0 C$palettes.c$367$1_0$133                                    =  0002F2 GR
  0 C$palettes.c$368$1_0$133                                    =  0002FF GR
  0 C$palettes.c$369$3_0$137                                    =  000318 GR
  0 C$palettes.c$37$1_0$121                                     =  000082 GR
  0 C$palettes.c$370$1_0$133                                    =  000340 GR
  0 C$palettes.c$371$3_0$137                                    =  000380 GR
  0 C$palettes.c$372$3_0$137                                    =  0003C5 GR
  0 C$palettes.c$373$4_0$138                                    =  0003CB GR
  0 C$palettes.c$374$3_0$137                                    =  0003D0 GR
  0 C$palettes.c$375$4_0$139                                    =  0003D6 GR
  0 C$palettes.c$377$3_0$137                                    =  0003D9 GR
  0 C$palettes.c$378$4_0$140                                    =  0003DF GR
  0 C$palettes.c$379$3_0$137                                    =  0003E4 GR
  0 C$palettes.c$38$1_0$121                                     =  000085 GR
  0 C$palettes.c$380$4_0$141                                    =  0003EA GR
  0 C$palettes.c$382$3_0$137                                    =  0003ED GR
  0 C$palettes.c$383$4_0$142                                    =  0003F3 GR
  0 C$palettes.c$384$3_0$137                                    =  0003F8 GR
  0 C$palettes.c$385$4_0$143                                    =  0003FE GR
  0 C$palettes.c$387$3_0$137                                    =  000401 GR
  0 C$palettes.c$388$3_0$137                                    =  000419 GR
  0 C$palettes.c$391$1_0$133                                    =  00041F GR
  0 C$palettes.c$392$3_0$144                                    =  000427 GR
  0 C$palettes.c$393$3_0$144                                    =  00042C GR
  0 C$palettes.c$395$2_0$136                                    =  00042F GR
  0 C$palettes.c$396$2_0$136                                    =  000436 GR
  0 C$palettes.c$398$1_0$133                                    =  00043C GR
  0 C$palettes.c$399$1_0$133                                    =  00044A GR
  0 C$palettes.c$401$1_0$146                                    =  000451 GR
  0 C$palettes.c$406$2_0$147                                    =  0004A0 GR
  0 C$palettes.c$406$3_0$148                                    =  000467 GR
  0 C$palettes.c$407$3_0$148                                    =  000473 GR
  0 C$palettes.c$409$1_0$146                                    =  0004A5 GR
  0 C$palettes.c$411$3_0$150                                    =  0004AB GR
  0 C$palettes.c$413$1_0$146                                    =  0004B7 GR
  0 C$palettes.c$414$1_0$146                                    =  0004C4 GR
  0 C$palettes.c$415$3_0$150                                    =  0004DD GR
  0 C$palettes.c$416$1_0$146                                    =  000505 GR
  0 C$palettes.c$417$3_0$150                                    =  000545 GR
  0 C$palettes.c$418$3_0$150                                    =  00058A GR
  0 C$palettes.c$419$4_0$151                                    =  000590 GR
  0 C$palettes.c$420$3_0$150                                    =  000595 GR
  0 C$palettes.c$421$4_0$152                                    =  00059B GR
  0 C$palettes.c$423$3_0$150                                    =  00059E GR
  0 C$palettes.c$424$4_0$153                                    =  0005A4 GR
  0 C$palettes.c$425$3_0$150                                    =  0005A9 GR
  0 C$palettes.c$426$4_0$154                                    =  0005AF GR
  0 C$palettes.c$428$3_0$150                                    =  0005B2 GR
  0 C$palettes.c$429$4_0$155                                    =  0005B8 GR
  0 C$palettes.c$430$3_0$150                                    =  0005BD GR
  0 C$palettes.c$431$4_0$156                                    =  0005C3 GR
  0 C$palettes.c$433$3_0$150                                    =  0005C6 GR
  0 C$palettes.c$434$3_0$150                                    =  0005DE GR
  0 C$palettes.c$437$1_0$146                                    =  0005E4 GR
  0 C$palettes.c$438$3_0$157                                    =  0005EC GR
ASxxxx Assembler V02.00 + NoICE + SDCC mods  (Zilog Z80 / Hitachi HD64180 / ZX-Next / eZ80)                    Page 16
Hexadecimal [24-Bits]

Symbol Table

  0 C$palettes.c$439$3_0$157                                    =  0005F1 GR
  0 C$palettes.c$442$2_0$149                                    =  0005F4 GR
  0 C$palettes.c$443$2_0$149                                    =  0005FB GR
  0 C$palettes.c$445$1_0$146                                    =  000601 GR
  0 C$palettes.c$446$1_0$146                                    =  00060F GR
  0 C$palettes.c$8$0_0$107                                      =  000000 GR
  0 C$palettes.c$85$1_0$124                                     =  000086 GR
  0 C$palettes.c$87$2_0$124                                     =  000176 GR
  0 C$palettes.c$88$3_0$125                                     =  0000AB GR
  0 C$palettes.c$89$3_0$125                                     =  0000BD GR
  0 C$palettes.c$90$2_0$124                                     =  0000CF GR
  0 C$palettes.c$91$3_0$125                                     =  0000E9 GR
  0 C$palettes.c$92$3_0$125                                     =  0000EE GR
  0 C$palettes.c$94$4_0$126                                     =  00011F GR
  0 C$palettes.c$95$4_0$126                                     =  00011F GR
  0 C$palettes.c$96$4_0$126                                     =  000123 GR
  0 C$palettes.c$97$4_0$126                                     =  000127 GR
  0 C$palettes.c$98$4_0$126                                     =  000129 GR
    G$ROM_bank_to_be_mapped_on_slot0$0_0$0                      =  00FFFD G
    G$ROM_bank_to_be_mapped_on_slot1$0_0$0                      =  00FFFE G
    G$ROM_bank_to_be_mapped_on_slot2$0_0$0                      =  00FFFF G
    G$SMS_SRAM$0_0$0                                            =  008000 G
    G$SRAM_bank_to_be_mapped_on_slot2$0_0$0                     =  00FFFC G
  0 G$createBluePaletteVersion$0$0                              =  000183 GR
  0 G$createSepiaPaletteVersion$0$0                             =  000086 GR
  0 G$fadeToTargetBGPalette$0$0                                 =  00028C GR
  0 G$fadeToTargetSpritePalette$0$0                             =  000451 GR
  0 G$getBGPalette$0$0                                          =  00003F GR
  0 G$getSpritePalette$0$0                                      =  000082 GR
  0 G$setBGPalette$0$0                                          =  000000 GR
  0 G$setBGPaletteColor$0$0                                     =  000035 GR
  0 G$setSpritePalette$0$0                                      =  000043 GR
  0 G$setSpritePaletteColor$0$0                                 =  000078 GR
  0 XG$getBGPalette$0$0                                         =  000042 GR
  0 XG$getSpritePalette$0$0                                     =  000085 GR
  0 XG$setBGPaletteColor$0$0                                    =  00003E GR
  0 XG$setSpritePaletteColor$0$0                                =  000081 GR
    _ROM_bank_to_be_mapped_on_slot0                             =  00FFFD G
    _ROM_bank_to_be_mapped_on_slot1                             =  00FFFE G
    _ROM_bank_to_be_mapped_on_slot2                             =  00FFFF G
    _SMS_SRAM                                                   =  008000 G
    _SMS_loadBGPalette                                             ****** GX
    _SMS_loadSpritePalette                                         ****** GX
    _SRAM_bank_to_be_mapped_on_slot2                            =  00FFFC G
    _background_palette                                            ****** GX
  0 _createBluePaletteVersion                                      000183 GR
  0 _createSepiaPaletteVersion                                     000086 GR
  0 _fadeToTargetBGPalette                                         00028C GR
  0 _fadeToTargetSpritePalette                                     000451 GR
  0 _getBGPalette                                                  00003F GR
  0 _getSpritePalette                                              000082 GR
  0 _setBGPalette                                                  000000 GR
  0 _setBGPaletteColor                                             000035 GR
  0 _setSpritePalette                                              000043 GR
  0 _setSpritePaletteColor                                         000078 GR
ASxxxx Assembler V02.00 + NoICE + SDCC mods  (Zilog Z80 / Hitachi HD64180 / ZX-Next / eZ80)                    Page 17
Hexadecimal [24-Bits]

Symbol Table

    _sprite_palette                                                ****** GX
    _waitForFrame                                                  ****** GX

ASxxxx Assembler V02.00 + NoICE + SDCC mods  (Zilog Z80 / Hitachi HD64180 / ZX-Next / eZ80)                    Page 18
Hexadecimal [24-Bits]

Area Table

   0 _CODE                                      size    616   flags    0
   1 _DATA                                      size      0   flags    0
   2 _INITIALIZED                               size      0   flags    0
   3 _DABS                                      size      0   flags    8
   4 _HOME                                      size      0   flags    0
   5 _GSINIT                                    size      0   flags    0
   6 _GSFINAL                                   size      0   flags    0
   7 _INITIALIZER                               size      0   flags    0
   8 _CABS                                      size      0   flags    8

