const unsigned char getready_bin[10730]={
0xf0,0x1b,0x3d,0x03,0xd0,0x3d,0x03,0xd0,0x3d,0x03,0xd0,0x3d,0x03,0xd0,0x3d,0x03,
0xd0,0x3d,0x03,0xd0,0x3d,0x03,0xd0,0x3d,0x03,0xd0,0x3d,0x03,0xd0,0x3d,0x03,0xd0,
0x3d,0x03,0xd0,0x3d,0x03,0xd0,0x3d,0x03,0xd0,0x3d,0x03,0xd0,0x3d,0x03,0xd0,0x3d,
0x03,0xd0,0x3d,0x03,0xd0,0x3e,0x03,0xe0,0x3e,0x03,0xe0,0x3e,0x03,0xe0,0x3e,0x03,
0xe0,0x3e,0x03,0xd0,0x3d,0x03,0xd0,0x3d,0x03,0xd0,0x3d,0x03,0xd0,0x3d,0x03,0xd0,
0x3d,0x03,0xd0,0x3d,0x03,0xd0,0x3d,0x03,0xd0,0x3d,0x03,0xd0,0x3d,0x03,0xd0,0x3d,
0x03,0xd0,0x3d,0x03,0xd0,0x3d,0x03,0xd0,0x3d,0x03,0xd0,0x3d,0x03,0xd0,0x3d,0x03,
0xd0,0x3d,0x03,0xd0,0x3d,0x03,0xe0,0x3e,0x03,0xe0,0x3e,0x03,0xe0,0x3e,0x03,0xe0,
0x3e,0x03,0xe0,0x3e,0x03,0xe0,0x3e,0x03,0xe0,0x3e,0x03,0xe0,0x3e,0x03,0xe0,0x3e,
0x03,0xe0,0x3d,0x03,0xd0,0x3d,0x03,0xd0,0x3d,0x03,0xd0,0x3d,0x03,0xd0,0x3d,0x03,
0xd0,0x3d,0x03,0xd0,0x3d,0x03,0xd0,0x3d,0x03,0xd0,0x3d,0x03,0xd0,0x3d,0x03,0xd0,
0x3c,0x03,0xc0,0x3c,0x03,0xc0,0x3d,0x03,0xd0,0x3d,0x03,0xd0,0x3d,0x03,0xd0,0x3d,
0x03,0xd0,0x3e,0x03,0xe0,0x3e,0x03,0xe0,0x3e,0x03,0xe0,0x3e,0x03,0xe0,0x3e,0x03,
0xe0,0x3e,0x03,0xe0,0x3e,0x03,0xe0,0x3e,0x03,0xe0,0x3e,0x03,0xe0,0x3e,0x03,0xe0,
0x3e,0x03,0xd0,0x3d,0x03,0xd0,0x3d,0x03,0xd0,0x3d,0x03,0xd0,0x3d,0x03,0xd0,0x3d,
0x03,0xd0,0x3d,0x03,0xd0,0x3d,0x03,0xd0,0x3d,0x03,0xd0,0x3d,0x03,0xd0,0x3d,0x03,
0xd0,0x3d,0x03,0xd0,0x3d,0x03,0xd0,0x3d,0x03,0xd0,0x3d,0x03,0xd0,0x3d,0x03,0xd0,
0x3d,0x03,0xd0,0x3d,0x03,0xd0,0x3d,0x03,0xe0,0x3e,0x03,0xe0,0x3e,0x03,0xe0,0x3e,
0x03,0xe0,0x3e,0x03,0xe0,0x3e,0x03,0xe0,0x3e,0x03,0xe0,0x3e,0x03,0xe0,0x3e,0x03,
0xe0,0x3e,0x03,0xe0,0x3e,0x03,0xe0,0x3d,0x03,0xd0,0x3d,0x03,0xd0,0x3d,0x03,0xd0,
0x3d,0x03,0xd0,0x3d,0x03,0xd0,0x3d,0x03,0xd0,0x3d,0x03,0xd0,0x3d,0x03,0xd0,0x3d,
0x03,0xd0,0x3d,0x03,0xd0,0x3d,0x03,0xd0,0x3d,0x03,0xd0,0x3d,0x03,0xd0,0x3d,0x03,
0xd0,0x3d,0x03,0xd0,0x3d,0x03,0xd0,0x3d,0x03,0xd0,0x3d,0x03,0xd0,0x3d,0x03,0xd0,
0x3d,0x03,0xe0,0x3e,0x03,0xe0,0x3e,0x03,0xe0,0x3e,0x03,0xe0,0x3e,0x03,0xe0,0x3e,
0x03,0xe0,0x3e,0x03,0xe0,0x3e,0x03,0xe0,0x3e,0x03,0xe0,0x3e,0x03,0xe0,0x3e,0x03,
0xe0,0x3e,0x03,0xd0,0x3d,0x03,0xd0,0x3d,0x03,0xd0,0x3d,0x03,0xd0,0x3d,0x03,0xd0,
0x3d,0x03,0xd0,0x3d,0x03,0xd0,0x3d,0x03,0xd0,0x3d,0x03,0xd0,0x3d,0x03,0xd0,0x3d,
0x03,0xd0,0x3d,0x03,0xd0,0x3d,0x03,0xd0,0x3d,0x03,0xd0,0x3d,0x03,0xd0,0x3d,0x03,
0xd0,0x3d,0x03,0xd0,0x3d,0x03,0xd0,0x3d,0x03,0xd0,0x3d,0x03,0xd0,0x3e,0x03,0xe0,
0x3e,0x03,0xe0,0x3e,0x03,0xe0,0x3e,0x03,0xe0,0x3e,0x03,0xe0,0x3e,0x03,0xe0,0x3e,
0x03,0xe0,0x3e,0x03,0xe0,0x3e,0x03,0xe0,0x3e,0x03,0xe0,0x3e,0x03,0xd0,0x3d,0x03,
0xd0,0x3d,0x03,0xd0,0x3d,0x03,0xd0,0x3d,0x03,0xd0,0x3d,0x03,0xd0,0x3d,0x03,0xd0,
0x3d,0x03,0xd0,0x3d,0x03,0xd0,0x3d,0x03,0xd0,0x3d,0x03,0xd0,0x3d,0x03,0xd0,0x3d,
0x03,0xd0,0x3d,0x03,0xd0,0x3d,0x03,0xd0,0x3d,0x03,0xd0,0x3d,0x03,0xd0,0x3d,0x03,
0xd0,0x3d,0x03,0xd0,0x3d,0x03,0xd0,0x3d,0x03,0xd0,0x3e,0x03,0xe0,0x3e,0x03,0xe0,
0x3e,0x03,0xe0,0x3e,0x03,0xe0,0x3e,0x03,0xe0,0x3e,0x03,0xe0,0x3e,0x03,0xe0,0x3e,
0x03,0xe0,0x3e,0x03,0xe0,0x3e,0x03,0xe0,0x3e,0x03,0xd0,0x3d,0x03,0xd0,0x3d,0x03,
0xd0,0x3d,0x03,0xd0,0x3d,0x03,0xd0,0x3d,0x03,0xd0,0x3d,0x03,0xd0,0x3d,0x03,0xd0,
0x3d,0x03,0xd0,0x3d,0x03,0xd0,0x3d,0x03,0xd0,0x3d,0x03,0xd0,0x3d,0x03,0xd0,0x3d,
0x03,0xd0,0x3d,0x03,0xd0,0x3d,0x03,0xd0,0x3d,0x03,0xd0,0x3d,0x03,0xd0,0x3d,0x03,
0xd0,0x3d,0x03,0xd0,0x3d,0x03,0xd0,0x3e,0x03,0xe0,0x3e,0x03,0xe0,0x3e,0x03,0xe0,
0x3e,0x03,0xe0,0x3e,0x03,0xe0,0x3e,0x03,0xe0,0x3e,0x03,0xe0,0x3e,0x03,0xe0,0x3d,
0x03,0xd0,0x3d,0x03,0xd0,0x3e,0x03,0xe0,0x3e,0x03,0xe0,0x3d,0x03,0xd0,0x3d,0x03,
0xd0,0x3d,0x03,0xd0,0x3d,0x03,0xd0,0x3d,0x03,0xd0,0x3c,0x03,0xd0,0x3d,0x03,0xc0,
0x3c,0x03,0xc0,0x3c,0x03,0xc0,0x3d,0x03,0xd0,0x3d,0x03,0xd0,0x3d,0x03,0xd0,0x3d,
0x03,0xd0,0x3d,0x03,0xd0,0x3d,0x03,0xd0,0x3d,0x03,0xd0,0x3e,0x03,0xd0,0x3d,0x03,
0xc0,0x3d,0x03,0xd0,0x3d,0x03,0xd0,0x3e,0x03,0xe0,0x3e,0x03,0xe0,0x3e,0x03,0xe0,
0x3e,0x03,0xe0,0x3e,0x03,0xe0,0x3e,0x03,0xe0,0x3e,0x03,0xd0,0x3d,0x03,0xe0,0x3e,
0x03,0xd0,0x3c,0x03,0xd0,0x3d,0x03,0xd0,0x3e,0x03,0xd0,0x3d,0x03,0xd0,0x3d,0x03,
0xd0,0x3d,0x03,0xd0,0x3d,0x03,0xd0,0x3d,0x03,0xd0,0x3d,0x03,0xd0,0x3d,0x03,0xd0,
0x3d,0x03,0xd0,0x3e,0x03,0xe0,0x3e,0x03,0xd0,0x3d,0x03,0xd0,0x3d,0x03,0xc0,0x3c,
0x03,0xc0,0x3b,0x03,0xb0,0x3b,0x03,0xb0,0x3c,0x03,0xc0,0x3d,0x03,0xd0,0x3e,0x03,
0xe0,0x49,0x04,0x90,0x49,0x04,0x90,0x49,0x04,0x90,0x49,0x04,0x90,0x3e,0x03,0xd0,
0x3d,0x03,0xd0,0x3c,0x03,0xc0,0x3d,0x03,0xd0,0x3d,0x03,0xe0,0x3e,0x03,0xe0,0x3e,
0x03,0xe0,0x3e,0x03,0xe0,0x3e,0x03,0xe0,0x3e,0x03,0xd0,0x3d,0x03,0xd0,0x3c,0x03,
0xc0,0x3c,0x03,0xc0,0x3c,0x03,0xd0,0x3e,0x03,0xd0,0x3d,0x03,0xd0,0x3d,0x03,0xc0,
0x3b,0x03,0xc0,0x3b,0x03,0xa0,0x3b,0x03,0xb0,0x3b,0x03,0xb0,0x3b,0x03,0xc0,0x3d,
0x03,0xe0,0x49,0x04,0x90,0x49,0x04,0xa0,0x4a,0x04,0xa0,0x49,0x04,0x90,0x49,0x03,
0xe0,0x3d,0x03,0xd0,0x3c,0x03,0xc0,0x3c,0x03,0xd0,0x3d,0x03,0xe0,0x3e,0x04,0x90,
0x49,0x04,0x90,0x49,0x04,0x90,0x49,0x04,0x90,0x3e,0x03,0xd0,0x3d,0x03,0xc0,0x3c,
0x03,0xb0,0x3b,0x03,0xc0,0x3c,0x03,0xc0,0x3c,0x03,0xc0,0x3c,0x03,0xc0,0x3c,0x03,
0xc0,0x3b,0x03,0xb0,0x3b,0x03,0xa0,0x3a,0x03,0xb0,0x3b,0x03,0xb0,0x3c,0x03,0xd0,
0x3e,0x04,0x90,0x49,0x04,0xa0,0x4a,0x04,0xa0,0x4a,0x04,0x90,0x49,0x04,0x90,0x3e,
0x03,0xd0,0x3d,0x03,0xd0,0x3d,0x03,0xd0,0x3d,0x03,0xe0,0x3e,0x04,0x90,0x49,0x05,
0x70,0x57,0x05,0x70,0x57,0x05,0x70,0x49,0x03,0xe0,0x3e,0x03,0xd0,0x3c,0x03,0xc0,
0x3c,0x03,0xb0,0x3b,0x03,0xc0,0x3c,0x03,0xc0,0x3c,0x03,0xc0,0x3b,0x03,0xb0,0x3b,
0x03,0xb0,0x3b,0x03,0xa0,0x3b,0x03,0xb0,0x3b,0x03,0xb0,0x3c,0x03,0xd0,0x3e,0x04,
0x90,0x49,0x04,0x90,0x49,0x04,0x90,0x49,0x04,0x90,0x49,0x03,0xe0,0x3e,0x03,0xe0,
0x3d,0x03,0xd0,0x3e,0x03,0xe0,0x3e,0x04,0x90,0x49,0x05,0x70,0x57,0x05,0x70,0x57,
0x05,0x70,0x49,0x04,0x90,0x3e,0x03,0xd0,0x3d,0x03,0xc0,0x3c,0x03,0xc0,0x3c,0x03,
0xc0,0x3c,0x03,0xc0,0x3d,0x03,0xc0,0x3c,0x03,0xc0,0x3b,0x03,0xb0,0x3a,0x03,0xa0,
0x3a,0x03,0xa0,0x3a,0x03,0xb0,0x3b,0x03,0xc0,0x3d,0x03,0xe0,0x49,0x04,0x90,0x49,
0x04,0x90,0x49,0x04,0x90,0x49,0x03,0xe0,0x3e,0x03,0xe0,0x3d,0x03,0xd0,0x3d,0x03,
0xd0,0x3e,0x03,0xe0,0x49,0x04,0x90,0x57,0x05,0x70,0x57,0x05,0x70,0x57,0x05,0x70,
0x49,0x04,0x90,0x3e,0x03,0xd0,0x3c,0x03,0xc0,0x3c,0x03,0xc0,0x3b,0x03,0xc0,0x3c,
0x03,0xc0,0x3d,0x03,0xd0,0x3c,0x03,0xc0,0x3b,0x03,0xb0,0x3b,0x03,0xa0,0x3a,0x03,
0xa0,0x3a,0x03,0xb0,0x3b,0x03,0xc0,0x3d,0x03,0xe0,0x49,0x04,0x90,0x49,0x04,0x90,
0x49,0x04,0x90,0x3e,0x03,0xe0,0x3e,0x03,0xd0,0x3d,0x03,0xd0,0x3d,0x03,0xd0,0x3e,
0x03,0xe0,0x49,0x04,0x90,0x57,0x05,0x70,0x57,0x05,0x70,0x57,0x05,0x70,0x49,0x03,
0xe0,0x3d,0x03,0xc0,0x3c,0x03,0xc0,0x3c,0x03,0xc0,0x3c,0x03,0xd0,0x3d,0x03,0xd0,
0x3e,0x03,0xd0,0x3c,0x03,0xb0,0x3b,0x03,0xb0,0x3a,0x03,0xa0,0x3a,0x03,0xa0,0x3a,
0x03,0xb0,0x3c,0x03,0xd0,0x3e,0x04,0x90,0x49,0x04,0x90,0x49,0x04,0x90,0x49,0x03,
0xe0,0x3e,0x03,0xd0,0x3d,0x03,0xd0,0x3d,0x03,0xd0,0x3d,0x03,0xe0,0x3e,0x03,0xe0,
0x3f,0x03,0xf0,0x3f,0x03,0xf0,0x3f,0x03,0xf0,0x3e,0x03,0xe0,0x3e,0x03,0xd0,0x3c,
0x03,0xc0,0x3c,0x03,0xc0,0x3c,0x03,0xd0,0x3e,0x03,0xe0,0x3d,0x03,0xe0,0x3e,0x03,
0xc0,0x3b,0x03,0xb0,0x3b,0x03,0xa0,0x3a,0x03,0xa0,0x3a,0x03,0xb0,0x3b,0x03,0xc0,
0x3d,0x03,0xe0,0x49,0x04,0x90,0x49,0x04,0x90,0x49,0x03,0xe0,0x3e,0x03,0xd0,0x3d,
0x03,0xd0,0x3d,0x03,0xd0,0x3d,0x03,0xd0,0x3e,0x03,0xe0,0x49,0x04,0x90,0x4a,0x04,
0xa0,0x4a,0x04,0x90,0x49,0x03,0xd0,0x3b,0x03,0xc0,0x3c,0x03,0xd0,0x49,0x04,0xa0,
0x4b,0x04,0xb0,0x4e,0x06,0xc0,0x6a,0x05,0xb0,0x6a,0x05,0x90,0x47,0x02,0x80,0x1b,
0x01,0xa0,0x0e,0x00,0xc0,0x18,0x02,0x70,0x2a,0x03,0x90,0x5a,0x07,0xc0,0x9c,0x08,
0xd0,0xbc,0x0b,0xb0,0x59,0x03,0x80,0x28,0x02,0x70,0x18,0x00,0xc0,0x19,0x02,0xb0,
0x3a,0x03,0xe0,0x5d,0x08,0xe0,0xaf,0x0a,0xf0,0xb8,0x1f,0x91,0xb9,0x16,0x91,0x58,
0x15,0x61,0x45,0x13,0x80,0x29,0x02,0xc0,0x3b,0x03,0xb0,0x4a,0x04,0xa0,0x5a,0x08,
0xb0,0xbd,0x0f,0xe0,0xdb,0x09,0xa0,0x5a,0x02,0x70,0x16,0x00,0x50,0x03,0x00,0x30,
0x02,0x00,0x30,0x13,0x01,0x50,0x19,0x02,0x61,0x48,0x16,0xc1,0x9d,0x1b,0xf1,0xff,
0x1c,0xf1,0x5c,0x13,0xd1,0x2b,0x11,0xe1,0x0f,0x10,0xb1,0x19,0x12,0x81,0x37,0x13,
0x91,0x5c,0x19,0xd1,0x98,0x2a,0x92,0xcb,0x2f,0xd2,0xea,0x28,0xf1,0x7b,0x15,0x81,
0x4d,0x03,0xa0,0x28,0x01,0xa0,0x19,0x01,0xe0,0x2a,0x01,0xa0,0x1f,0x03,0xf0,0x4c,
0x0a,0xe0,0xff,0x09,0xf0,0x7d,0x03,0x90,0x27,0x01,0x50,0x03,0x01,0x10,0x02,0x00,
0x20,0x03,0x00,0x40,0x15,0x02,0x60,0x47,0x07,0x90,0xc7,0x1f,0xa1,0xd9,0x2f,0xa2,
0x97,0x25,0x62,0x45,0x23,0x42,0x24,0x21,0x42,0x14,0x22,0x42,0x25,0x22,0x62,0x39,
0x25,0x92,0x5b,0x27,0xd2,0xce,0x2f,0xd2,0xfb,0x29,0xf1,0x9d,0x16,0xb1,0x3a,0x12,
0xa1,0x19,0x10,0xd1,0x0d,0x10,0xb1,0x0f,0x10,0xe1,0x0e,0x11,0xb1,0x2b,0x14,0xd1,
0x9b,0x1e,0xa1,0xd7,0x18,0x51,0x47,0x02,0x60,0x14,0x01,0x20,0x11,0x00,0x20,0x02,
0x00,0x30,0x05,0x01,0x31,0x33,0x15,0x41,0x95,0x1f,0x71,0xfc,0x1f,0xf1,0xff,0x19,
0xc1,0x59,0x13,0x81,0x28,0x11,0x91,0x0e,0x10,0xc1,0x18,0x12,0x52,0x35,0x24,0x62,
0x57,0x27,0x92,0xea,0x2f,0xb2,0xed,0x2a,0xd2,0x8b,0x25,0xb2,0x39,0x22,0x72,0x18,
0x20,0xa2,0x0b,0x10,0x91,0x0b,0x10,0xe1,0x0b,0x10,0xf1,0x1f,0x12,0xf1,0x3f,0x1a,
0xd1,0xfd,0x1c,0x91,0x66,0x13,0x41,0x24,0x11,0x40,0x03,0x00,0x20,0x02,0x00,0x11,
0x02,0x10,0x31,0x14,0x13,0x41,0x55,0x19,0x61,0xf9,0x1f,0xe1,0xff,0x1e,0xe1,0x7e,
0x14,0xb1,0x2a,0x11,0xb1,0x0f,0x10,0xb1,0x0e,0x11,0xc1,0x29,0x13,0x81,0x5b,0x18,
0xe1,0xaf,0x1d,0x92,0xfa,0x2f,0xb2,0x8c,0x25,0xc2,0x4a,0x22,0xc2,0x19,0x20,0xa2,
0x09,0x20,0x72,0x06,0x20,0x62,0x07,0x20,0xb2,0x0e,0x21,0xa2,0x29,0x22,0xc2,0x6e,
0x2d,0xc2,0x6a,0x23,0xd1,0x19,0x11,0x71,0x04,0x10,0x11,0x00,0x20,0x02,0x00,0x30,
0x03,0x10,0x33,0x03,0x41,0x36,0x23,0x83,0x3e,0x43,0xf7,0x2e,0x82,0x79,0x24,0xa2,
0x39,0x21,0xa2,0x09,0x20,0x72,0x08,0x20,0x82,0x0b,0x21,0x92,0x2b,0x24,0xa2,0x5c,
0x27,0xc2,0x9c,0x2c,0xd2,0xad,0x26,0xc2,0x5a,0x24,0x92,0x38,0x21,0x92,0x0c,0x20,
0x92,0x07,0x20,0x72,0x08,0x20,0xc2,0x0f,0x21,0x92,0x1d,0x21,0xa3,0x19,0x32,0x83,
0xc7,0x3f,0x63,0x44,0x32,0x33,0x22,0x32,0x22,0x11,0x10,0x01,0x01,0x10,0x21,0x02,
0x10,0x31,0x05,0x11,0x81,0x38,0x14,0xb1,0x7c,0x1f,0xd1,0xff,0x1c,0xc1,0x6a,0x14,
0x91,0x39,0x11,0x81,0x08,0x10,0xd1,0x1b,0x11,0xc1,0x1f,0x12,0x92,0x3e,0x25,0xc2,
0x5b,0x26,0xe2,0xbd,0x2b,0xb2,0x7a,0x25,0xa2,0x4d,0x23,0xe2,0x1f,0x20,0xe2,0x0c,
0x20,0x82,0x06,0x20,0x53,0x08,0x30,0xc3,0x0b,0x30,0xc3,0x18,0x31,0x93,0x18,0x34,
0xb3,0xfb,0x36,0x53,0x34,0x24,0x22,0x51,0x23,0x02,0x00,0x20,0x02,0x10,0x20,0x12,
0x01,0x21,0x12,0x22,0x24,0x41,0x55,0x19,0x61,0xf9,0x1f,0xf1,0xdd,0x16,0xb1,0x49,
0x14,0x91,0x28,0x10,0x91,0x09,0x11,0x71,0x26,0x12,0x61,0x36,0x17,0x71,0xa8,0x17,
0xa1,0x9b,0x1f,0xe1,0xfe,0x1b,0xc1,0x7b,0x18,0xd1,0x6e,0x13,0xa1,0x28,0x12,0x71,
0x28,0x11,0xa1,0x19,0x12,0x81,0x37,0x13,0x61,0x28,0x12,0x62,0x27,0x21,0xb2,0x4c,
0x3f,0xd3,0x5b,0x22,0x62,0x24,0x24,0x22,0x30,0x20,0x02,0x01,0x10,0x21,0x02,0x10,
0x21,0x03,0x12,0x41,0x26,0x12,0xa1,0x4b,0x19,0xc1,0xfe,0x18,0xd1,0x4b,0x14,0xa1,
0x4a,0x12,0x91,0x0e,0x10,0x91,0x1a,0x12,0x81,0x18,0x12,0x71,0x49,0x18,0xc1,0x9d,
0x15,0xf1,0x79,0x2e,0x92,0x79,0x24,0x92,0x49,0x24,0xc2,0x3b,0x21,0xe2,0x1e,0x21,
0xe2,0x0a,0x30,0xe3,0x0f,0x30,0xf3,0x0e,0x30,0xe3,0x0e,0x30,0x93,0x29,0x4f,0x94,
0x76,0x42,0x44,0x23,0x43,0x33,0x22,0x20,0x11,0x01,0x11,0x11,0x11,0x10,0x30,0x04,
0x01,0x70,0x37,0x03,0x80,0x4b,0x08,0x81,0xfd,0x1a,0xb1,0x4c,0x13,0xe1,0x4c,0x12,
0xd1,0x0f,0x10,0xa1,0x18,0x12,0x71,0x18,0x11,0xa1,0x2e,0x15,0xa1,0x7a,0x16,0xa1,
0x8c,0x1f,0xc1,0xcb,0x16,0xb1,0x5b,0x16,0xa1,0x5a,0x13,0xb1,0x39,0x13,0xa1,0x38,
0x12,0xc1,0x2d,0x12,0x92,0x29,0x21,0xa2,0x09,0x21,0x92,0x58,0x3f,0xb3,0x6b,0x22,
0xb1,0x47,0x15,0x80,0x25,0x00,0x30,0x03,0x01,0x30,0x04,0x00,0x30,0x05,0x01,0x70,
0x28,0x02,0x80,0x3b,0x07,0xd0,0xff,0x0b,0xd0,0x6c,0x07,0xc0,0x8c,0x04,0xc0,0x29,
0x02,0xa0,0x3c,0x02,0xd0,0x1f,0x01,0xb1,0x2d,0x13,0xd1,0x4c,0x15,0xd1,0x7c,0x18,
0xc1,0x7c,0x15,0xd1,0x4d,0x14,0xe1,0x5c,0x14,0xc1,0x3b,0x14,0x91,0x59,0x13,0xa1,
0x2c,0x13,0xa1,0x3e,0x11,0xc1,0x0f,0x13,0x92,0xfa,0x2f,0xf1,0x3f,0x03,0x90,0x86,
0x05,0x40,0x13,0x00,0x20,0x22,0x02,0x30,0x05,0x00,0x40,0x17,0x03,0x70,0x28,0x02,
0xb0,0x4e,0x09,0xd0,0x9b,0x05,0xb0,0x5c,0x08,0xa0,0x79,0x03,0x90,0x2c,0x04,0xd0,
0x5b,0x02,0xa0,0x29,0x05,0xa0,0x6b,0x05,0xa0,0x4d,0x08,0xc0,0xed,0x08,0xe0,0x6c,
0x06,0xa0,0x7b,0x07,0xa0,0x6c,0x06,0xd0,0x6e,0x07,0xe0,0x97,0x16,0x91,0x4a,0x13,
0x91,0x29,0x13,0xa1,0x67,0x2f,0x92,0x6a,0x11,0x91,0x19,0x12,0x51,0x13,0x10,0x11,
0x01,0x11,0x21,0x15,0x00,0x90,0x0c,0x02,0xd0,0x4a,0x03,0xc0,0x3c,0x05,0xe0,0x9d,
0x04,0xc0,0x38,0x03,0xa0,0x4a,0x04,0x80,0x28,0x03,0xa0,0x5d,0x05,0xa0,0x3b,0x04,
0x90,0x8a,0x08,0xb0,0x5a,0x06,0x61,0xc7,0x17,0x91,0x39,0x12,0xa1,0x3c,0x13,0x91,
0x28,0x12,0x91,0x4a,0x17,0xa1,0x6b,0x15,0xc1,0x7c,0x15,0xe1,0x3f,0x14,0xb2,0xce,
0x2f,0xd2,0x36,0x21,0x42,0x22,0x23,0x11,0x10,0x10,0x00,0x02,0x00,0x50,0x06,0x00,
0x80,0x1e,0x05,0xc0,0x7c,0x06,0xe0,0x8d,0x0f,0xf0,0xde,0x04,0xd0,0x2a,0x02,0x90,
0x2a,0x01,0x90,0x0d,0x01,0xc0,0x3b,0x04,0xd0,0x4d,0x05,0x61,0x87,0x1b,0x81,0x79,
0x16,0xa1,0x9d,0x1a,0xe1,0x5c,0x12,0xd1,0x2a,0x12,0xb1,0x1c,0x10,0xb2,0x1a,0x22,
0xa2,0x28,0x31,0xd3,0x1c,0x44,0xe5,0xbd,0x6f,0xe6,0x6b,0x33,0x82,0x47,0x12,0x60,
0x03,0x00,0x00,0x00,0x01,0x00,0x01,0x00,0x20,0x05,0x02,0x80,0x3e,0x04,0x81,0x6b,
0x1f,0x92,0xfb,0x26,0xf1,0x4b,0x13,0xb1,0x37,0x11,0x61,0x06,0x10,0x71,0x07,0x10,
0x71,0x09,0x11,0xc1,0x2f,0x13,0x82,0x48,0x27,0xa2,0xfa,0x2d,0xb2,0x5b,0x24,0x92,
0x5a,0x24,0x92,0x28,0x21,0x92,0x27,0x22,0x72,0x17,0x20,0x72,0x18,0x36,0xb3,0xfe,
0x3d,0xb2,0x6c,0x1d,0x71,0x88,0x02,0x60,0x04,0x00,0x30,0x12,0x01,0x10,0x02,0x01,
0x20,0x32,0x05,0x20,0x43,0x05,0x40,0xa6,0x0f,0x80,0xa8,0x07,0x80,0x78,0x07,0x90,
0x49,0x02,0xa0,0x2a,0x03,0x90,0x39,0x02,0xb0,0x2e,0x03,0xe0,0x4b,0x04,0xc0,0x5b,
0x07,0xd0,0xbc,0x09,0xc0,0x7e,0x07,0xf0,0x79,0x17,0xa1,0x6b,0x15,0xc1,0x5c,0x14,
0xc1,0x3a,0x26,0x83,0xcb,0x3f,0xe3,0x6a,0x23,0xb1,0x4b,0x03,0x60,0x13,0x00,0x10,
0x10,0x03,0x00,0x21,0x02,0x10,0x41,0x0e,0x20,0xf4,0x0b,0x50,0x77,0x0d,0xb0,0xfe,
0x05,0xd0,0x29,0x02,0x70,0x35,0x01,0x60,0x05,0x00,0x50,0x25,0x03,0x60,0x29,0x03,
0x61,0x78,0x1d,0xc1,0xbe,0x1a,0x82,0xb9,0x27,0xb2,0x3b,0x21,0xe2,0x0c,0x30,0xa3,
0x0b,0x30,0xb3,0x0b,0x30,0xb4,0x1f,0x54,0xf6,0xbe,0x8f,0xf9,0x9f,0x5a,0xe3,0xa9,
0x24,0x81,0x17,0x00,0x30,0x01,0x00,0x10,0x00,0x00,0x00,0x01,0x01,0x30,0x34,0x05,
0x60,0x8c,0x0f,0xd1,0xfe,0x2f,0xe2,0xca,0x27,0x72,0x46,0x21,0x91,0x04,0x10,0x21,
0x01,0x10,0x02,0x00,0x20,0x12,0x11,0x33,0x14,0x53,0x39,0x53,0xd9,0x3f,0xc4,0xfe,
0x49,0xf3,0x7c,0x37,0x93,0x48,0x31,0xa2,0x07,0x21,0x82,0x58,0x2e,0x92,0x7e,0x14,
0xd1,0x8d,0x1e,0xa1,0x7f,0x02,0xf0,0x1b,0x01,0xc0,0x17,0x00,0x40,0x02,0x00,0x30,
0x13,0x01,0x40,0x15,0x02,0x60,0x57,0x0a,0x80,0xc9,0x09,0xc0,0xc7,0x1f,0xa1,0xa8,
0x14,0xe0,0x38,0x02,0x80,0x18,0x00,0x70,0x05,0x00,0x60,0x0b,0x00,0x91,0x0f,0x11,
0xa2,0x28,0x32,0x74,0x2a,0x44,0xd4,0x5a,0x53,0xd5,0x2a,0x64,0xd6,0x9e,0x7f,0xe7,
0xa7,0x54,0x44,0x73,0x38,0x32,0x43,0x11,0x30,0x02,0x00,0x30,0x13,0x00,0x30,0x01,
0x01,0x10,0x51,0x08,0x20,0x63,0x07,0x40,0xa7,0x0f,0xe0,0xff,0x0c,0xf0,0x8d,0x0b,
0xb0,0xdb,0x06,0xa0,0x2a,0x01,0x70,0x16,0x01,0x50,0x05,0x00,0x40,0x13,0x14,0x31,
0x83,0x18,0x41,0xe5,0x1f,0x71,0xf9,0x1f,0xd1,0xde,0x17,0xe1,0x6e,0x18,0xe1,0xed,
0x1e,0xd1,0xfc,0x17,0xd1,0x4c,0x14,0x91,0x38,0x12,0x91,0x18,0x10,0x61,0x08,0x01,
0x50,0x13,0x00,0x30,0x02,0x01,0x20,0x14,0x00,0x70,0x08,0x01,0x80,0x39,0x05,0xd0,
0x6f,0x07,0x91,0xab,0x1f,0xe1,0xfd,0x18,0x81,0x55,0x13,0x51,0x25,0x11,0x41,0x04,
0x10,0x61,0x18,0x12,0x81,0x29,0x12,0xb1,0x3a,0x14,0xc1,0x6c,0x17,0xd1,0x9e,0x1c,
0xd1,0xee,0x1c,0xc1,0x6b,0x14,0xa1,0x4b,0x14,0x91,0x29,0x11,0xb1,0x1e,0x11,0xa1,
0x09,0x10,0x71,0x08,0x11,0xb0,0x28,0x02,0x90,0x2a,0x02,0xb0,0x2b,0x02,0xc0,0x2b,
0x02,0x80,0x27,0x02,0x70,0x29,0x02,0x80,0x1b,0x01,0xf0,0x2e,0x02,0xe0,0x2d,0x02,
0xe0,0x3d,0x04,0xa0,0x4d,0x05,0xa0,0x4d,0x05,0xe0,0x7d,0x07,0xb0,0x6a,0x06,0xa0,
0x7a,0x06,0xb0,0x5b,0x04,0xb0,0x4a,0x05,0xa0,0x6b,0x07,0xb0,0xaa,0x0f,0xb0,0xfb,
0x0d,0xa0,0xaa,0x08,0x90,0x69,0x05,0x80,0x47,0x03,0x70,0x27,0x01,0x70,0x15,0x01,
0x60,0x17,0x01,0x70,0x19,0x02,0x90,0x3b,0x04,0x90,0x48,0x04,0x80,0x57,0x04,0x80,
0x38,0x02,0x90,0x1b,0x00,0xf0,0x0f,0x00,0x81,0x09,0x10,0xe1,0x1c,0x12,0xb1,0x3d,
0x15,0xc1,0x8b,0x1c,0xb1,0xcb,0x18,0xa1,0x5a,0x14,0x91,0x38,0x12,0xf0,0x2c,0x03,
0xa0,0x3d,0x03,0xc0,0x4b,0x06,0xb0,0x7b,0x07,0xa0,0x7b,0x0b,0xc0,0xfd,0x0d,0xc0,
0x9a,0x07,0x90,0x5a,0x03,0xb0,0x1f,0x00,0xf0,0x0b,0x00,0xb0,0x09,0x00,0x80,0x0b,
0x01,0x80,0x1b,0x02,0x80,0x38,0x03,0xa0,0x3b,0x03,0x90,0x38,0x03,0xa0,0x38,0x02,
0xa0,0x29,0x02,0xb0,0x38,0x03,0xa0,0x5a,0x06,0xc0,0x8b,0x0d,0xc0,0xfc,0x0b,0xc0,
0x7b,0x06,0xb0,0x6b,0x05,0xb0,0x49,0x03,0x90,0x3b,0x04,0x90,0x3c,0x03,0xe0,0x5e,
0x07,0xb0,0x7d,0x08,0xb0,0x8b,0x09,0xa0,0xaa,0x09,0x90,0x69,0x05,0x80,0x57,0x04,
0x70,0x28,0x01,0x80,0x0c,0x00,0xb0,0x09,0x00,0x70,0x07,0x00,0xa0,0x0e,0x01,0x80,
0x28,0x03,0x90,0x48,0x04,0xb0,0x5c,0x06,0xc0,0x5d,0x04,0xb0,0x49,0x04,0xb0,0x4b,
0x04,0xa0,0x4d,0x04,0xd0,0x4e,0x05,0xb0,0x5b,0x05,0xb0,0x5d,0x06,0xe0,0x6c,0x05,
0xd0,0x6e,0x07,0xd0,0x6a,0x05,0xb0,0x5e,0x05,0xb0,0x5a,0x05,0xa0,0x6b,0x06,0xb0,
0x5a,0x05,0x90,0x4a,0x04,0x80,0x38,0x03,0x70,0x38,0x03,0x70,0x36,0x03,0x50,0x25,
0x01,0x70,0x18,0x01,0x90,0x17,0x01,0x60,0x19,0x02,0x90,0x2b,0x02,0xc0,0x2e,0x03,
0xc0,0x4b,0x04,0xb0,0x4c,0x05,0xc0,0x6b,0x05,0xb0,0x59,0x05,0xa0,0x5a,0x05,0x90,
0x49,0x03,0xb0,0x4a,0x06,0xb0,0x7b,0x07,0xc0,0x9d,0x0f,0xc0,0xec,0x08,0xc0,0x6b,
0x05,0xd0,0x5a,0x04,0xa0,0x49,0x04,0x90,0x48,0x03,0x90,0x38,0x04,0x80,0x4a,0x04,
0x80,0x3a,0x03,0xa0,0x3b,0x03,0xa0,0x2b,0x02,0x90,0x29,0x02,0x90,0x1e,0x01,0xa0,
0x1f,0x02,0xb0,0x29,0x01,0x90,0x1a,0x02,0x90,0x29,0x01,0xc0,0x1c,0x02,0xe0,0x3f,
0x03,0xd0,0x3e,0x05,0xc0,0x6d,0x05,0xe0,0x4d,0x05,0xd0,0x7e,0x07,0xc0,0x5c,0x05,
0xb0,0x6d,0x07,0xc0,0x6d,0x07,0xc0,0x8e,0x08,0xc0,0x6c,0x05,0xe0,0x5c,0x04,0xd0,
0x4a,0x04,0xa0,0x4a,0x04,0x90,0x3b,0x03,0xa0,0x3a,0x03,0xa0,0x39,0x03,0x80,0x48,
0x04,0xa0,0x49,0x04,0x80,0x49,0x04,0xa0,0x3b,0x02,0x90,0x1e,0x01,0xc0,0x18,0x00,
0x90,0x08,0x00,0xa0,0x0c,0x00,0xd0,0x0f,0x01,0xf0,0x2c,0x02,0xc0,0x3a,0x05,0xa0,
0x7b,0x09,0xb0,0x9b,0x0a,0xb0,0xbb,0x08,0xc0,0x6d,0x05,0xd0,0x4d,0x04,0xb0,0x4b,
0x04,0xd0,0x5d,0x06,0xd0,0x7c,0x08,0xb0,0x8b,0x08,0xc0,0x7e,0x06,0xe0,0x6d,0x05,
0xe0,0x4b,0x03,0x90,0x38,0x03,0x90,0x39,0x03,0x80,0x39,0x04,0xa0,0x5a,0x05,0x90,
0x4a,0x04,0xb0,0x3f,0x02,0xd0,0x1c,0x01,0x80,0x17,0x00,0x90,0x06,0x00,0x70,0x0a,
0x01,0x80,0x19,0x01,0xe0,0x2c,0x03,0xd0,0x4b,0x04,0xa0,0x4c,0x05,0xc0,0x6a,0x05,
0xa0,0x49,0x04,0xa0,0x59,0x04,0xa0,0x3d,0x03,0xd0,0x4c,0x05,0xa0,0x5a,0x06,0xc0,
0x8e,0x0e,0xe0,0xff,0x0f,0xf0,0xff,0x0f,0xe0,0xfc,0x0c,0xc0,0x7c,0x05,0xc0,0x4a,
0x03,0xc0,0x2d,0x01,0xf0,0x1e,0x02,0x90,0x2a,0x02,0x90,0x2b,0x03,0x90,0x39,0x02,
0xa0,0x2a,0x02,0xa0,0x29,0x01,0xd0,0x1b,0x01,0xc0,0x28,0x02,0x90,0x2b,0x02,0xf0,
0x3b,0x03,0xd0,0x39,0x02,0xa0,0x29,0x02,0xa0,0x28,0x01,0xb0,0x1c,0x02,0xa0,0x2b,
0x02,0x90,0x2c,0x03,0xf0,0x5d,0x07,0xb0,0x8d,0x0c,0xe0,0xff,0x0f,0xf0,0xfe,0x0f,
0xd0,0xfe,0x0d,0xd0,0x8c,0x06,0xc0,0x6a,0x05,0xa0,0x49,0x03,0xa0,0x39,0x03,0xa0,
0x3a,0x03,0x90,0x2b,0x02,0xc0,0x39,0x03,0xa0,0x39,0x03,0x90,0x48,0x04,0x90,0x3b,
0x03,0xa0,0x3e,0x03,0xe0,0x2d,0x01,0xf0,0x1f,0x01,0xf0,0x1f,0x01,0xd0,0x1e,0x02,
0x90,0x29,0x02,0x80,0x28,0x02,0x90,0x38,0x03,0x90,0x3b,0x04,0xa0,0x5a,0x06,0xa0,
0x6a,0x06,0xa0,0x6a,0x06,0xa0,0x5d,0x05,0xb0,0x4c,0x03,0xe0,0x3b,0x03,0xb0,0x3e,
0x03,0xe0,0x3e,0x04,0xc0,0x5b,0x05,0xc0,0x4e,0x04,0xc0,0x4d,0x05,0xa0,0x5b,0x05,
0xa0,0x5a,0x05,0xc0,0x5e,0x05,0xa0,0x4a,0x04,0x90,0x4b,0x04,0xa0,0x3a,0x03,0x80,
0x39,0x02,0xb0,0x1d,0x01,0x90,0x19,0x01,0xa0,0x19,0x01,0xa0,0x29,0x03,0x80,0x3a,
0x04,0xa0,0x69,0x08,0x90,0xb9,0x0c,0x90,0xb9,0x09,0x80,0x68,0x05,0x70,0x47,0x03,
0x80,0x29,0x02,0x90,0x2b,0x03,0x80,0x38,0x03,0x80,0x48,0x05,0x80,0x58,0x04,0x90,
0x4a,0x05,0xa0,0x4c,0x04,0x90,0x4a,0x04,0xd0,0x4b,0x03,0xc0,0x39,0x03,0xb0,0x3b,
0x02,0xe0,0x2d,0x03,0x90,0x3a,0x03,0xb0,0x3a,0x03,0xc0,0x4c,0x04,0xe0,0x3f,0x03,
0xd0,0x4a,0x05,0xa0,0x4c,0x03,0xc0,0x3d,0x04,0xb0,0x59,0x05,0x90,0x68,0x06,0x90,
0x5a,0x04,0x90,0x39,0x03,0x80,0x39,0x03,0x90,0x2d,0x02,0xe0,0x3a,0x03,0xc0,0x3b,
0x03,0xb0,0x3e,0x03,0xf0,0x3f,0x03,0xe0,0x3f,0x04,0xd0,0x4e,0x04,0xe0,0x4a,0x04,
0x90,0x58,0x05,0x80,0x48,0x04,0x70,0x56,0x06,0x60,0x56,0x03,0x50,0x26,0x02,0x60,
0x35,0x04,0x50,0x36,0x04,0x50,0x65,0x07,0x50,0x95,0x0b,0x50,0xb5,0x0b,0x50,0xd5,
0x0e,0x50,0xe4,0x0e,0x30,0x83,0x07,0x30,0x93,0x0b,0x30,0x73,0x08,0x30,0xa3,0x09,
0x30,0xe3,0x0f,0x30,0xd4,0x0e,0x50,0x96,0x09,0x70,0xb7,0x07,0x90,0x6a,0x05,0xa0,
0x49,0x03,0xc0,0x3d,0x03,0xd0,0x3c,0x03,0xb0,0x3c,0x04,0xe0,0x3e,0x02,0xe0,0x3e,
0x04,0xa0,0x4a,0x05,0xc0,0x4b,0x03,0xa0,0x2a,0x01,0xd0,0x2a,0x03,0x80,0x39,0x04,
0x90,0x59,0x05,0xb0,0x5a,0x04,0x80,0x3a,0x03,0xc0,0x3e,0x03,0xc0,0x3a,0x03,0xa0,
0x2c,0x02,0x80,0x28,0x02,0x80,0x35,0x03,0x50,0x35,0x03,0x60,0x47,0x04,0x90,0x3c,
0x03,0xe0,0x5b,0x06,0xd0,0x5d,0x05,0xa0,0x5d,0x05,0xa0,0x4a,0x03,0xb0,0x3a,0x03,
0xa0,0x3a,0x04,0xa0,0x5a,0x05,0xc0,0x6b,0x06,0xa0,0x6a,0x06,0xa0,0x5a,0x04,0xc0,
0x4d,0x05,0xc0,0x5e,0x04,0xe0,0x5a,0x05,0xa0,0x5a,0x05,0xd0,0x5c,0x07,0xb0,0x9c,
0x0e,0xd0,0xfb,0x0a,0x80,0x67,0x04,0x60,0x26,0x01,0x70,0x14,0x00,0x40,0x01,0x10,
0x11,0x02,0x10,0x21,0x02,0x10,0x41,0x16,0x12,0x81,0x3c,0x14,0xe1,0x5d,0x17,0xc1,
0xbb,0x1b,0xa1,0x69,0x14,0x91,0x3b,0x12,0xb1,0x1e,0x11,0x91,0x0e,0x11,0x91,0x29,
0x13,0x91,0x3c,0x13,0xe1,0x5a,0x18,0xa1,0x8b,0x17,0xb1,0x79,0x16,0x91,0x79,0x18,
0xa1,0x6a,0x14,0x91,0x2b,0x12,0x91,0x1b,0x10,0xd1,0x1d,0x14,0xb1,0x8b,0x1e,0xa1,
0x8a,0x14,0x81,0x27,0x12,0x61,0x34,0x12,0x21,0x02,0x10,0x11,0x01,0x10,0x30,0x01,
0x10,0x02,0x00,0x21,0x11,0x32,0x15,0x31,0x54,0x15,0x51,0x76,0x1b,0x81,0xfd,0x1f,
0xf1,0x8d,0x14,0xe1,0x4c,0x15,0xa1,0x48,0x12,0x81,0x18,0x11,0xa1,0x2a,0x13,0xb1,
0x39,0x12,0xc1,0x4a,0x17,0xb1,0xab,0x1e,0xa1,0xda,0x1e,0x81,0xc8,0x1c,0x81,0xc7,
0x17,0xe0,0x4b,0x03,0xa0,0x2d,0x01,0xf0,0x1c,0x02,0x80,0x3b,0x06,0xc0,0x6d,0x03,
0xe0,0x2c,0x02,0xd0,0x2f,0x02,0xa0,0x19,0x00,0x80,0x05,0x00,0x50,0x05,0x00,0x50,
0x03,0x00,0x30,0x04,0x01,0x50,0x27,0x02,0xa0,0x2d,0x03,0xe0,0x68,0x1f,0x81,0xf8,
0x1a,0xf0,0xbf,0x0e,0xf0,0xde,0x08,0xd0,0x6c,0x06,0xc0,0x4d,0x03,0xe0,0x4a,0x04,
0xb0,0x5c,0x06,0xb0,0x6c,0x08,0xd0,0x9e,0x08,0xc0,0x7d,0x06,0xe0,0x7c,0x07,0xd0,
0x6e,0x06,0xb0,0x6b,0x05,0xb0,0x49,0x03,0x80,0x29,0x02,0x80,0x1b,0x01,0x80,0x19,
0x02,0xb0,0x49,0x03,0xa0,0x2b,0x03,0xb0,0x5b,0x05,0xd0,0x5a,0x03,0xe0,0x2a,0x01,
0xa0,0x18,0x01,0x80,0x17,0x00,0xa0,0x0a,0x00,0xe0,0x1a,0x01,0xf0,0x1c,0x01,0x90,
0x1d,0x03,0xa0,0x5a,0x05,0xb0,0x6b,0x06,0xe0,0x6e,0x08,0xc0,0xae,0x08,0xe0,0x7b,
0x06,0xd0,0x6e,0x07,0xc0,0x6d,0x05,0xb0,0x5a,0x06,0xa0,0x8b,0x08,0xb0,0x6c,0x06,
0xa0,0x6a,0x06,0xb0,0x6a,0x05,0xa0,0x4b,0x03,0xc0,0x39,0x03,0x90,0x2b,0x01,0xf0,
0x2c,0x05,0xc0,0xfd,0x0d,0xb0,0x4a,0x03,0xa0,0x59,0x0b,0x80,0xc7,0x05,0x50,0x24,
0x02,0x30,0x33,0x03,0x30,0x13,0x00,0x11,0x01,0x11,0x30,0x24,0x03,0x40,0x25,0x01,
0x70,0x2c,0x06,0x91,0xfb,0x1b,0xb1,0x6a,0x16,0xc1,0xbd,0x1f,0xb1,0x6a,0x12,0x91,
0x19,0x12,0x71,0x37,0x12,0x81,0x18,0x11,0x71,0x28,0x14,0x81,0x59,0x14,0x81,0x49,
0x17,0xa1,0x8d,0x18,0xe1,0x5f,0x13,0xa2,0x2e,0x21,0xe2,0x0f,0x20,0xb2,0x1f,0x27,
0xb3,0xfb,0x35,0x92,0x2a,0x13,0x61,0x55,0x16,0x31,0x22,0x10,0x11,0x00,0x11,0x01,
0x30,0x12,0x01,0x00,0x10,0x02,0x20,0x36,0x13,0x71,0x43,0x24,0x23,0x44,0x44,0xe5,
0x5f,0x75,0x65,0x53,0x35,0x32,0x53,0x25,0x31,0x61,0x16,0x00,0x70,0x07,0x10,0xb2,
0x18,0x21,0xa2,0x1a,0x32,0x76,0x28,0x82,0x97,0x2a,0x62,0xa6,0x2a,0x72,0xa5,0x38,
0x33,0x92,0x39,0x13,0x90,0x3b,0x05,0x94,0x68,0xf9,0x6b,0x55,0x43,0x44,0x23,0x91,
0x3a,0x12,0x41,0x11,0x01,0x00,0x00,0x10,0x21,0x02,0x10,0x02,0x00,0x10,0x21,0x19,
0x12,0xf2,0x26,0x42,0x36,0x24,0x53,0xb5,0x4f,0x74,0x46,0x40,0x64,0x04,0x41,0x34,
0x21,0x51,0x06,0x00,0x50,0x06,0x10,0x93,0x0a,0x40,0xb4,0x0e,0x51,0xbb,0x28,0xc2,
0x97,0x2a,0x63,0x96,0x49,0x55,0x73,0x75,0x1a,0x50,0xa5,0x08,0x52,0xb5,0xfe,0x5f,
0xd4,0x37,0x32,0x52,0x53,0x2a,0x22,0x52,0x11,0x11,0x00,0x10,0x01,0x10,0x22,0x02,
0x10,0x10,0x01,0x11,0x14,0x31,0xa4,0x16,0x61,0x38,0x13,0xc1,0x79,0x2f,0xf2,0x8a,
0x22,0x62,0x14,0x22,0x23,0x31,0x31,0x13,0x00,0x40,0x04,0x10,0x63,0x07,0x40,0x84,
0x0a,0x60,0xb9,0x19,0x92,0x86,0x37,0x63,0x86,0x39,0x44,0x93,0x4a,0x16,0x90,0x69,
0x16,0x97,0x98,0xff,0x74,0xa5,0x15,0x42,0x34,0x62,0x4a,0x13,0x30,0x30,0x02,0x00,
0x11,0x01,0x40,0x12,0x01,0x00,0x10,0x02,0x31,0x2c,0x22,0xa3,0x24,0x42,0x27,0x24,
0xa2,0xff,0x2f,0xf2,0x3a,0x20,0x82,0x05,0x32,0x33,0x21,0x40,0x13,0x00,0x31,0x12,
0x31,0x34,0x13,0x31,0x33,0x14,0x62,0x4b,0x25,0x92,0x68,0x27,0x92,0x8a,0x2a,0x63,
0x93,0x48,0x25,0x84,0x78,0xfe,0x8f,0xe7,0x46,0x51,0x44,0x22,0x46,0x13,0x60,0x32,
0x02,0x00,0x20,0x01,0x30,0x16,0x01,0x30,0x10,0x11,0x11,0x16,0x21,0xd4,0x1b,0x41,
0x55,0x14,0x71,0x79,0x1f,0xc1,0x99,0x12,0x81,0x15,0x12,0x41,0x33,0x11,0x41,0x03,
0x10,0x22,0x04,0x21,0x52,0x25,0x22,0x72,0x2d,0x23,0xa3,0x38,0x42,0x95,0x2a,0x52,
0xa5,0x1a,0x50,0xa5,0x09,0x62,0xb7,0xde,0x7f,0xf7,0x4d,0x52,0x84,0x46,0x3b,0x52,
0x85,0x12,0x31,0x03,0x00,0x30,0x14,0x02,0x30,0x03,0x00,0x10,0x01,0x12,0x12,0x42,
0x25,0x22,0x33,0x22,0x62,0x68,0x2f,0xd2,0x8c,0x22,0xb2,0x17,0x22,0x52,0x32,0x31,
0x14,0x00,0x40,0x03,0x00,0x50,0x09,0x00,0xd0,0x1a,0x11,0xf2,0x2d,0x23,0xa2,0x4a,
0x35,0x94,0x5a,0x26,0xb1,0x6d,0x28,0xd8,0xad,0xfe,0xa6,0x68,0x24,0x72,0x45,0x34,
0x43,0x33,0x13,0x20,0x31,0x02,0x11,0x30,0x24,0x01,0x50,0x05,0x00,0x80,0x39,0x0b,
0x90,0xb9,0x06,0x90,0x5a,0x09,0xc0,0xff,0x09,0xa0,0x37,0x01,0x70,0x25,0x03,0x40,
0x14,0x00,0x30,0x03,0x01,0x40,0x25,0x02,0x60,0x28,0x04,0xb0,0xb8,0x1f,0xa1,0x7b,
0x14,0x82,0x48,0x23,0xc2,0x3e,0x25,0xb3,0xfe,0x3d,0xa3,0x47,0x33,0x53,0x44,0x35,
0x33,0x22,0x40,0x16,0x00,0x71,0x06,0x20,0x81,0x0c,0x00,0x90,0x09,0x10,0xe3,0x0f,
0x40,0xe3,0x0d,0x30,0xc5,0x0e,0xc0,0xff,0x0f,0x60,0xe3,0x0d,0x30,0xb4,0x09,0x30,
0x81,0x08,0x00,0x91,0x07,0x20,0x61,0x07,0x00,0x90,0x0b,0x01,0xc0,0x2c,0x03,0x90,
0x3c,0x04,0xa0,0x6e,0x27,0xe7,0x9f,0xff,0xf8,0x9d,0x35,0xd3,0x3b,0x52,0x85,0x16,
0x20,0x50,0x03,0x00,0x21,0x02,0x20,0x21,0x02,0x00,0x31,0x04,0x41,0x4b,0x15,0x81,
0x66,0x19,0xd1,0xcf,0x2b,0xb2,0x95,0x1a,0x30,0xc2,0x0a,0x20,0x81,0x07,0x00,0x40,
0x04,0x01,0x41,0x15,0x11,0x60,0x1a,0x11,0xc4,0x1e,0x71,0xf4,0x2b,0x23,0x92,0x3a,
0x33,0xc5,0x4b,0xe5,0xcf,0x7a,0x55,0x82,0x37,0x22,0x73,0x17,0x30,0x61,0x04,0x00,
0x30,0x04,0x10,0x62,0x07,0x10,0x80,0x0e,0x20,0xd9,0x0e,0xf0,0xe7,0x0c,0x40,0xe5,
0x0c,0x60,0xd4,0x0c,0x10,0xc0,0x09,0x00,0x91,0x08,0x10,0x60,0x06,0x00,0x82,0x08,
0x40,0x94,0x08,0x30,0xa5,0x0b,0x71,0x97,0x1a,0x41,0xa2,0x1d,0x12,0xb2,0x2e,0x53,
0xdf,0x4b,0x93,0xa3,0x2a,0x31,0xe5,0x1c,0x51,0x82,0x08,0x00,0x70,0x08,0x20,0x73,
0x09,0x20,0x71,0x07,0x20,0xa7,0x0b,0xd0,0xb6,0x09,0x40,0xa6,0x0b,0xa0,0xd8,0x0c,
0x30,0xb1,0x08,0x00,0xd1,0x09,0x10,0x90,0x09,0x00,0x71,0x07,0x20,0x82,0x0a,0x11,
0x71,0x26,0x22,0x72,0x27,0x12,0x90,0x39,0x04,0xa1,0x6a,0x56,0xbf,0x6a,0xa4,0x84,
0x37,0x52,0x67,0x16,0x40,0x61,0x04,0x00,0x40,0x05,0x10,0x61,0x09,0x01,0x70,0x17,
0x21,0x99,0x1b,0xc1,0xb5,0x1a,0x42,0x9b,0x29,0xf2,0xa7,0x1a,0x40,0x92,0x08,0x20,
0x72,0x05,0x10,0x40,0x04,0x00,0x51,0x06,0x10,0x81,0x0c,0x20,0xb4,0x0a,0x60,0xc5,
0x19,0x32,0x82,0x38,0x34,0x86,0x67,0xfa,0x6f,0x76,0x84,0x56,0x25,0x71,0x47,0x03,
0x20,0x20,0x02,0x00,0x11,0x01,0x20,0x11,0x11,0x12,0x13,0x22,0x83,0x2f,0x42,0xb6,
0x29,0x82,0xd9,0x2f,0x82,0x87,0x23,0x62,0x24,0x21,0x32,0x02,0x30,0x05,0x00,0x50,
0x06,0x00,0xa0,0x18,0x02,0x81,0x29,0x22,0xd2,0x3c,0x14,0xa1,0x5a,0x25,0xa3,0x5a,
0x45,0xba,0x6b,0xf7,0xa7,0x58,0x43,0x93,0x29,0x31,0x81,0x0a,0x00,0x70,0x06,0x00,
0x70,0x07,0x00,0x60,0x06,0x10,0x73,0x0a,0x50,0xb5,0x0d,0x70,0xcd,0x0f,0xf0,0xfc,
0x0e,0x40,0xd2,0x0c,0x20,0x81,0x09,0x00,0x80,0x05,0x00,0x71,0x08,0x10,0x90,0x16,
0x01,0x81,0x1a,0x31,0x83,0x19,0x21,0xa1,0x29,0x22,0xb5,0x39,0xe4,0x9f,0x58,0x74,
0x85,0x39,0x72,0xaa,0x1b,0x41,0x81,0x17,0x01,0x70,0x17,0x01,0x80,0x0a,0x00,0x60,
0x07,0x20,0x64,0x07,0x40,0x95,0x0a,0xb0,0xef,0x1a,0xf1,0xda,0x1a,0xb0,0xc8,0x09,
0x50,0x83,0x06,0x10,0x60,0x06,0x00,0x60,0x07,0x00,0x70,0x07,0x00,0xa1,0x0c,0x11,
0xc1,0x2a,0x13,0x81,0x57,0x36,0x67,0x86,0xfa,0x6f,0x76,0x65,0x64,0x45,0x43,0x53,
0x25,0x11,0x60,0x06,0x00,0x40,0x05,0x00,0x50,0x04,0x00,0x41,0x13,0x31,0x46,0x23,
0x83,0x3b,0x43,0xc6,0x3f,0xd2,0xfc,0x28,0xa2,0x57,0x23,0x91,0x2e,0x01,0x80,0x06,
0x00,0x40,0x04,0x01,0x21,0x13,0x12,0x31,0x34,0x15,0x51,0x76,0x19,0x71,0xc9,0x1f,
0xd1,0xfe,0x1f,0xc1,0xfc,0x1f,0x91,0x9f,0x05,0xd0,0x3c,0x02,0xc0,0x1e,0x00,0xf0,
0x0b,0x00,0xc0,0x0f,0x01,0x90,0x1b,0x01,0xd0,0x29,0x03,0xb0,0x4e,0x04,0xb0,0x4a,
0x05,0xa0,0x5e,0x04,0xe0,0x3c,0x02,0xd0,0x29,0x02,0xa0,0x2a,0x01,0xb0,0x19,0x02,
0x80,0x37,0x03,0x70,0x38,0x04,0x70,0x57,0x06,0x90,0x9a,0x0a,0xa0,0x8b,0x08,0xc0,
0xbe,0x0f,0xf0,0xff,0x0c,0xe0,0x8c,0x06,0xe0,0x7c,0x06,0xe0,0x4e,0x03,0xd0,0x2e,
0x02,0xc0,0x2e,0x02,0xb0,0x29,0x02,0x80,0x27,0x02,0x60,0x26,0x03,0x50,0x35,0x02,
0x60,0x27,0x02,0x90,0x29,0x02,0xb0,0x39,0x03,0x90,0x3a,0x03,0x90,0x39,0x03,0x80,
0x3b,0x04,0xa0,0x49,0x03,0xc0,0x3b,0x03,0xb0,0x3b,0x03,0xc0,0x3d,0x04,0xa0,0x5a,
0x07,0xa0,0x9c,0x0a,0xe0,0xae,0x0c,0xe0,0xfe,0x0f,0xe0,0xdc,0x09,0xb0,0x7b,0x05,
0xb0,0x49,0x03,0x90,0x2c,0x02,0x90,0x28,0x02,0x80,0x29,0x02,0x80,0x1b,0x01,0xa0,
0x1c,0x01,0xd0,0x1a,0x01,0x90,0x1d,0x02,0xa0,0x38,0x03,0xa0,0x3c,0x03,0xd0,0x3d,
0x03,0xb0,0x3b,0x03,0xc0,0x3d,0x03,0xe0,0x3d,0x03,0xb0,0x3a,0x03,0xa0,0x3c,0x03,
0x71,0x38,0x13,0xa1,0x4a,0x15,0xc1,0x6d,0x17,0xc1,0x8d,0x1b,0xc1,0xad,0x16,0xe1,
0x4b,0x13,0xc1,0x2f,0x11,0xf1,0x0e,0x10,0x81,0x08,0x10,0x91,0x08,0x10,0xd0,0x0c,
0x01,0x80,0x1c,0x01,0xe0,0x28,0x03,0x80,0x49,0x05,0xa0,0x5b,0x05,0xa0,0x59,0x05,
0x80,0x48,0x03,0x90,0x2b,0x02,0x90,0x28,0x02,0x90,0x29,0x02,0xb0,0x39,0x04,0x80,
0x49,0x04,0xb0,0x5c,0x07,0xb0,0x9c,0x0e,0xd0,0xfe,0x0f,0xc0,0xfe,0x0f,0xe0,0xcc,
0x08,0xc0,0x7b,0x05,0xa0,0x3a,0x02,0xb0,0x2d,0x02,0xa0,0x1e,0x01,0xc0,0x28,0x02,
0xa0,0x29,0x01,0xc0,0x1b,0x02,0x90,0x38,0x02,0xc0,0x2a,0x02,0xc0,0x3a,0x03,0xc0,
0x39,0x02,0xb0,0x2a,0x02,0xa0,0x2b,0x02,0xd0,0x39,0x03,0xa0,0x3b,0x03,0xd0,0x4b,
0x04,0xd0,0x4c,0x04,0xe0,0x5b,0x05,0xa0,0x4e,0x05,0xd0,0x8c,0x0b,0xd0,0x9c,0x08,
0xb0,0x8d,0x0a,0xc0,0xbc,0x07,0xd0,0x4e,0x03,0xe0,0x3c,0x02,0xe0,0x1e,0x01,0xa0,
0x1c,0x01,0xf0,0x2b,0x03,0x90,0x39,0x02,0xb0,0x2c,0x03,0xb0,0x4b,0x03,0xe0,0x2d,
0x02,0x90,0x2a,0x02,0xc0,0x29,0x01,0xa0,0x18,0x01,0xc0,0x2a,0x03,0x90,0x3a,0x04,
0x90,0x69,0x07,0xb0,0x7d,0x06,0xe0,0x6c,0x06,0xe0,0x6e,0x05,0xb0,0x4a,0x04,0x90,
0x4d,0x05,0xd0,0x5c,0x04,0xd0,0x4b,0x04,0xe0,0x5e,0x06,0xc0,0x5c,0x04,0xc0,0x4c,
0x04,0xe0,0x4c,0x03,0xb0,0x2e,0x02,0xd0,0x2b,0x02,0x90,0x1d,0x01,0x90,0x1a,0x02,
0x90,0x39,0x03,0x80,0x29,0x02,0xa0,0x38,0x03,0xb0,0x3d,0x04,0xa0,0x4b,0x04,0x90,
0x3a,0x02,0xc0,0x2a,0x02,0xa0,0x2c,0x02,0xf0,0x3b,0x04,0xc0,0x5e,0x07,0xb0,0x8a,
0x07,0xb0,0x7b,0x07,0xb0,0x7c,0x08,0xc0,0x9c,0x07,0xb0,0x5b,0x05,0xa0,0x5c,0x05,
0xa0,0x48,0x03,0x90,0x39,0x03,0xa0,0x3c,0x03,0xb0,0x3a,0x03,0x90,0x38,0x02,0x90,
0x1b,0x01,0xa0,0x1e,0x02,0x90,0x29,0x02,0x80,0x2b,0x03,0x80,0x38,0x02,0xb0,0x2a,
0x02,0xb0,0x2d,0x02,0xe0,0x2c,0x02,0xb0,0x2c,0x03,0xb0,0x4d,0x05,0xe0,0x5e,0x05,
0xd0,0x6b,0x08,0xd0,0x9e,0x08,0xc0,0x6e,0x06,0xd0,0x6e,0x06,0xc0,0x5d,0x04,0xd0,
0x4c,0x05,0xe0,0x6e,0x05,0xe0,0x4d,0x04,0xc0,0x4e,0x04,0xc0,0x3e,0x02,0xf0,0x2c,
0x02,0xb0,0x2a,0x02,0x90,0x28,0x01,0xc0,0x19,0x01,0xa0,0x1c,0x01,0xd0,0x1e,0x02,
0x80,0x29,0x02,0xa0,0x2b,0x02,0xc0,0x2b,0x02,0xa0,0x2a,0x02,0xc0,0x2e,0x02,0xe0,
0x2e,0x03,0xa0,0x4b,0x06,0xa0,0x7b,0x08,0xb0,0xad,0x0f,0xd0,0xff,0x0a,0xf0,0x7f,
0x07,0xf0,0x7f,0x06,0xf0,0x4e,0x03,0xd0,0x3d,0x03,0xf0,0x3e,0x03,0xe0,0x4e,0x06,
0xd0,0x6e,0x05,0xb0,0x4a,0x04,0xc0,0x5b,0x04,0xc0,0x2e,0x01,0xe0,0x1c,0x01,0xc0,
0x19,0x01,0x70,0x17,0x01,0x90,0x1c,0x01,0xe0,0x1e,0x01,0xc0,0x1c,0x01,0xe0,0x1f,
0x01,0xf0,0x1f,0x02,0xb0,0x38,0x03,0x90,0x3b,0x04,0xa0,0x5a,0x06,0xa0,0x7b,0x08,
0xc0,0xab,0x0a,0xc0,0xbb,0x0b,0xb0,0x9b,0x07,0xc0,0x7c,0x07,0xd0,0x7b,0x06,0xb0,
0x5c,0x05,0xb0,0x5a,0x05,0x90,0x49,0x03,0x80,0x38,0x04,0x90,0x67,0x05,0x70,0x47,
0x04,0x70,0x48,0x04,0x90,0x48,0x03,0x80,0x37,0x03,0x80,0x3b,0x03,0xa0,0x29,0x01,
0xc0,0x1c,0x01,0xf0,0x1e,0x01,0xa0,0x0f,0x00,0xc0,0x0d,0x01,0x80,0x1a,0x01,0xc0,
0x2a,0x03,0xd0,0x5b,0x06,0xd0,0x8e,0x0c,0xe0,0xee,0x0d,0xe0,0xde,0x0e,0xe0,0xae,
0x06,0xe0,0x5a,0x04,0xa0,0x3e,0x03,0xb0,0x39,0x03,0x90,0x3b,0x04,0xa0,0x5a,0x05,
0x90,0x4a,0x03,0xe0,0x3e,0x04,0xb0,0x4c,0x04,0xc0,0x4a,0x04,0xa0,0x5b,0x06,0xc0,
0x5a,0x03,0xb0,0x38,0x03,0xa0,0x3a,0x02,0xa0,0x1f,0x01,0xf0,0x1e,0x01,0x90,0x17,
0x01,0x80,0x1d,0x01,0xe0,0x1b,0x01,0xe0,0x2e,0x03,0xd0,0x3e,0x03,0xe0,0x4d,0x05,
0xe0,0x6d,0x06,0xb0,0x5a,0x05,0x90,0x59,0x06,0x80,0x59,0x04,0xa0,0x4a,0x04,0xa0,
0x4a,0x04,0xd0,0x4e,0x04,0xb0,0x4b,0x05,0xa0,0x6a,0x06,0xb0,0x5b,0x04,0xd0,0x4b,
0x03,0xe0,0x3d,0x03,0xc0,0x39,0x03,0x80,0x37,0x03,0x70,0x46,0x04,0x60,0x47,0x06,
0x70,0xc8,0x0f,0x90,0xc9,0x0b,0x90,0xa9,0x07,0x90,0x4b,0x03,0xa0,0x2c,0x01,0xc0,
0x0b,0x00,0x70,0x07,0x00,0x80,0x07,0x00,0x70,0x17,0x02,0x70,0x29,0x02,0xb0,0x3c,
0x06,0xa0,0xba,0x0e,0xa0,0xcb,0x0e,0xc0,0xdc,0x08,0xc0,0x6d,0x06,0xe0,0x5c,0x03,
0xc0,0x2a,0x02,0xa0,0x2f,0x02,0xf0,0x2d,0x02,0xc0,0x3a,0x04,0xa0,0x6a,0x08,0xb0,
0x8d,0x07,0xc0,0x7c,0x08,0xe0,0xbd,0x08,0xe0,0x5b,0x03,0xc0,0x2f,0x01,0xf0,0x1b,
0x02,0x80,0x4c,0x06,0xd0,0x5c,0x06,0xc0,0x8e,0x0a,0xc0,0x6b,0x05,0x90,0x4a,0x03,
0x80,0x17,0x00,0x60,0x04,0x01,0x20,0x02,0x00,0x10,0x03,0x00,0x50,0x09,0x01,0x51,
0x28,0x14,0x72,0x78,0x2a,0x73,0xea,0x3f,0xf3,0xef,0x3a,0xe3,0x7b,0x34,0x93,0x1a,
0x30,0x73,0x05,0x30,0x43,0x02,0x40,0x15,0x02,0x41,0x24,0x21,0x62,0x17,0x31,0x96,
0x19,0x81,0xa9,0x1c,0xd1,0xef,0x1e,0xd1,0xce,0x0f,0x70,0xe4,0x0b,0x20,0x91,0x09,
0x10,0xa2,0x08,0x30,0x82,0x08,0x20,0xa4,0x09,0x40,0xa3,0x08,0x30,0x84,0x09,0x30,
0xb1,0x0b,0x00,0x90,0x08,0x00,0x60,0x04,0x00,0x30,0x04,0x01,0x30,0x14,0x02,0x41,
0x34,0x23,0x52,0x36,0x43,0x6b,0x37,0xf4,0x7b,0x48,0xa4,0x9f,0x4b,0xf3,0xd5,0x3b,
0x32,0xc2,0x29,0x12,0x80,0x29,0x01,0x90,0x0c,0x00,0x80,0x09,0x00,0xf1,0x0e,0x20,
0xd3,0x0b,0x50,0xd7,0x1a,0xe1,0xcf,0x1d,0xf1,0xef,0x1b,0x91,0xb5,0x19,0x31,0x71,
0x17,0x10,0x91,0x0d,0x20,0xc2,0x09,0x10,0x92,0x09,0x40,0x94,0x09,0x30,0x83,0x08,
0x30,0x82,0x09,0x10,0x91,0x06,0x10,0x50,0x05,0x00,0x40,0x04,0x00,0x50,0x06,0x10,
0x62,0x16,0x41,0x74,0x19,0x51,0xb8,0x2a,0xf3,0xae,0x3b,0xa2,0xd9,0x2c,0xd2,0xc9,
0x2a,0x42,0x92,0x2a,0x12,0xa0,0x29,0x01,0xa0,0x1a,0x01,0x90,0x0f,0x00,0xf1,0x0f,
0x20,0xf3,0x0e,0x40,0xb6,0x0b,0xd0,0xcf,0x0c,0xb0,0xda,0x0d,0x90,0xc6,0x0c,0x40,
0xc3,0x0b,0x20,0xb1,0x0c,0x10,0xa2,0x08,0x30,0x95,0x0a,0x50,0x96,0x09,0xa0,0x97,
0x09,0x40,0x94,0x08,0x50,0x73,0x07,0x10,0x71,0x05,0x10,0x51,0x04,0x00,0x50,0x05,
0x00,0x60,0x08,0x01,0x61,0x16,0x21,0x72,0x19,0x31,0x95,0x28,0xb2,0x9f,0x2a,0xb3,
0x9d,0x3a,0xe3,0xb8,0x3b,0x43,0xb3,0x2e,0x22,0xd1,0x1f,0x01,0xc0,0x0f,0x00,0xe0,
0x09,0x00,0xb1,0x09,0x20,0x93,0x09,0x50,0x99,0x09,0xd0,0xab,0x0a,0x80,0xa8,0x0a,
0x80,0x96,0x08,0x40,0x83,0x08,0x20,0xa2,0x08,0x20,0x71,0x09,0x10,0xa2,0x0b,0x30,
0xd5,0x0b,0x90,0xd9,0x0d,0x90,0xef,0x0d,0xd0,0xd6,0x0c,0x40,0xb4,0x0b,0x30,0xa2,
0x08,0x10,0x70,0x09,0x00,0x60,0x05,0x00,0x40,0x04,0x00,0x50,0x07,0x10,0x83,0x0a,
0x50,0xc6,0x19,0x92,0x9f,0x38,0xf3,0xaf,0x2c,0xe2,0xbc,0x29,0x91,0xb4,0x1b,0x21,
0xa1,0x19,0x01,0x90,0x0c,0x00,0xa0,0x0b,0x00,0xb1,0x08,0x20,0xb4,0x0b,0x50,0xc6,
0x0b,0x90,0xcf,0x0c,0xf0,0xcd,0x0b,0x90,0xa6,0x0a,0x50,0xa3,0x17,0x21,0x81,0x17,
0x01,0x80,0x18,0x01,0xb0,0x28,0x02,0x90,0x2c,0x12,0xd3,0x2e,0x72,0xdf,0x2b,0xf1,
0xda,0x1a,0xb1,0x8a,0x16,0x51,0x53,0x06,0x20,0x41,0x03,0x00,0x30,0x02,0x00,0x20,
0x02,0x00,0x21,0x02,0x30,0x26,0x02,0x61,0x29,0x22,0xf3,0x2f,0x42,0xc6,0x2f,0x82,
0xfc,0x2d,0xa2,0xa8,0x2a,0x72,0x99,0x16,0xf0,0x4b,0x03,0x80,0x28,0x01,0x80,0x17,
0x01,0x90,0x1a,0x01,0xb0,0x2d,0x04,0xe0,0x6c,0x08,0xc0,0xee,0x0f,0xf0,0xef,0x0f,
0xe0,0xfc,0x08,0xd0,0x4e,0x03,0xb0,0x2e,0x01,0xe0,0x0f,0x00,0xd0,0x18,0x02,0x70,
0x2a,0x03,0x90,0x4b,0x04,0xe0,0x4b,0x04,0xb0,0x5b,0x07,0xd0,0xab,0x07,0xa0,0x6a,
0x06,0x90,0x49,0x03,0x70,0x28,0x01,0x90,0x08,0x00,0x60,0x07,0x00,0x60,0x04,0x00,
0x40,0x07,0x01,0x80,0x1e,0x01,0x81,0x2a,0x14,0xc1,0x6e,0x19,0xd1,0xcf,0x1f,0xf1,
0xff,0x1f,0xf1,0xff,0x18,0xd1,0x4c,0x13,0xc1,0x3a,0x12,0xa1,0x19,0x11,0xe0,0x1d,
0x01,0xd0,0x1e,0x01,0xf0,0x1f,0x02,0xa0,0x3b,0x05,0xb0,0x7b,0x09,0xa0,0xaa,0x0c,
0xa0,0xba,0x08,0xb0,0x6b,0x05,0xa0,0x4a,0x03,0x90,0x29,0x01,0xb0,0x1a,0x01,0xb0,
0x1b,0x01,0xa0,0x1f,0x02,0xb0,0x39,0x03,0xc0,0x4a,0x06,0xa0,0x9e,0x0f,0xf0,0xff,
0x09,0xf0,0x8e,0x06,0xd0,0x4a,0x02,0x90,0x18,0x00,0x80,0x05,0x00,0x40,0x04,0x00,
0x40,0x03,0x00,0x40,0x16,0x02,0x60,0x36,0x05,0x41,0x95,0x1c,0x71,0xec,0x1f,0x92,
0xfa,0x2f,0x92,0xe8,0x2a,0xd1,0x69,0x13,0x91,0x29,0x13,0xf0,0x3f,0x02,0xe0,0x2b,
0x03,0xa0,0x3a,0x03,0x90,0x3c,0x04,0xa0,0x5a,0x06,0xb0,0x7c,0x07,0xc0,0x6c,0x06,
0xc0,0x7c,0x07,0xa0,0x5a,0x04,0xa0,0x4c,0x04,0xa0,0x39,0x02,0x90,0x1c,0x01,0x80,
0x18,0x01,0x90,0x18,0x01,0x60,0x17,0x02,0x60,0x28,0x02,0x80,0x2a,0x03,0x80,0x3b,
0x03,0xe0,0x4b,0x06,0xc0,0x8d,0x07,0xd0,0x8d,0x09,0xd0,0x6c,0x04,0xa0,0x3a,0x02,
0xc0,0x1c,0x00,0xf0,0x0f,0x00,0xf0,0x0a,0x00,0x90,0x0f,0x01,0xe0,0x2e,0x03,0x71,
0x49,0x15,0xe1,0x7a,0x2c,0x93,0xfb,0x3f,0xd2,0xca,0x2e,0x82,0xc7,0x28,0x81,0x4e,
0x02,0xa0,0x19,0x00,0xb0,0x06,0x00,0x50,0x05,0x00,0x60,0x09,0x01,0xa0,0x2e,0x03,
0x91,0x59,0x18,0xb1,0xfe,0x1f,0xf1,0xfc,0x1b,0x91,0x8f,0x05,0xc0,0x3a,0x02,0x80,
0x17,0x00,0x80,0x06,0x00,0x60,0x06,0x00,0x80,0x19,0x02,0xb0,0x3d,0x05,0xd0,0x9d,
0x0e,0xf0,0xff,0x0f,0xe0,0xdd,0x0b,0xb0,0x7c,0x05,0xa0,0x3b,0x02,0xe0,0x2d,0x03,
0xa0,0x39,0x03,0x70,0x38,0x03,0x80,0x38,0x03,0x90,0x48,0x03,0x80,0x29,0x02,0x80,
0x28,0x02,0x60,0x18,0x01,0x90,0x1d,0x01,0xf0,0x2e,0x03,0xd0,0x4b,0x05,0xa0,0x6d,
0x0a,0xd0,0xff,0x0f,0xf0,0xfe,0x0f,0xd0,0xbd,0x07,0xc0,0x5b,0x03,0xc0,0x1e,0x00,
0xf0,0x0f,0x00,0xf0,0x0e,0x00,0xe0,0x1a,0x02,0xc0,0x4b,0x07,0xc0,0xac,0x0c,0xd0,
0xe7,0x1f,0x81,0xf8,0x1b,0x71,0x8c,0x06,0xa0,0x4a,0x03,0x90,0x28,0x01,0x80,0x0a,
0x00,0x90,0x0c,0x00,0xf0,0x19,0x02,0x80,0x3a,0x05,0x90,0x6a,0x08,0xa0,0xbb,0x0d,
0xa0,0x8a,0x07,0xa0,0x7a,0x06,0x90,0x49,0x03,0xa0,0x2d,0x02,0x90,0x2b,0x03,0xa0,
0x39,0x02,0xb0,0x3a,0x04,0xa0,0x49,0x03,0xc0,0x3d,0x03,0xb0,0x2b,0x02,0x80,0x27,
0x02,0x60,0x17,0x01,0x60,0x18,0x02,0x70,0x28,0x02,0xb0,0x3c,0x04,0xc0,0x5b,0x06,
0xc0,0x8d,0x0b,0xd0,0xbe,0x0a,0xe0,0xae,0x0a,0xd0,0x7d,0x05,0xd0,0x4c,0x03,0xb0,
0x2d,0x02,0xb0,0x2c,0x02,0xb0,0x2e,0x03,0xe0,0x4e,0x05,0xd0,0x6c,0x06,0xc0,0x6e,
0x07,0xe0,0x8c,0x07,0xc0,0x6b,0x05,0xa0,0x49,0x03,0x80,0x29,0x01,0xc0,0x1b,0x01,
0xd0,0x1e,0x01,0xe0,0x2a,0x03,0xa0,0x3b,0x03,0x90,0x48,0x05,0x80,0x49,0x03,0x90,
0x37,0x03,0x70,0x46,0x04,0x60,0x36,0x02,0x80,0x2a,0x03,0x90,0x3c,0x03,0xd0,0x3c,
0x04,0xa0,0x5d,0x07,0xe0,0x7c,0x06,0xa0,0x6a,0x06,0xb0,0x5c,0x04,0xa0,0x3a,0x02,
0xb0,0x1f,0x01,0xe0,0x1c,0x01,0x90,0x18,0x01,0xa0,0x28,0x02,0xa0,0x2d,0x03,0xe0,
0x5d,0x07,0xd0,0x8d,0x09,0xd0,0xcd,0x0f,0xd0,0xed,0x09,0xd0,0x7e,0x06,0xe0,0x5d,
0x04,0xa0,0x39,0x02,0x90,0x1c,0x01,0xb0,0x1c,0x01,0xa0,0x1a,0x02,0x90,0x3a,0x04,
0x90,0x4b,0x05,0xb0,0x7b,0x08,0xc0,0x9d,0x09,0xe0,0x7d,0x06,0xb0,0x6a,0x05,0xb0,
0x3e,0x02,0xb0,0x29,0x02,0x90,0x28,0x01,0xc0,0x1d,0x01,0xf0,0x1d,0x01,0xa0,0x1c,
0x02,0x80,0x2a,0x03,0x90,0x49,0x04,0xb0,0x4c,0x05,0xa0,0x5a,0x04,0xc0,0x4a,0x04,
0xc0,0x4c,0x04,0xb0,0x4b,0x04,0xa0,0x4a,0x04,0x90,0x49,0x04,0x90,0x48,0x04,0x90,
0x59,0x06,0x80,0x59,0x04,0xa0,0x4a,0x04,0xa0,0x3a,0x02,0xd0,0x2d,0x02,0xe0,0x2a,
0x02,0x90,0x2c,0x02,0xe0,0x2b,0x02,0xa0,0x2e,0x03,0xa0,0x3b,0x03,0xd0,0x49,0x04,
0xb0,0x4e,0x05,0xc0,0x6a,0x06,0xa0,0x5b,0x05,0xa0,0x5c,0x05,0xb0,0x4b,0x04,0xa0,
0x4a,0x04,0xa0,0x4a,0x04,0x90,0x3c,0x03,0xc0,0x4a,0x04,0xc0,0x4a,0x04,0xa0,0x4c,
0x04,0xe0,0x4c,0x04,0xa0,0x4b,0x05,0x90,0x49,0x03,0xa0,0x3a,0x03,0xa0,0x39,0x03,
0x80,0x2a,0x02,0x80,0x28,0x02,0xa0,0x2d,0x02,0xc0,0x2a,0x02,0xa0,0x3a,0x04,0x90,
0x47,0x03,0x80,0x3a,0x04,0x90,0x49,0x03,0xd0,0x3e,0x04,0xa0,0x4b,0x04,0xb0,0x4a,
0x04,0x90,0x49,0x04,0xb0,0x4e,0x04,0xd0,0x4d,0x05,0xb0,0x69,0x05,0x90,0x4a,0x04,
0xa0,0x4b,0x04,0xb0,0x3e,0x02,0xd0,0x29,0x02,0xb0,0x2b,0x01,0xe0,0x1a,0x01,0xd0,
0x29,0x02,0xb0,0x38,0x03,0xa0,0x3c,0x04,0xc0,0x6c,0x06,0xc0,0x5a,0x04,0xe0,0x5c,
0x05,0xc0,0x4d,0x03,0xd0,0x3b,0x03,0xe0,0x3e,0x03,0xe0,0x3f,0x04,0xe0,0x5e,0x06,
0xe0,0x7d,0x08,0xc0,0x9c,0x09,0xd0,0x8d,0x06,0xd0,0x5c,0x05,0xa0,0x4c,0x03,0xb0,
0x29,0x01,0xa0,0x19,0x01,0xa0,0x19,0x01,0x80,0x17,0x02,0x60,0x37,0x03,0x90,0x3a,
0x03,0xc0,0x4c,0x05,0xa0,0x59,0x04,0xa0,0x3c,0x02,0xf0,0x2c,0x02,0xc0,0x2b,0x02,
0x90,0x28,0x02,0xa0,0x2d,0x02,0xe0,0x39,0x04,0x90,0x59,0x05,0xa0,0x5b,0x06,0xc0,
0x7c,0x06,0xd0,0x5e,0x04,0xf0,0x4e,0x04,0xe0,0x4c,0x03,0xc0,0x2e,0x02,0xf0,0x4b,
0x04,0xb0,0x3b,0x03,0xd0,0x4e,0x05,0xc0,0x5b,0x05,0xa0,0x59,0x04,0x90,0x49,0x04,
0x90,0x39,0x02,0x90,0x28,0x02,0x80,0x28,0x02,0x70,0x27,0x02,0x90,0x38,0x03,0xa0,
0x4a,0x06,0x90,0x79,0x07,0x90,0x7a,0x08,0xa0,0x7a,0x05,0xc0,0x4e,0x04,0xd0,0x4a,
0x03,0xe0,0x3d,0x03,0xc0,0x3a,0x03,0x90,0x3c,0x04,0xb0,0x4c,0x04,0x90,0x59,0x06,
0xa0,0x5c,0x04,0xc0,0x3f,0x03,0xd0,0x2f,0x02,0xf0,0x2d,0x01,0xf0,0x1b,0x01,0xb0,
0x1b,0x01,0x90,0x1c,0x02,0xa0,0x3b,0x04,0x90,0x58,0x06,0x80,0x79,0x08,0x90,0x6b,
0x05,0xa0,0x4b,0x04,0x90,0x47,0x03,0x80,0x29,0x02,0x70,0x28,0x02,0xa0,0x2c,0x02,
0xd0,0x2f,0x03,0xe0,0x5a,0x06,0xb0,0x6c,0x07,0xa0,0x8a,0x09,0x90,0x7a,0x05,0xa0,
0x49,0x03,0xb0,0x39,0x02,0xc0,0x29,0x02,0x80,0x27,0x02,0x80,0x29,0x02,0xb0,0x2f,
0x03,0xe0,0x4d,0x05,0xc0,0x6d,0x08,0xe0,0xae,0x09,0xe0,0x7e,0x06,0xd0,0x6a,0x05,
0xa0,0x4b,0x03,0xa0,0x2b,0x02,0xa0,0x2b,0x02,0xd0,0x2e,0x02,0xf0,0x3e,0x04,0xe0,
0x5d,0x05,0xd0,0x5d,0x05,0xd0,0x5a,0x04,0xb0,0x3e,0x03,0x90,0x2b,0x01,0xf0,0x1e,
0x01,0xa0,0x18,0x01,0x90,0x1b,0x01,0xe0,0x1f,0x02,0xd0,0x3a,0x03,0xe0,0x4c,0x05,
0xc0,0x6b,0x06,0xb0,0x5d,0x05,0xa0,0x4a,0x03,0xb0,0x2f,0x02,0xd0,0x2b,0x02,0x90,
0x29,0x02,0xb0,0x38,0x03,0xa0,0x3e,0x04,0xc0,0x5b,0x06,0xa0,0x6b,0x05,0xd0,0x5b,
0x05,0xa0,0x4d,0x04,0xa0,0x49,0x04,0x90,0x3e,0x03,0xe0,0x3f,0x04,0xc0,0x4e,0x05,
0xb0,0x5c,0x05,0xe0,0x6b,0x06,0xb0,0x5d,0x05,0xa0,0x4c,0x03,0xf0,0x3e,0x03,0xa0,
0x2b,0x02,0x90,0x29,0x02,0x90,0x28,0x02,0x70,0x28,0x02,0xa0,0x38,0x03,0x90,0x3b,
0x03,0xe0,0x4c,0x05,0xb0,0x5d,0x05,0xc0,0x5a,0x04,0xe0,0x4c,0x04,0x90,0x39,0x03,
0x80,0x38,0x02,0xa0,0x29,0x02,0x90,0x2a,0x02,0xa0,0x2b,0x03,0x90,0x48,0x04,0xa0,
0x4b,0x04,0xc0,0x5a,0x05,0xb0,0x5e,0x05,0xe0,0x5b,0x04,0xb0,0x4a,0x04,0xc0,0x4b,
0x03,0xc0,0x3b,0x04,0x90,0x4a,0x04,0xa0,0x4a,0x04,0xa0,0x49,0x04,0x90,0x4a,0x03,
0xe0,0x3a,0x03,0x90,0x3a,0x03,0x90,0x2d,0x02,0xb0,0x38,0x03,0xa0,0x3a,0x03,0x90,
0x3b,0x04,0x90,0x4b,0x04,0x90,0x3a,0x03,0x90,0x39,0x03,0x80,0x2b,0x02,0xa0,0x2c,
0x02,0xf0,0x3b,0x03,0xe0,0x3e,0x04,0xa0,0x5c,0x06,0xe0,0x7b,0x07,0xb0,0x8b,0x09,
0xb0,0x7c,0x05,0xc0,0x4c,0x04,0xa0,0x48,0x04,0x70,0x38,0x03,0x70,0x37,0x03,0x80,
0x39,0x03,0x90,0x3a,0x04,0x90,0x4c,0x04,0xc0,0x4b,0x04,0xb0,0x4d,0x04,0xc0,0x4b,
0x04,0xa0,0x49,0x04,0x90,0x48,0x04,0x70,0x38,0x02,0xc0,0x2d,0x02,0xd0,0x2b,0x01,
0xf0,0x1e,0x01,0xe0,0x1f,0x01,0xf0,0x1d,0x01,0xf0,0x2a,0x02,0xe0,0x2e,0x02,0xe0,
0x3a,0x03,0xe0,0x4b,0x04,0xe0,0x4f,0x05,0xe0,0x6d,0x07,0xc0,0x7d,0x07,0xc0,0x7b,
0x07,0xb0,0x7a,0x06,0xa0,0x5b,0x05,0xb0,0x5a,0x04,0xb0,0x3e,0x03,0xd0,0x3d,0x03,
0xe0,0x3d,0x03,0xc0,0x3e,0x04,0xb0,0x4e,0x04,0xd0,0x4c,0x04,0xb0,0x4a,0x04,0x80,
0x47,0x03,0x80,0x2a,0x02,0x90,0x29,0x02,0x80,0x1c,0x01,0xd0,0x29,0x02,0xb0,0x2e,
0x02,0xf0,0x3c,0x04,0xa0,0x4b,0x04,0xb0,0x4b,0x04,0xc0,0x4b,0x04,0x90,0x3b,0x03,
0x90,0x38,0x03,0x80,0x38,0x03,0x70,0x37,0x03,0x80,0x3a,0x03,0xb0,0x3c,0x04,0xa0,
0x5a,0x05,0xc0,0x6a,0x06,0xa0,0x5b,0x05,0xa0,0x5b,0x04,0xe0,0x3f,0x03,0xe0,0x3f,
0x03,0xf0,0x3e,0x03,0xb0,0x3b,0x03,0xd0,0x3e,0x03,0xe0,0x49,0x04,0xb0,0x4a,0x04,
0x90,0x3e,0x03,0xd0,0x3c,0x03,0xe0,0x3e,0x03,0xc0,0x3a,0x03,0xb0,0x3d,0x03,0xc0,
0x3a,0x03,0xa0,0x48,0x04,0x90,0x49,0x04,0x90,0x49,0x04,0xb0,0x4a,0x04,0xa0,0x49,
0x04,0x90,0x3e,0x03,0xc0,0x3a,0x03,0x90,0x39,0x03,0x90,0x38,0x03,0x80,0x38,0x03,
0x70,0x38,0x03,0x90,0x39,0x03,0xb0,0x3e,0x04,0xb0,0x4c,0x04,0xa0,0x4a,0x04,0xb0,
0x4c,0x04,0xb0,0x49,0x03,0xe0,0x3d,0x03,0xd0,0x3b,0x03,0xb0,0x3b,0x03,0xc0,0x49,
0x04,0xa0,0x4a,0x04,0xb0,0x4c,0x04,0xd0,0x4d,0x04,0xc0,0x4a,0x04,0x90,0x49,0x03,
0xa0,0x2e,0x02,0xc0,0x2c,0x02,0xd0,0x2c,0x02,0xa0,0x2b,0x02,0xe0,0x39,0x03,0xa0,
0x3b,0x03,0xe0,0x3f,0x04,0xe0,0x4e,0x04,0xb0,0x4a,0x05,0x90,0x68,0x05,0x90,0x4a,
0x04,0xa0,0x4a,0x04,0xc0,0x4c,0x04,0xc0,0x4e,0x05,0xb0,0x5c,0x04,0xe0,0x4c,0x04,
0xb0,0x3f,0x03,0xe0,0x3d,0x03,0xa0,0x39,0x03,0x90,0x38,0x03,0x80,0x38,0x03,0x90,
0x3b,0x04,0x90,0x4a,0x04,0xb0,0x4a,0x04,0xa0,0x49,0x03,0xe0,0x3b,0x02,0xf0,0x2e,
0x02,0xb0,0x29,0x02,0x80,0x29,0x02,0x90,0x29,0x02,0xa0,0x38,0x03,0x90,0x3a,0x03,
0xc0,0x49,0x04,0x90,0x49,0x04,0x90,0x49,0x04,0x90,0x3c,0x03,0xc0,0x3c,0x03,0xd0,
0x49,0x04,0xa0,0x4c,0x05,0xa0,0x5c,0x06,0xa0,0x7a,0x07,0xb0,0x6e,0x06,0xd0,0x6e,
0x06,0xd0,0x5d,0x04,0xd0,0x3f,0x03,0xd0,0x3a,0x02,0xd0,0x2a,0x02,0xa0,0x2b,0x02,
0xd0,0x2f,0x03,0xa0,0x3d,0x04,0xa0,0x4b,0x04,0xb0,0x4b,0x04,0xb0,0x4b,0x04,0x90,
0x3b,0x02,0xf0,0x2d,0x02,0xa0,0x29,0x02,0x80,0x29,0x02,0xa0,0x38,0x03,0xa0,0x3b,
0x03,0xc0,0x4a,0x05,0x90,0x5a,0x04,0xe0,0x4e,0x04,0xe0,0x4d,0x04,0xa0,0x3c,0x02,
0xf0,0x2e,0x02,0xe0,0x2c,0x02,0xa0,0x2a,0x02,0xb0,0x38,0x04,0x70,0x48,0x04,0x90,
0x4c,0x05,0xa0,0x5b,0x05,0xb0,0x5a,0x05,0xb0,0x5d,0x05,0xb0,0x4d,0x04,0xb0,0x4b,
0x04,0xa0,0x3d,0x03,0xc0,0x3c,0x03,0xb0,0x3b,0x03,0xc0,0x3b,0x03,0x90,0x3b,0x03,
0xd0,0x3c,0x03,0xb0,0x3c,0x04,0x90,0x4a,0x04,0xa0,0x49,0x04,0xa0,0x4c,0x04,0xd0,
0x4c,0x04,0xc0,0x4b,0x04,0xa0,0x3d,0x03,0xb0,0x39,0x02,0xd0,0x2a,0x02,0xa0,0x2a,
0x02,0xa0,0x2c,0x03,0x80,0x3a,0x03,0xb0,0x49,0x04,0xb0,0x4e,0x05,0xb0,0x5d,0x06,
0xa0,0x6a,0x06,0x90,0x59,0x04,0xa0,0x3e,0x03,0xa0,0x38,0x02,0xb0,0x2a,0x02,0xa0,
0x2a,0x02,0xa0,0x2a,0x02,0xa0,0x2b,0x03,0x90,0x3b,0x03,0xc0,0x3b,0x03,0xc0,0x4a,
0x04,0xb0,0x4b,0x04,0xb0,0x4b,0x04,0xd0,0x4e,0x04,0xe0,0x4d,0x04,0xd0,0x4c,0x04,
0xb0,0x4b,0x04,0xa0,0x57,0x05,0x70,0x57,0x04,0x90,0x3c,0x03,0xc0,0x3d,0x03,0xd0,
0x3d,0x03,0xe0,0x4b,0x04,0xe0,0x4e,0x04,0xd0,0x4d,0x04,0xe0,0x4d,0x04,0xb0,0x49,
0x03,0xe0,0x3d,0x03,0xc0,0x3a,0x02,0xd0,0x2a,0x02,0x90,0x2a,0x02,0xb0,0x2b,0x02,
0xe0,0x2f,0x03,0xb0,0x49,0x04,0xa0,0x4a,0x04,0x90,0x4a,0x04,0xa0,0x4a,0x03,0xe0,
0x3a,0x03,0x90,0x38,0x03,0x80,0x2d,0x02,0xa0,0x2b,0x02,0xe0,0x3a,0x03,0xc0,0x3e,
0x03,0xf0,0x4e,0x05,0xc0,0x6a,0x06,0xa0,0x6a,0x06,0x90,0x5a,0x04,0xc0,0x4a,0x03,
0xd0,0x3a,0x03,0x80,0x38,0x03,0x70,0x37,0x03,0x70,0x38,0x03,0xa0,0x3c,0x04,0x90,
0x58,0x05,0x90,0x5a,0x05,0xb0,0x5d,0x05,0xe0,0x5d,0x05,0xc0,0x5a,0x04,0xd0,0x4b,
0x03,0xe0,0x2f,0x02,0xc0,0x2b,0x02,0xa0,0x29,0x02,0x90,0x2b,0x02,0xd0,0x2d,0x03,
0x80,0x47,0x04,0x80,0x49,0x04,0xb0,0x4c,0x04,0xe0,0x4d,0x04,0xc0,0x4a,0x04,0x90,
0x49,0x04,0x90,0x49,0x04,0xa0,0x4b,0x04,0xb0,0x4a,0x04,0x90,0x3d,0x03,0xc0,0x3a,
0x03,0x90,0x38,0x03,0x80,0x38,0x03,0x80,0x39,0x03,0xa0,0x3b,0x03,0xc0,0x3e,0x04,
0xb0,0x59,0x06,0x80,0x68,0x05,0xa0,0x4e,0x04,0xd0,0x4b,0x04,0xa0,0x3e,0x03,0xb0,
0x39,0x03,0x80,0x38,0x03,0x70,0x37,0x03,0x70,0x38,0x03,0x90,0x3b,0x03,0xd0,0x49,
0x04,0xb0,0x4d,0x04,0xd0,0x4b,0x04,0x90,0x3d,0x03,0xc0,0x3c,0x03,0xb0,0x3a,0x03,
0xa0,0x3b,0x03,0xc0,0x3b,0x03,0xb0,0x3b,0x03,0xe0,0x3f,0x03,0xf0,0x3f,0x03,0xf0,
0x3f,0x04,0xb0,0x4b,0x04,0xa0,0x4a,0x04,0xb0,0x4d,0x04,0xc0,0x3f,0x03,0xf0,0x3f,
0x03,0xf0,0x3e,0x03,0xc0,0x3b,0x03,0xc0,0x49,0x04,0xa0,0x49,0x03,0xb0,0x3b,0x03,
0xc0,0x3b,0x03,0x80,0x37,0x03,0x70,0x38,0x03,0x90,0x38,0x03,0x80,0x39,0x03,0xb0,
0x3e,0x04,0x90,0x49,0x04,0xa0,0x59,0x05,0x90,0x58,0x04,0x90,0x48,0x04,0x80,0x48,
0x04,0x70,0x46,0x04,0x60,0x47,0x05,0x60,0x47,0x04,0x70,0x48,0x04,0xa0,0x4a,0x04,
0xb0,0x4b,0x04,0xa0,0x49,0x03,0xe0,0x3c,0x03,0xa0,0x39,0x03,0x90,0x39,0x03,0x90,
0x39,0x03,0xb0,0x3e,0x04,0xb0,0x59,0x06,0x80,0x78,0x08,0x80,0x79,0x06,0x90,0x59,
0x05,0x80,0x49,0x03,0xa0,0x2e,0x02,0xb0,0x2a,0x02,0xb0,0x2b,0x02,0xd0,0x2f,0x03,
0xc0,0x3f,0x04,0xd0,0x4f,0x04,0xf0,0x4f,0x04,0xf0,0x4f,0x04,0xd0,0x4a,0x04,0x90,
0x3b,0x02,0xf0,0x2d,0x02,0xc0,0x2b,0x02,0xa0,0x2c,0x03,0x80,0x39,0x03,0xb0,0x3e,
0x04,0xa0,0x4a,0x04,0xc0,0x4d,0x04,0xc0,0x3f,0x03,0xe0,0x3d,0x03,0xa0,0x38,0x02,
0xb0,0x2a,0x02,0x90,0x2b,0x03,0x80,0x39,0x03,0xa0,0x3c,0x03,0xf0,0x4e,0x05,0xb0,
0x5c,0x05,0xe0,0x6c,0x06,0xd0,0x6b,0x05,0xd0,0x5a,0x04,0xd0,0x3f,0x03,0xe0,0x3b,
0x03,0x80,0x37,0x03,0x70,0x46,0x04,0x60,0x46,0x04,0x70,0x48,0x04,0x90,0x4a,0x04,
0xa0,0x4a,0x04,0xa0,0x4a,0x04,0xa0,0x48,0x03,0xa0,0x39,0x03,0x90,0x39,0x03,0x80,
0x38,0x03,0xa0,0x3c,0x03,0xd0,0x3e,0x04,0x90,0x4a,0x04,0xa0,0x4a,0x04,0x90,0x48,
0x03,0xb0,0x3a,0x03,0xa0,0x3a,0x03,0xa0,0x3a,0x03,0xc0,0x3e,0x04,0x90,0x4a,0x04,
0xc0,0x4e,0x04,0xe0,0x4e,0x04,0xd0,0x4c,0x04,0xa0,0x49,0x03,0xc0,0x3b,0x03,0xa0,
0x39,0x03,0x90,0x39,0x03,0x90,0x3a,0x04,0x80,0x49,0x04,0x90,0x49,0x04,0xb0,0x4c,
0x04,0xc0,0x4b,0x04,0xa0,0x49,0x04,0x90,0x3d,0x03,0xb0,0x39,0x03,0x80,0x38,0x03,
0x90,0x39,0x03,0x90,0x39,0x03,0xb0,0x3d,0x04,0x90,0x57,0x05,0x70,0x57,0x05,0x70,
0x57,0x05,0x70,0x49,0x03,0xe0,0x3d,0x03,0xe0,0x3e,0x03,0xe0,0x3d,0x03,0xc0,0x3d,
0x03,0xd0,0x3c,0x03,0xc0,0x3d,0x03,0xd0,0x3c,0x03,0xd0,0x3e,0x03,0xe0,0x3e,0x04,
0x90,0x4a,0x04,0xb0,0x4a,0x04,0xa0,0x49,0x03,0xe0,0x3d,0x03,0xe0,0x3e,0x03,0xe0,
0x3c,0x03,0xb0,0x3b,0x03,0xb0,0x3a,0x03,0xa0,0x3a,0x03,0xa0,0x3a,0x03,0xa0,0x3b,
0x03,0xc0,0x3e,0x03,0xe0,0x3e,0x03,0xe0,0x4a,0x04,0xa0,0x4a,0x04,0x90,0x49,0x04,
0x90,0x49,0x03,0xc0,0x3b,0x03,0xa0,0x3b,0x03,0xc0,0x3d,0x03,0xd0,0x49,0x04,0xa0,
0x4b,0x04,0xc0,0x4b,0x04,0xb0,0x4b,0x04,0xb0,0x4a,0x03,0xd0,0x3a,0x03,0x90,0x39,
0x03,0x80,0x37,0x03,0x70,0x38,0x03,0xa0,0x3b,0x03,0xb0,0x3b,0x03,0xd0,0x49,0x04,
0xa0,0x4a,0x04,0xa0,0x4a,0x04,0xb0,0x4b,0x04,0xa0,0x3d,0x03,0xc0,0x3d,0x03,0xb0,
0x39,0x03,0x90,0x3b,0x03,0xc0,0x3c,0x03,0xd0,0x3e,0x04,0x90,0x49,0x04,0xa0,0x4b,
0x04,0xa0,0x4a,0x04,0xa0,0x4a,0x04,0x90,0x3c,0x03,0xc0,0x3c,0x03,0xb0,0x3a,0x03,
0xa0,0x3b,0x03,0xc0,0x3d,0x03,0xe0,0x3e,0x04,0x90,0x4b,0x04,0xc0,0x4b,0x04,0xa0,
0x49,0x03,0xd0,0x3b,0x03,0xa0,0x3a,0x03,0x90,0x38,0x03,0x80,0x38,0x03,0x90,0x39,
0x03,0xa0,0x48,0x04,0x90,0x4a,0x04,0xb0,0x4c,0x04,0xc0,0x4d,0x04,0xd0,0x4c,0x04,
0xa0,0x49,0x03,0xd0,0x3b,0x03,0xa0,0x3a,0x03,0xa0,0x3a,0x03,0xb0,0x3b,0x03,0xc0,
0x3d,0x03,0xe0,0x3e,0x03,0xf0,0x3f,0x03,0xf0,0x3f,0x03,0xe0,0x3e,0x03,0xd0,0x3c,
0x03,0xb0,0x3a,0x03,0xa0,0x3a,0x03,0xa0,0x3b,0x03,0xc0,0x3e,0x04,0x90,0x49,0x04,
0xa0,0x4a,0x04,0xb0,0x4b,0x04,0xb0,0x4a,0x04,0x90,0x3d,0x03,0xc0,0x3b,0x03,0x90,
0x39,0x03,0x90,0x3a,0x03,0xa0,0x3a,0x04,0x80,0x49,0x04,0xa0,0x4a,0x04,0xa0,0x4a,
0x04,0x90,0x3d,0x03,0xc0,0x3b,0x03,0xa0,0x3a,0x03,0xa0,0x3a,0x03,0xb0,0x3b,0x03,
0xc0,0x3d,0x04,0x90,0x49,0x04,0xa0,0x4b,0x04,0xb0,0x4b,0x04,0xa0,0x49,0x03,0xc0,
0x3b,0x03,0xb0,0x3a,0x03,0x90,0x39,0x03,0xa0,0x3b,0x03,0xb0,0x3d,0x04,0xa0,0x4d,
0x04,0xe0,0x4d,0x04,0xd0,0x4d,0x04,0xc0,0x4a,0x04,0x90,0x3e,0x03,0xb0,0x3a,0x03,
0xa0,0x3a,0x03,0x90,0x39,0x03,0x90,0x3b,0x03,0xc0,0x3e,0x03,0xe0,0x49,0x04,0x90,
0x49,0x04,0x90,0x3e,0x03,0xe0,0x3d,0x03,0xc0,0x3b,0x03,0xb0,0x3a,0x03,0xa0,0x3a,
0x03,0xa0,0x3b,0x03,0xb0,0x3b,0x03,0xc0,0x3e,0x04,0x90,0x49,0x03,0xe0,0x3d,0x03,
0xd0,0x3e,0x04,0x90,0x49,0x04,0x90,0x49,0x04,0x90,0x57,0x05,0x70,0x57,0x05,0x70,
0x4a,0x04,0xa0,0x4b,0x04,0xa0,0x49,0x04,0x90,0x48,0x03,0xb0,0x3a,0x03,0x90,0x39,
0x03,0x90,0x39,0x03,0xa0,0x3a,0x03,0xa0,0x48,0x04,0x90,0x4b,0x04,0xc0,0x4e,0x04,
0xe0,0x4d,0x04,0xb0,0x4a,0x04,0x90,0x48,0x03,0xa0,0x38,0x02,0xe0,0x2d,0x02,0xd0,
0x2e,0x02,0xe0,0x3a,0x04,0x80,0x57,0x05,0x80,0x59,0x05,0x90,0x5a,0x05,0xa0,0x4c,
0x04,0xa0,0x49,0x04,0x90,0x3c,0x03,0xa0,0x39,0x03,0x90,0x39,0x03,0x90,0x3a,0x03,
0xb0,0x3b,0x03,0xc0,0x49,0x04,0xb0,0x4b,0x04,0xb0,0x4b,0x04,0xb0,0x4a,0x04,0x90,
0x48,0x04,0x70,0x55,0x04,0x60,0x46,0x04,0x60,0x46,0x04,0x60,0x47,0x04,0x80,0x48,
0x04,0x90,0x4b,0x04,0xe0,0x4e,0x04,0xd0,0x4b,0x04,0xa0,0x4a,0x03,0xe0,0x3c,0x03,
0xb0,0x3a,0x03,0xa0,0x3b,0x03,0xb0,0x3b,0x03,0xc0,0x49,0x04,0xa0,0x4a,0x04,0xa0,
0x4a,0x04,0xb0,0x4b,0x04,0xa0,0x49,0x03,0xd0,0x3d,0x03,0xc0,0x3b,0x03,0xa0,0x39,
0x03,0xa0,0x3a,0x03,0xb0,0x3b,0x03,0xc0,0x3e,0x04,0x90,0x4a,0x04,0xa0,0x4a,0x04,
0x90,0x3e,0x03,0xc0,0x3b,0x03,0xa0,0x3a,0x03,0xa0,0x3a,0x03,0xb0,0x3c,0x03,0xe0,
0x49,0x04,0xa0,0x4b,0x04,0xb0,0x4b,0x04,0xa0,0x49,0x03,0xd0,0x3c,0x03,0xc0,0x3b,
0x03,0xa0,0x3a,0x03,0xa0,0x39,0x03,0x80,0x38,0x03,0x90,0x3a,0x03,0xc0,0x3d,0x03,
0xd0,0x49,0x04,0xb0,0x4c,0x04,0xc0,0x4b,0x04,0xb0,0x4b,0x04,0xa0,0x3d,0x03,0xb0,
0x3c,0x03,0xb0,0x3b,0x03,0xb0,0x3b,0x03,0xc0,0x3e,0x04,0xa0,0x4a,0x04,0xb0,0x4c,
0x04,0xd0,0x4d,0x04,0xb0,0x49,0x04,0x90,0x3e,0x03,0xc0,0x3a,0x03,0xa0,0x3a,0x03,
0xa0,0x3a,0x03,0xa0,0x3b,0x03,0xc0,0x3d,0x03,0xe0,0x3e,0x03,0xd0,0x3e,0x03,0xe0,
0x3e,0x03,0xe0,0x3d,0x03,0xc0,0x3c,0x03,0xb0,0x3a,0x03,0xa0,0x39,0x03,0x90,0x3a,
0x03,0xb0,0x3b,0x03,0xa0,0x3c,0x03,0xd0,0x3c,0x03,0xc0,0x3c,0x03,0xd0,0x3c,0x03,
0xb0,0x3c,0x03,0xe0,0x49,0x04,0xa0,0x4b,0x04,0xc0,0x4d,0x04,0xe0,0x4e,0x04,0xe0,
0x4c,0x04,0xb0,0x4a,0x03,0xe0,0x3b,0x03,0xa0,0x3a,0x03,0x90,0x39,0x03,0x90,0x3a,
0x03,0xc0,0x3d,0x04,0x90,0x4a,0x04,0xb0,0x4c,0x04,0xd0,0x4d,0x04,0xc0,0x4b,0x03,
0xf0,0x3e,0x03,0xc0,0x3a,0x03,0x90,0x38,0x02,0xc0,0x2b,0x02,0xb0,0x2b,0x02,0xd0,
0x2e,0x02,0xf0,0x2f,0x03,0xb0,0x49,0x04,0xa0,0x4b,0x04,0xb0,0x4c,0x04,0xd0,0x4c,
0x04,0xa0,0x49,0x03,0xe0,0x3c,0x03,0xb0,0x3b,0x03,0xc0,0x3b,0x03,0xc0,0x3e,0x03,
0xf0,0x3f,0x03,0xf0,0x3f,0x03,0xf0,0x3f,0x03,0xf0,0x3f,0x03,0xe0,0x3e,0x03,0xe0,
0x3e,0x03,0xc0,0x3b,0x03,0xc0,0x3e,0x03,0xe0,0x3e,0x03,0xe0,0x3e,0x03,0xe0,0x3e,
0x03,0xe0,0x3c,0x03,0xc0,0x3c,0x03,0xc0,0x3b,0x03,0xa0,0x3a,0x03,0xa0,0x3a,0x03,
0xb0,0x3b,0x03,0xc0,0x3c,0x03,0xe0,0x49,0x04,0x90,0x49,0x04,0xa0,0x4a,0x04,0x90,
0x49,0x03,0xe0,0x3e,0x03,0xc0,0x3b,0x03,0xa0,0x3b,0x03,0xb0,0x3c,0x03,0xc0,0x3c,
0x03,0xc0,0x3d,0x04,0x90,0x49,0x04,0x90,0x49,0x04,0x90,0x48,0x04,0x80,0x48,0x04,
0x80,0x48,0x04,0x80,0x48,0x04,0x80,0x48,0x04,0x80,0x48,0x04,0x90,0x49,0x04,0x90,
0x49,0x03,0xd0,0x3c,0x03,0xc0,0x3c,0x03,0xb0,0x3b,0x03,0xb0,0x3c,0x03,0xd0,0x3e,
0x03,0xe0,0x49,0x04,0xa0,0x4b,0x04,0xb0,0x4b,0x04,0xb0,0x4a,0x04,0xa0,0x3e,0x03,
0xc0,0x3b,0x03,0xb0,0x3a,0x03,0x90,0x39,0x03,0xa0,0x3b,0x03,0xc0,0x3d,0x03,0xe0,
0x3e,0x04,0x90,0x4a,0x04,0xa0,0x49,0x04,0x90,0x3e,0x03,0xe0,0x3d,0x03,0xb0,0x3b,
0x03,0xb0,0x3c,0x03,0xc0,0x3b,0x03,0xb0,0x3b,0x03,0xc0,0x3e,0x04,0x90,0x49,0x04,
0x90,0x4a,0x04,0xb0,0x4b,0x04,0xa0,0x4a,0x04,0x90,0x3e,0x03,0xb0,0x39,0x03,0x80,
0x38,0x03,0x80,0x38,0x03,0x90,0x39,0x04,0x70,0x48,0x04,0x90,0x4a,0x04,0xa0,0x4b,
0x04,0xb0,0x4b,0x04,0xa0,0x4a,0x03,0xe0,0x3d,0x03,0xc0,0x3c,0x03,0xc0,0x3c,0x03,
0xd0,0x3d,0x03,0xd0,0x49,0x04,0xa0,0x4a,0x04,0xa0,0x49,0x04,0x90,0x49,0x03,0xe0,
0x3d,0x03,0xc0,0x3b,0x03,0xb0,0x3c,0x03,0xd0,0x3d,0x03,0xe0,0x49,0x04,0xa0,0x4a,
0x04,0xa0,0x4a,0x04,0xa0,0x4a,0x04,0xa0,0x49,0x03,0xc0,0x3a,0x03,0xa0,0x3a,0x03,
0x90,0x38,0x03,0x80,0x39,0x03,0x90,0x39,0x03,0xa0,0x3b,0x03,0xd0,0x3e,0x04,0x90,
0x49,0x04,0x90,0x4a,0x04,0x90,0x3e,0x03,0xd0,0x3d,0x03,0xd0,0x3d,0x03,0xc0,0x3b,
0x03,0xc0,0x3c,0x03,0xc0,0x3c,0x03,0xd0,0x49,0x04,0xa0,0x4a,0x04,0xa0,0x4a,0x04,
0xa0,0x4b,0x04,0xa0,0x49,0x03,0xd0,0x3c,0x03,0xc0,0x3b,0x03,0xa0,0x3a,0x03,0xa0,
0x3b,0x03,0xb0,0x3c,0x03,0xd0,0x3e,0x04,0x90,0x4a,0x04,0xa0,0x4a,0x04,0xa0,0x4a,
0x04,0xa0,0x49,0x04,0x90,0x3e,0x03,0xe0,0x3d,0x03,0xc0,0x3c,0x03,0xc0,0x3d,0x03,
0xe0,0x3d,0x03,0xc0,0x3c,0x03,0xd0,0x3c,0x03,0xb0};

