ASxxxx Assembler V02.00 + NoICE + SDCC mods  (Zilog Z80 / Hitachi HD64180 / ZX-Next / eZ80)                   Page 1
Hexadecimal [24-Bits]

Symbol Table

    .__.$$$.                                                    =  002710 L
    .__.ABS.                                                    =  000000 G
    .__.CPU.                                                    =  000000 L
    .__.H$L.                                                    =  000000 L
  0 A$saves$100                                                    000023 GR
  0 A$saves$101                                                    000025 GR
  0 A$saves$102                                                    000028 GR
  0 A$saves$103                                                    00002A GR
  0 A$saves$107                                                    00002C GR
  0 A$saves$108                                                    00002F GR
  0 A$saves$112                                                    000031 GR
  0 A$saves$113                                                    000034 GR
  0 A$saves$117                                                    000036 GR
  0 A$saves$118                                                    000039 GR
  0 A$saves$119                                                    00003C GR
  0 A$saves$124                                                    00003E GR
  0 A$saves$125                                                    000041 GR
  0 A$saves$129                                                    000043 GR
  0 A$saves$130                                                    000046 GR
  0 A$saves$134                                                    000049 GR
  0 A$saves$135                                                    00004C GR
  0 A$saves$140                                                    00004E GR
  0 A$saves$141                                                    000051 GR
  0 A$saves$142                                                    000054 GR
  0 A$saves$143                                                    000057 GR
  0 A$saves$147                                                    000059 GR
  0 A$saves$148                                                    00005C GR
  0 A$saves$149                                                    00005F GR
  0 A$saves$150                                                    000061 GR
  0 A$saves$151                                                    000063 GR
  0 A$saves$152                                                    000064 GR
  0 A$saves$153                                                    000066 GR
  0 A$saves$157                                                    000068 GR
  0 A$saves$158                                                    00006C GR
  0 A$saves$163                                                    00006F GR
  0 A$saves$164                                                    000072 GR
  0 A$saves$168                                                    000074 GR
  0 A$saves$169                                                    000076 GR
  0 A$saves$173                                                    000077 GR
  0 A$saves$174                                                    00007A GR
  0 A$saves$175                                                    00007B GR
  0 A$saves$179                                                    00007D GR
  0 A$saves$180                                                    000081 GR
  0 A$saves$181                                                    000082 GR
  0 A$saves$182                                                    000085 GR
  0 A$saves$183                                                    000087 GR
  0 A$saves$184                                                    000088 GR
  0 A$saves$189                                                    00008A GR
  0 A$saves$190                                                    00008B GR
  0 A$saves$191                                                    00008E GR
  0 A$saves$192                                                    000091 GR
  0 A$saves$193                                                    000094 GR
  0 A$saves$194                                                    000097 GR
  0 A$saves$195                                                    000098 GR
  0 A$saves$196                                                    00009B GR
ASxxxx Assembler V02.00 + NoICE + SDCC mods  (Zilog Z80 / Hitachi HD64180 / ZX-Next / eZ80)                   Page 2
Hexadecimal [24-Bits]

Symbol Table

  0 A$saves$197                                                    00009C GR
  0 A$saves$198                                                    00009F GR
  0 A$saves$199                                                    0000A2 GR
  0 A$saves$200                                                    0000A5 GR
  0 A$saves$205                                                    0000A6 GR
  0 A$saves$206                                                    0000A9 GR
  0 A$saves$207                                                    0000AA GR
  0 A$saves$208                                                    0000AD GR
  0 A$saves$209                                                    0000B0 GR
  0 A$saves$210                                                    0000B2 GR
  0 A$saves$214                                                    0000B3 GR
  0 A$saves$215                                                    0000B6 GR
  0 A$saves$216                                                    0000B8 GR
  0 A$saves$217                                                    0000BB GR
  0 A$saves$218                                                    0000BC GR
  0 A$saves$219                                                    0000BE GR
  0 A$saves$223                                                    0000C1 GR
  0 A$saves$227                                                    0000C5 GR
  0 A$saves$228                                                    0000C8 GR
  0 A$saves$232                                                    0000CA GR
  0 A$saves$233                                                    0000CD GR
  0 A$saves$237                                                    0000CF GR
  0 A$saves$238                                                    0000D2 GR
  0 A$saves$242                                                    0000D4 GR
  0 A$saves$243                                                    0000D7 GR
  0 A$saves$247                                                    0000DA GR
  0 A$saves$248                                                    0000DD GR
  0 A$saves$252                                                    0000DF GR
  0 A$saves$253                                                    0000E2 GR
  0 A$saves$257                                                    0000E4 GR
  0 A$saves$258                                                    0000E7 GR
  0 A$saves$262                                                    0000E9 GR
  0 A$saves$263                                                    0000EC GR
  0 A$saves$267                                                    0000EF GR
  0 A$saves$268                                                    0000F2 GR
  0 A$saves$272                                                    0000F4 GR
  0 A$saves$273                                                    0000F7 GR
  0 A$saves$277                                                    0000F9 GR
  0 A$saves$278                                                    0000FC GR
  0 A$saves$282                                                    0000FE GR
  0 A$saves$283                                                    000101 GR
  0 A$saves$287                                                    000104 GR
  0 A$saves$288                                                    000107 GR
  0 A$saves$292                                                    000109 GR
  0 A$saves$293                                                    00010C GR
  0 A$saves$297                                                    00010E GR
  0 A$saves$298                                                    000111 GR
  0 A$saves$302                                                    000113 GR
  0 A$saves$303                                                    000116 GR
  0 A$saves$307                                                    000119 GR
  0 A$saves$308                                                    00011C GR
  0 A$saves$312                                                    00011E GR
  0 A$saves$313                                                    000121 GR
  0 A$saves$317                                                    000123 GR
  0 A$saves$318                                                    000126 GR
ASxxxx Assembler V02.00 + NoICE + SDCC mods  (Zilog Z80 / Hitachi HD64180 / ZX-Next / eZ80)                   Page 3
Hexadecimal [24-Bits]

Symbol Table

  0 A$saves$322                                                    000128 GR
  0 A$saves$323                                                    00012B GR
  0 A$saves$327                                                    00012E GR
  0 A$saves$328                                                    000131 GR
  0 A$saves$332                                                    000133 GR
  0 A$saves$333                                                    000136 GR
  0 A$saves$337                                                    000138 GR
  0 A$saves$338                                                    00013B GR
  0 A$saves$342                                                    00013D GR
  0 A$saves$343                                                    000140 GR
  0 A$saves$347                                                    000143 GR
  0 A$saves$348                                                    000146 GR
  0 A$saves$352                                                    000148 GR
  0 A$saves$353                                                    00014B GR
  0 A$saves$357                                                    00014D GR
  0 A$saves$358                                                    000150 GR
  0 A$saves$362                                                    000152 GR
  0 A$saves$363                                                    000155 GR
  0 A$saves$367                                                    000158 GR
  0 A$saves$368                                                    00015B GR
  0 A$saves$372                                                    00015D GR
  0 A$saves$373                                                    000160 GR
  0 A$saves$377                                                    000162 GR
  0 A$saves$378                                                    000165 GR
  0 A$saves$382                                                    000167 GR
  0 A$saves$383                                                    00016A GR
  0 A$saves$387                                                    00016D GR
  0 A$saves$388                                                    000170 GR
  0 A$saves$392                                                    000172 GR
  0 A$saves$393                                                    000175 GR
  0 A$saves$397                                                    000177 GR
  0 A$saves$398                                                    00017A GR
  0 A$saves$402                                                    00017C GR
  0 A$saves$403                                                    00017F GR
  0 A$saves$407                                                    000182 GR
  0 A$saves$408                                                    000185 GR
  0 A$saves$412                                                    000187 GR
  0 A$saves$413                                                    00018A GR
  0 A$saves$417                                                    00018C GR
  0 A$saves$418                                                    00018F GR
  0 A$saves$422                                                    000191 GR
  0 A$saves$423                                                    000194 GR
  0 A$saves$424                                                    000197 GR
  0 A$saves$429                                                    000199 GR
  0 A$saves$434                                                    00019D GR
  0 A$saves$435                                                    0001A1 GR
  0 A$saves$439                                                    0001A3 GR
  0 A$saves$440                                                    0001A6 GR
  0 A$saves$441                                                    0001A7 GR
  0 A$saves$445                                                    0001A9 GR
  0 A$saves$446                                                    0001AD GR
  0 A$saves$447                                                    0001B0 GR
  0 A$saves$448                                                    0001B3 GR
  0 A$saves$449                                                    0001B5 GR
  0 A$saves$454                                                    0001B7 GR
ASxxxx Assembler V02.00 + NoICE + SDCC mods  (Zilog Z80 / Hitachi HD64180 / ZX-Next / eZ80)                   Page 4
Hexadecimal [24-Bits]

Symbol Table

  0 A$saves$455                                                    0001BA GR
  0 A$saves$456                                                    0001BD GR
  0 A$saves$460                                                    0001C0 GR
  0 A$saves$461                                                    0001C3 GR
  0 A$saves$462                                                    0001C4 GR
  0 A$saves$463                                                    0001C7 GR
  0 A$saves$464                                                    0001C8 GR
  0 A$saves$465                                                    0001CB GR
  0 A$saves$466                                                    0001CE GR
  0 A$saves$471                                                    0001D1 GR
  0 A$saves$472                                                    0001D4 GR
  0 A$saves$473                                                    0001D7 GR
  0 A$saves$474                                                    0001DA GR
  0 A$saves$479                                                    0001DC GR
  0 A$saves$480                                                    0001DF GR
  0 A$saves$481                                                    0001E0 GR
  0 A$saves$485                                                    0001E2 GR
  0 A$saves$486                                                    0001E5 GR
  0 A$saves$487                                                    0001E7 GR
  0 A$saves$492                                                    0001E9 GR
  0 A$saves$493                                                    0001EC GR
  0 A$saves$498                                                    0001EE GR
  0 A$saves$499                                                    0001F2 GR
  0 A$saves$503                                                    0001F4 GR
  0 A$saves$504                                                    0001F7 GR
  0 A$saves$509                                                    0001F9 GR
  0 A$saves$513                                                    0001FC GR
  0 A$saves$514                                                    0001FE GR
  0 A$saves$519                                                    000200 GR
  0 A$saves$532                                                    000201 GR
  0 A$saves$533                                                    000204 GR
  0 A$saves$534                                                    000205 GR
  0 A$saves$535                                                    000206 GR
  0 A$saves$536                                                    000209 GR
  0 A$saves$537                                                    00020A GR
  0 A$saves$538                                                    00020C GR
  0 A$saves$539                                                    00020F GR
  0 A$saves$540                                                    000211 GR
  0 A$saves$541                                                    000213 GR
  0 A$saves$549                                                    000214 GR
  0 A$saves$550                                                    000218 GR
  0 A$saves$554                                                    00021C GR
  0 A$saves$555                                                    000220 GR
  0 A$saves$556                                                    000223 GR
  0 A$saves$557                                                    000226 GR
  0 A$saves$561                                                    000228 GR
  0 A$saves$565                                                    00022C GR
  0 A$saves$573                                                    00022D GR
  0 A$saves$574                                                    000230 GR
  0 A$saves$578                                                    000232 GR
  0 A$saves$579                                                    000235 GR
  0 A$saves$580                                                    000238 GR
  0 A$saves$584                                                    00023B GR
  0 A$saves$585                                                    00023E GR
  0 A$saves$586                                                    00023F GR
ASxxxx Assembler V02.00 + NoICE + SDCC mods  (Zilog Z80 / Hitachi HD64180 / ZX-Next / eZ80)                   Page 5
Hexadecimal [24-Bits]

Symbol Table

  0 A$saves$587                                                    000242 GR
  0 A$saves$588                                                    000243 GR
  0 A$saves$589                                                    000246 GR
  0 A$saves$590                                                    000249 GR
  0 A$saves$594                                                    00024C GR
  0 A$saves$595                                                    00024F GR
  0 A$saves$606                                                    000251 GR
  0 A$saves$71                                                     000000 GR
  0 A$saves$72                                                     000002 GR
  0 A$saves$73                                                     000006 GR
  0 A$saves$74                                                     000008 GR
  0 A$saves$75                                                     000009 GR
  0 A$saves$79                                                     00000A GR
  0 A$saves$83                                                     00000E GR
  0 A$saves$87                                                     000012 GR
  0 A$saves$88                                                     000015 GR
  0 A$saves$92                                                     000017 GR
  0 A$saves$93                                                     00001A GR
  0 A$saves$94                                                     00001B GR
  0 A$saves$98                                                     00001E GR
  0 A$saves$99                                                     000021 GR
  0 C$saves.c$100$3_1$117                                       =  000187 GR
  0 C$saves.c$101$3_1$117                                       =  00018C GR
  0 C$saves.c$102$3_1$117                                       =  000191 GR
  0 C$saves.c$105$3_1$118                                       =  000199 GR
  0 C$saves.c$108$1_1$110                                       =  00019D GR
  0 C$saves.c$109$2_1$119                                       =  0001A3 GR
  0 C$saves.c$111$3_1$120                                       =  0001A9 GR
  0 C$saves.c$114$3_1$121                                       =  0001B7 GR
  0 C$saves.c$115$3_1$121                                       =  0001C0 GR
  0 C$saves.c$118$2_1$119                                       =  0001D1 GR
  0 C$saves.c$12$0_0$109                                        =  000000 GR
  0 C$saves.c$120$1_1$110                                       =  0001DC GR
  0 C$saves.c$121$2_1$122                                       =  0001E2 GR
  0 C$saves.c$123$2_1$123                                       =  0001E9 GR
  0 C$saves.c$125$1_1$110                                       =  0001EE GR
  0 C$saves.c$126$2_1$124                                       =  0001F4 GR
  0 C$saves.c$128$1_1$110                                       =  0001F9 GR
  0 C$saves.c$129$1_1$109                                       =  000200 GR
  0 C$saves.c$13$2_0$109                                        =  00000A GR
  0 C$saves.c$132$1_1$126                                       =  000201 GR
  0 C$saves.c$133$1_0$126                                       =  000201 GR
  0 C$saves.c$137$2_0$127                                       =  000214 GR
  0 C$saves.c$138$2_0$127                                       =  000214 GR
  0 C$saves.c$139$2_0$127                                       =  00021C GR
  0 C$saves.c$14$2_0$109                                        =  00000E GR
  0 C$saves.c$140$2_0$127                                       =  000228 GR
  0 C$saves.c$141$2_0$127                                       =  00022C GR
  0 C$saves.c$142$2_0$127                                       =  00022D GR
  0 C$saves.c$143$2_0$127                                       =  00022D GR
  0 C$saves.c$144$2_0$127                                       =  000232 GR
  0 C$saves.c$145$2_0$127                                       =  00023B GR
  0 C$saves.c$146$2_0$127                                       =  00024C GR
  0 C$saves.c$15$1_0$109                                        =  000012 GR
  0 C$saves.c$150$1_0$126                                       =  000251 GR
ASxxxx Assembler V02.00 + NoICE + SDCC mods  (Zilog Z80 / Hitachi HD64180 / ZX-Next / eZ80)                   Page 6
Hexadecimal [24-Bits]

Symbol Table

  0 C$saves.c$151$1_0$126                                       =  000251 GR
  0 C$saves.c$18$1_1$110                                        =  000017 GR
  0 C$saves.c$19$1_1$110                                        =  00001E GR
  0 C$saves.c$21$2_1$111                                        =  00002C GR
  0 C$saves.c$22$2_1$111                                        =  000031 GR
  0 C$saves.c$23$2_1$111                                        =  000036 GR
  0 C$saves.c$25$2_1$112                                        =  00003E GR
  0 C$saves.c$26$2_1$112                                        =  000043 GR
  0 C$saves.c$27$2_1$112                                        =  000049 GR
  0 C$saves.c$32$1_1$110                                        =  00004E GR
  0 C$saves.c$33$1_1$110                                        =  000059 GR
  0 C$saves.c$35$2_1$113                                        =  000068 GR
  0 C$saves.c$38$2_1$114                                        =  00006F GR
  0 C$saves.c$39$2_1$114                                        =  000074 GR
  0 C$saves.c$40$2_1$114                                        =  000077 GR
  0 C$saves.c$42$3_1$115                                        =  00007D GR
  0 C$saves.c$45$3_1$116                                        =  00008A GR
  0 C$saves.c$49$2_1$114                                        =  0000A6 GR
  0 C$saves.c$51$2_1$114                                        =  0000B3 GR
  0 C$saves.c$52$3_1$117                                        =  0000C1 GR
  0 C$saves.c$54$3_1$117                                        =  0000C5 GR
  0 C$saves.c$55$3_1$117                                        =  0000CA GR
  0 C$saves.c$56$3_1$117                                        =  0000CF GR
  0 C$saves.c$57$3_1$117                                        =  0000D4 GR
  0 C$saves.c$59$3_1$117                                        =  0000DA GR
  0 C$saves.c$60$3_1$117                                        =  0000DF GR
  0 C$saves.c$61$3_1$117                                        =  0000E4 GR
  0 C$saves.c$62$3_1$117                                        =  0000E9 GR
  0 C$saves.c$64$3_1$117                                        =  0000EF GR
  0 C$saves.c$65$3_1$117                                        =  0000F4 GR
  0 C$saves.c$66$3_1$117                                        =  0000F9 GR
  0 C$saves.c$67$3_1$117                                        =  0000FE GR
  0 C$saves.c$69$3_1$117                                        =  000104 GR
  0 C$saves.c$70$3_1$117                                        =  000109 GR
  0 C$saves.c$71$3_1$117                                        =  00010E GR
  0 C$saves.c$72$3_1$117                                        =  000113 GR
  0 C$saves.c$74$3_1$117                                        =  000119 GR
  0 C$saves.c$75$3_1$117                                        =  00011E GR
  0 C$saves.c$76$3_1$117                                        =  000123 GR
  0 C$saves.c$77$3_1$117                                        =  000128 GR
  0 C$saves.c$79$3_1$117                                        =  00012E GR
  0 C$saves.c$80$3_1$117                                        =  000133 GR
  0 C$saves.c$81$3_1$117                                        =  000138 GR
  0 C$saves.c$82$3_1$117                                        =  00013D GR
  0 C$saves.c$84$3_1$117                                        =  000143 GR
  0 C$saves.c$85$3_1$117                                        =  000148 GR
  0 C$saves.c$86$3_1$117                                        =  00014D GR
  0 C$saves.c$87$3_1$117                                        =  000152 GR
  0 C$saves.c$89$3_1$117                                        =  000158 GR
  0 C$saves.c$90$3_1$117                                        =  00015D GR
  0 C$saves.c$91$3_1$117                                        =  000162 GR
  0 C$saves.c$92$3_1$117                                        =  000167 GR
  0 C$saves.c$94$3_1$117                                        =  00016D GR
  0 C$saves.c$95$3_1$117                                        =  000172 GR
  0 C$saves.c$96$3_1$117                                        =  000177 GR
ASxxxx Assembler V02.00 + NoICE + SDCC mods  (Zilog Z80 / Hitachi HD64180 / ZX-Next / eZ80)                   Page 7
Hexadecimal [24-Bits]

Symbol Table

  0 C$saves.c$97$3_1$117                                        =  00017C GR
  0 C$saves.c$99$3_1$117                                        =  000182 GR
    G$ROM_bank_to_be_mapped_on_slot0$0_0$0                      =  00FFFD G
    G$ROM_bank_to_be_mapped_on_slot1$0_0$0                      =  00FFFE G
    G$ROM_bank_to_be_mapped_on_slot2$0_0$0                      =  00FFFF G
    G$SMS_SRAM$0_0$0                                            =  008000 G
    G$SRAM_bank_to_be_mapped_on_slot2$0_0$0                     =  00FFFC G
  0 G$init_savesystem$0$0                                       =  000000 GR
  0 G$saveChanges$0$0                                           =  000201 GR
  0 XG$init_savesystem$0$0                                      =  000200 GR
  0 XG$saveChanges$0$0                                          =  000251 GR
    _ROM_bank_to_be_mapped_on_slot0                             =  00FFFD G
    _ROM_bank_to_be_mapped_on_slot1                             =  00FFFE G
    _ROM_bank_to_be_mapped_on_slot2                             =  00FFFF G
    _SMS_SRAM                                                   =  008000 G
    _SRAM_bank_to_be_mapped_on_slot2                            =  00FFFC G
    _currentSaveSystem                                             ****** GX
    _flash_ids_get                                                 ****** GX
    _flash_program                                                 ****** GX
    _flash_sector_erase                                            ****** GX
    _highscore_table                                               ****** GX
    _highscore_table_backup                                        ****** GX
  0 _init_savesystem                                               000000 GR
  0 _saveChanges                                                   000201 GR

ASxxxx Assembler V02.00 + NoICE + SDCC mods  (Zilog Z80 / Hitachi HD64180 / ZX-Next / eZ80)                   Page 8
Hexadecimal [24-Bits]

Area Table

   0 _CODE                                      size    252   flags    0
   1 _DATA                                      size      0   flags    0
   2 _INITIALIZED                               size      0   flags    0
   3 _DABS                                      size      0   flags    8
   4 _HOME                                      size      0   flags    0
   5 _GSINIT                                    size      0   flags    0
   6 _GSFINAL                                   size      0   flags    0
   7 _INITIALIZER                               size      0   flags    0
   8 _CABS                                      size      0   flags    8

